{
    "actions":
    [
        {
            "name": "go_home",
            "object": "none",
            "policy": "go_home",
            "policy_type": "custom",
            "n_arms": 1
        },
        {
            "name": "go_center",
            "object": "none",
            "policy": "go_center",
            "policy_type": "custom",
            "n_arms": 1
        },
        {
            "name": "pull",
            "object": "tissue",
            "policy": "pull",
            "policy_type": "custom",
            "n_arms": 1
        },
        {
            "name": "reach",
            "object": "tissue",
            "policy": "reach",
            "policy_type": "custom",
            "n_arms": 1
        },
        {
            "name": "select",
            "object": "tissue",
            "policy": "select",
            "policy_type": "custom",
            "n_arms": 1
        },
        {
            "name": "grasp",
            "object": "tissue",
            "policy": "grasp",
            "policy_type": "custom",
            "n_arms": 1
        },
        {
            "name": "open",
            "object": "none",
            "policy": "open",
            "policy_type": "custom",
            "n_arms": 1
        }
    ]
}
