0.232396125793|reachable(psm1,block,(1,1)), reachable(psm1,block,(1,2)), reachable(psm1,block,(1,3)), reachable(psm1,block,(1,4)), reachable(psm1,block,(1,5)), reachable(psm1,block,(2,1)), reachable(psm1,block,(2,2)), reachable(psm1,block,(2,3)), reachable(psm1,block,(2,4)), reachable(psm1,block,(2,5)), reachable(psm1,block,(3,1)), reachable(psm1,block,(3,2)), reachable(psm1,block,(3,3)), reachable(psm2,block,(3,4)), reachable(psm2,block,(3,5)), reachable(psm2,block,(4,1)), reachable(psm2,block,(4,2)), reachable(psm2,block,(4,3)), reachable(psm2,block,(4,4)), reachable(psm2,block,(4,5)), reachable(psm2,block,(5,1)), reachable(psm2,block,(5,2)), reachable(psm2,block,(5,3)), reachable(psm2,block,(5,4)), reachable(psm2,block,(5,5)), fixed((2,2)), fixed((1,3)), fixed((3,4)), fixed((1,2)), fixed((2,4)), fixed((1,1)), fixed((1,5)), fixed((4,1)), fixed((3,2)), fixed((2,5)), fixed((2,3)), above_tumor((5,4)), |reach(psm2,block,(5,5),1), grasp(psm2,block,(5,5),2), pull(psm2,block,(5,5),3), 
0.229453086853|reachable(psm1,block,(1,1)), reachable(psm1,block,(1,2)), reachable(psm1,block,(1,3)), reachable(psm1,block,(1,4)), reachable(psm1,block,(1,5)), reachable(psm1,block,(2,1)), reachable(psm1,block,(2,2)), reachable(psm1,block,(2,3)), reachable(psm1,block,(2,4)), reachable(psm1,block,(2,5)), reachable(psm1,block,(3,1)), reachable(psm1,block,(3,2)), reachable(psm1,block,(3,3)), reachable(psm2,block,(3,4)), reachable(psm2,block,(3,5)), reachable(psm2,block,(4,1)), reachable(psm2,block,(4,2)), reachable(psm2,block,(4,3)), reachable(psm2,block,(4,4)), reachable(psm2,block,(4,5)), reachable(psm2,block,(5,1)), reachable(psm2,block,(5,2)), reachable(psm2,block,(5,3)), reachable(psm2,block,(5,4)), reachable(psm2,block,(5,5)), fixed((2,2)), fixed((3,2)), fixed((2,5)), fixed((3,4)), fixed((1,2)), fixed((1,5)), fixed((3,1)), fixed((2,3)), fixed((1,1)), fixed((2,4)), fixed((3,5)), above_tumor((5,1)), |reach(psm2,block,(5,1),1), grasp(psm2,block,(5,1),2), pull(psm2,block,(5,1),3), 
0.246558189392|reachable(psm1,block,(1,1)), reachable(psm1,block,(1,2)), reachable(psm1,block,(1,3)), reachable(psm1,block,(1,4)), reachable(psm1,block,(1,5)), reachable(psm1,block,(2,1)), reachable(psm1,block,(2,2)), reachable(psm1,block,(2,3)), reachable(psm1,block,(2,4)), reachable(psm1,block,(2,5)), reachable(psm1,block,(3,1)), reachable(psm1,block,(3,2)), reachable(psm1,block,(3,3)), reachable(psm2,block,(3,4)), reachable(psm2,block,(3,5)), reachable(psm2,block,(4,1)), reachable(psm2,block,(4,2)), reachable(psm2,block,(4,3)), reachable(psm2,block,(4,4)), reachable(psm2,block,(4,5)), reachable(psm2,block,(5,1)), reachable(psm2,block,(5,2)), reachable(psm2,block,(5,3)), reachable(psm2,block,(5,4)), reachable(psm2,block,(5,5)), fixed((3,1)), fixed((1,2)), fixed((3,5)), fixed((4,1)), fixed((2,4)), fixed((1,1)), fixed((1,3)), fixed((3,4)), fixed((1,4)), fixed((3,2)), fixed((3,3)), above_tumor((4,3)), |reach(psm2,block,(5,5),1), grasp(psm2,block,(5,5),2), pull(psm2,block,(5,5),3), 
0.235888957977|reachable(psm1,block,(1,1)), reachable(psm1,block,(1,2)), reachable(psm1,block,(1,3)), reachable(psm1,block,(1,4)), reachable(psm1,block,(1,5)), reachable(psm1,block,(2,1)), reachable(psm1,block,(2,2)), reachable(psm1,block,(2,3)), reachable(psm1,block,(2,4)), reachable(psm1,block,(2,5)), reachable(psm1,block,(3,1)), reachable(psm1,block,(3,2)), reachable(psm1,block,(3,3)), reachable(psm2,block,(3,4)), reachable(psm2,block,(3,5)), reachable(psm2,block,(4,1)), reachable(psm2,block,(4,2)), reachable(psm2,block,(4,3)), reachable(psm2,block,(4,4)), reachable(psm2,block,(4,5)), reachable(psm2,block,(5,1)), reachable(psm2,block,(5,2)), reachable(psm2,block,(5,3)), reachable(psm2,block,(5,4)), reachable(psm2,block,(5,5)), fixed((3,1)), fixed((2,1)), fixed((1,1)), fixed((2,3)), fixed((1,5)), fixed((1,3)), fixed((1,4)), fixed((4,1)), fixed((3,3)), fixed((1,2)), fixed((3,2)), above_tumor((5,1)), |reach(psm2,block,(5,1),1), grasp(psm2,block,(5,1),2), pull(psm2,block,(5,1),3), 
0.229460000992|reachable(psm1,block,(1,1)), reachable(psm1,block,(1,2)), reachable(psm1,block,(1,3)), reachable(psm1,block,(1,4)), reachable(psm1,block,(1,5)), reachable(psm1,block,(2,1)), reachable(psm1,block,(2,2)), reachable(psm1,block,(2,3)), reachable(psm1,block,(2,4)), reachable(psm1,block,(2,5)), reachable(psm1,block,(3,1)), reachable(psm1,block,(3,2)), reachable(psm1,block,(3,3)), reachable(psm2,block,(3,4)), reachable(psm2,block,(3,5)), reachable(psm2,block,(4,1)), reachable(psm2,block,(4,2)), reachable(psm2,block,(4,3)), reachable(psm2,block,(4,4)), reachable(psm2,block,(4,5)), reachable(psm2,block,(5,1)), reachable(psm2,block,(5,2)), reachable(psm2,block,(5,3)), reachable(psm2,block,(5,4)), reachable(psm2,block,(5,5)), fixed((2,5)), fixed((1,2)), fixed((1,5)), fixed((1,1)), fixed((2,2)), fixed((4,1)), fixed((1,3)), fixed((3,1)), fixed((2,3)), fixed((3,5)), fixed((3,2)), above_tumor((4,3)), |reach(psm2,block,(5,1),1), grasp(psm2,block,(5,1),2), pull(psm2,block,(5,1),3), 
0.238888025284|reachable(psm1,block,(1,1)), reachable(psm1,block,(1,2)), reachable(psm1,block,(1,3)), reachable(psm1,block,(1,4)), reachable(psm1,block,(1,5)), reachable(psm1,block,(2,1)), reachable(psm1,block,(2,2)), reachable(psm1,block,(2,3)), reachable(psm1,block,(2,4)), reachable(psm1,block,(2,5)), reachable(psm1,block,(3,1)), reachable(psm1,block,(3,2)), reachable(psm1,block,(3,3)), reachable(psm2,block,(3,4)), reachable(psm2,block,(3,5)), reachable(psm2,block,(4,1)), reachable(psm2,block,(4,2)), reachable(psm2,block,(4,3)), reachable(psm2,block,(4,4)), reachable(psm2,block,(4,5)), reachable(psm2,block,(5,1)), reachable(psm2,block,(5,2)), reachable(psm2,block,(5,3)), reachable(psm2,block,(5,4)), reachable(psm2,block,(5,5)), fixed((2,2)), fixed((1,4)), fixed((3,4)), fixed((2,5)), fixed((3,3)), fixed((3,1)), fixed((1,5)), fixed((3,5)), fixed((2,1)), fixed((2,3)), fixed((2,4)), above_tumor((5,3)), |reach(psm2,block,(5,1),1), grasp(psm2,block,(5,1),2), pull(psm2,block,(5,1),3), 
0.232089996338|reachable(psm1,block,(1,1)), reachable(psm1,block,(1,2)), reachable(psm1,block,(1,3)), reachable(psm1,block,(1,4)), reachable(psm1,block,(1,5)), reachable(psm1,block,(2,1)), reachable(psm1,block,(2,2)), reachable(psm1,block,(2,3)), reachable(psm1,block,(2,4)), reachable(psm1,block,(2,5)), reachable(psm1,block,(3,1)), reachable(psm1,block,(3,2)), reachable(psm1,block,(3,3)), reachable(psm2,block,(3,4)), reachable(psm2,block,(3,5)), reachable(psm2,block,(4,1)), reachable(psm2,block,(4,2)), reachable(psm2,block,(4,3)), reachable(psm2,block,(4,4)), reachable(psm2,block,(4,5)), reachable(psm2,block,(5,1)), reachable(psm2,block,(5,2)), reachable(psm2,block,(5,3)), reachable(psm2,block,(5,4)), reachable(psm2,block,(5,5)), fixed((4,1)), fixed((1,3)), fixed((3,4)), fixed((2,5)), fixed((3,1)), fixed((3,2)), fixed((1,1)), fixed((1,4)), fixed((1,5)), fixed((2,3)), fixed((2,4)), above_tumor((5,5)), |reach(psm2,block,(5,1),1), grasp(psm2,block,(5,1),2), pull(psm2,block,(5,1),3), 
0.249799013138|reachable(psm1,block,(1,1)), reachable(psm1,block,(1,2)), reachable(psm1,block,(1,3)), reachable(psm1,block,(1,4)), reachable(psm1,block,(1,5)), reachable(psm1,block,(2,1)), reachable(psm1,block,(2,2)), reachable(psm1,block,(2,3)), reachable(psm1,block,(2,4)), reachable(psm1,block,(2,5)), reachable(psm1,block,(3,1)), reachable(psm1,block,(3,2)), reachable(psm1,block,(3,3)), reachable(psm2,block,(3,4)), reachable(psm2,block,(3,5)), reachable(psm2,block,(4,1)), reachable(psm2,block,(4,2)), reachable(psm2,block,(4,3)), reachable(psm2,block,(4,4)), reachable(psm2,block,(4,5)), reachable(psm2,block,(5,1)), reachable(psm2,block,(5,2)), reachable(psm2,block,(5,3)), reachable(psm2,block,(5,4)), reachable(psm2,block,(5,5)), fixed((2,2)), fixed((2,4)), fixed((1,3)), fixed((1,2)), fixed((2,5)), fixed((3,2)), fixed((3,5)), fixed((3,3)), fixed((4,1)), fixed((1,4)), fixed((2,3)), above_tumor((4,3)), |reach(psm2,block,(5,5),1), grasp(psm2,block,(5,5),2), pull(psm2,block,(5,5),3), 
0.255615949631|reachable(psm1,block,(1,1)), reachable(psm1,block,(1,2)), reachable(psm1,block,(1,3)), reachable(psm1,block,(1,4)), reachable(psm1,block,(1,5)), reachable(psm1,block,(2,1)), reachable(psm1,block,(2,2)), reachable(psm1,block,(2,3)), reachable(psm1,block,(2,4)), reachable(psm1,block,(2,5)), reachable(psm1,block,(3,1)), reachable(psm1,block,(3,2)), reachable(psm1,block,(3,3)), reachable(psm2,block,(3,4)), reachable(psm2,block,(3,5)), reachable(psm2,block,(4,1)), reachable(psm2,block,(4,2)), reachable(psm2,block,(4,3)), reachable(psm2,block,(4,4)), reachable(psm2,block,(4,5)), reachable(psm2,block,(5,1)), reachable(psm2,block,(5,2)), reachable(psm2,block,(5,3)), reachable(psm2,block,(5,4)), reachable(psm2,block,(5,5)), fixed((3,2)), fixed((2,1)), fixed((3,3)), fixed((3,4)), fixed((1,2)), fixed((1,4)), fixed((3,1)), fixed((2,3)), fixed((4,1)), fixed((2,2)), fixed((1,3)), above_tumor((4,4)), |reach(psm1,block,(1,5),1), grasp(psm1,block,(1,5),2), pull(psm1,block,(1,5),3), 
0.232605934143|reachable(psm1,block,(1,1)), reachable(psm1,block,(1,2)), reachable(psm1,block,(1,3)), reachable(psm1,block,(1,4)), reachable(psm1,block,(1,5)), reachable(psm1,block,(2,1)), reachable(psm1,block,(2,2)), reachable(psm1,block,(2,3)), reachable(psm1,block,(2,4)), reachable(psm1,block,(2,5)), reachable(psm1,block,(3,1)), reachable(psm1,block,(3,2)), reachable(psm1,block,(3,3)), reachable(psm2,block,(3,4)), reachable(psm2,block,(3,5)), reachable(psm2,block,(4,1)), reachable(psm2,block,(4,2)), reachable(psm2,block,(4,3)), reachable(psm2,block,(4,4)), reachable(psm2,block,(4,5)), reachable(psm2,block,(5,1)), reachable(psm2,block,(5,2)), reachable(psm2,block,(5,3)), reachable(psm2,block,(5,4)), reachable(psm2,block,(5,5)), fixed((2,2)), fixed((3,1)), fixed((1,2)), fixed((3,3)), fixed((2,3)), fixed((1,1)), fixed((3,5)), fixed((2,4)), fixed((3,4)), fixed((1,4)), fixed((1,5)), above_tumor((5,3)), |reach(psm2,block,(5,5),1), grasp(psm2,block,(5,5),2), pull(psm2,block,(5,5),3), 
0.241816043854|reachable(psm1,block,(1,1)), reachable(psm1,block,(1,2)), reachable(psm1,block,(1,3)), reachable(psm1,block,(1,4)), reachable(psm1,block,(1,5)), reachable(psm1,block,(2,1)), reachable(psm1,block,(2,2)), reachable(psm1,block,(2,3)), reachable(psm1,block,(2,4)), reachable(psm1,block,(2,5)), reachable(psm1,block,(3,1)), reachable(psm1,block,(3,2)), reachable(psm1,block,(3,3)), reachable(psm2,block,(3,4)), reachable(psm2,block,(3,5)), reachable(psm2,block,(4,1)), reachable(psm2,block,(4,2)), reachable(psm2,block,(4,3)), reachable(psm2,block,(4,4)), reachable(psm2,block,(4,5)), reachable(psm2,block,(5,1)), reachable(psm2,block,(5,2)), reachable(psm2,block,(5,3)), reachable(psm2,block,(5,4)), reachable(psm2,block,(5,5)), fixed((3,1)), fixed((3,5)), fixed((3,2)), fixed((1,1)), fixed((2,5)), fixed((1,2)), fixed((2,2)), fixed((2,3)), fixed((4,1)), fixed((1,4)), fixed((1,5)), above_tumor((4,5)), |reach(psm2,block,(5,5),1), grasp(psm2,block,(5,5),2), pull(psm2,block,(5,5),3), 
0.22746014595|reachable(psm1,block,(1,1)), reachable(psm1,block,(1,2)), reachable(psm1,block,(1,3)), reachable(psm1,block,(1,4)), reachable(psm1,block,(1,5)), reachable(psm1,block,(2,1)), reachable(psm1,block,(2,2)), reachable(psm1,block,(2,3)), reachable(psm1,block,(2,4)), reachable(psm1,block,(2,5)), reachable(psm1,block,(3,1)), reachable(psm1,block,(3,2)), reachable(psm1,block,(3,3)), reachable(psm2,block,(3,4)), reachable(psm2,block,(3,5)), reachable(psm2,block,(4,1)), reachable(psm2,block,(4,2)), reachable(psm2,block,(4,3)), reachable(psm2,block,(4,4)), reachable(psm2,block,(4,5)), reachable(psm2,block,(5,1)), reachable(psm2,block,(5,2)), reachable(psm2,block,(5,3)), reachable(psm2,block,(5,4)), reachable(psm2,block,(5,5)), fixed((1,4)), fixed((1,3)), fixed((2,5)), fixed((3,1)), fixed((4,1)), fixed((1,1)), fixed((1,5)), fixed((2,2)), fixed((1,2)), fixed((3,3)), fixed((3,2)), above_tumor((4,4)), |reach(psm2,block,(5,1),1), grasp(psm2,block,(5,1),2), pull(psm2,block,(5,1),3), 
0.235592126846|reachable(psm1,block,(1,1)), reachable(psm1,block,(1,2)), reachable(psm1,block,(1,3)), reachable(psm1,block,(1,4)), reachable(psm1,block,(1,5)), reachable(psm1,block,(2,1)), reachable(psm1,block,(2,2)), reachable(psm1,block,(2,3)), reachable(psm1,block,(2,4)), reachable(psm1,block,(2,5)), reachable(psm1,block,(3,1)), reachable(psm1,block,(3,2)), reachable(psm1,block,(3,3)), reachable(psm2,block,(3,4)), reachable(psm2,block,(3,5)), reachable(psm2,block,(4,1)), reachable(psm2,block,(4,2)), reachable(psm2,block,(4,3)), reachable(psm2,block,(4,4)), reachable(psm2,block,(4,5)), reachable(psm2,block,(5,1)), reachable(psm2,block,(5,2)), reachable(psm2,block,(5,3)), reachable(psm2,block,(5,4)), reachable(psm2,block,(5,5)), fixed((3,1)), fixed((3,5)), fixed((2,1)), fixed((1,5)), fixed((3,4)), fixed((3,2)), fixed((1,2)), fixed((3,3)), fixed((2,3)), fixed((2,5)), fixed((4,1)), above_tumor((4,5)), |reach(psm2,block,(5,1),1), grasp(psm2,block,(5,1),2), pull(psm2,block,(5,1),3), 
0.234699964523|reachable(psm1,block,(1,1)), reachable(psm1,block,(1,2)), reachable(psm1,block,(1,3)), reachable(psm1,block,(1,4)), reachable(psm1,block,(1,5)), reachable(psm1,block,(2,1)), reachable(psm1,block,(2,2)), reachable(psm1,block,(2,3)), reachable(psm1,block,(2,4)), reachable(psm1,block,(2,5)), reachable(psm1,block,(3,1)), reachable(psm1,block,(3,2)), reachable(psm1,block,(3,3)), reachable(psm2,block,(3,4)), reachable(psm2,block,(3,5)), reachable(psm2,block,(4,1)), reachable(psm2,block,(4,2)), reachable(psm2,block,(4,3)), reachable(psm2,block,(4,4)), reachable(psm2,block,(4,5)), reachable(psm2,block,(5,1)), reachable(psm2,block,(5,2)), reachable(psm2,block,(5,3)), reachable(psm2,block,(5,4)), reachable(psm2,block,(5,5)), fixed((2,1)), fixed((3,1)), fixed((2,2)), fixed((1,2)), fixed((1,1)), fixed((2,5)), fixed((1,4)), fixed((3,4)), fixed((2,4)), fixed((1,3)), fixed((3,2)), above_tumor((5,4)), |reach(psm2,block,(5,5),1), grasp(psm2,block,(5,5),2), pull(psm2,block,(5,5),3), 
0.210139036179|reachable(psm1,block,(1,1)), reachable(psm1,block,(1,2)), reachable(psm1,block,(1,3)), reachable(psm1,block,(1,4)), reachable(psm1,block,(1,5)), reachable(psm1,block,(2,1)), reachable(psm1,block,(2,2)), reachable(psm1,block,(2,3)), reachable(psm1,block,(2,4)), reachable(psm1,block,(2,5)), reachable(psm1,block,(3,1)), reachable(psm1,block,(3,2)), reachable(psm1,block,(3,3)), reachable(psm2,block,(3,4)), reachable(psm2,block,(3,5)), reachable(psm2,block,(4,1)), reachable(psm2,block,(4,2)), reachable(psm2,block,(4,3)), reachable(psm2,block,(4,4)), reachable(psm2,block,(4,5)), reachable(psm2,block,(5,1)), reachable(psm2,block,(5,2)), reachable(psm2,block,(5,3)), reachable(psm2,block,(5,4)), reachable(psm2,block,(5,5)), fixed((1,1)), fixed((2,2)), fixed((1,3)), fixed((2,4)), fixed((2,1)), fixed((1,2)), fixed((1,5)), fixed((3,2)), fixed((3,5)), fixed((4,1)), fixed((3,3)), above_tumor((4,3)), |reach(psm2,block,(5,5),1), grasp(psm2,block,(5,5),2), pull(psm2,block,(5,5),3), 
0.229053974152|reachable(psm1,block,(1,1)), reachable(psm1,block,(1,2)), reachable(psm1,block,(1,3)), reachable(psm1,block,(1,4)), reachable(psm1,block,(1,5)), reachable(psm1,block,(2,1)), reachable(psm1,block,(2,2)), reachable(psm1,block,(2,3)), reachable(psm1,block,(2,4)), reachable(psm1,block,(2,5)), reachable(psm1,block,(3,1)), reachable(psm1,block,(3,2)), reachable(psm1,block,(3,3)), reachable(psm2,block,(3,4)), reachable(psm2,block,(3,5)), reachable(psm2,block,(4,1)), reachable(psm2,block,(4,2)), reachable(psm2,block,(4,3)), reachable(psm2,block,(4,4)), reachable(psm2,block,(4,5)), reachable(psm2,block,(5,1)), reachable(psm2,block,(5,2)), reachable(psm2,block,(5,3)), reachable(psm2,block,(5,4)), reachable(psm2,block,(5,5)), fixed((1,1)), fixed((1,2)), fixed((2,1)), fixed((1,5)), fixed((4,1)), fixed((2,5)), fixed((1,3)), fixed((2,4)), fixed((2,2)), fixed((3,5)), fixed((3,1)), above_tumor((4,2)), |reach(psm2,block,(5,1),1), grasp(psm2,block,(5,1),2), pull(psm2,block,(5,1),3), 
0.233886003494|reachable(psm1,block,(1,1)), reachable(psm1,block,(1,2)), reachable(psm1,block,(1,3)), reachable(psm1,block,(1,4)), reachable(psm1,block,(1,5)), reachable(psm1,block,(2,1)), reachable(psm1,block,(2,2)), reachable(psm1,block,(2,3)), reachable(psm1,block,(2,4)), reachable(psm1,block,(2,5)), reachable(psm1,block,(3,1)), reachable(psm1,block,(3,2)), reachable(psm1,block,(3,3)), reachable(psm2,block,(3,4)), reachable(psm2,block,(3,5)), reachable(psm2,block,(4,1)), reachable(psm2,block,(4,2)), reachable(psm2,block,(4,3)), reachable(psm2,block,(4,4)), reachable(psm2,block,(4,5)), reachable(psm2,block,(5,1)), reachable(psm2,block,(5,2)), reachable(psm2,block,(5,3)), reachable(psm2,block,(5,4)), reachable(psm2,block,(5,5)), fixed((2,1)), fixed((1,1)), fixed((1,4)), fixed((2,2)), fixed((3,5)), fixed((1,3)), fixed((2,4)), fixed((2,5)), fixed((3,2)), fixed((3,3)), fixed((1,2)), above_tumor((4,5)), |reach(psm2,block,(5,5),1), grasp(psm2,block,(5,5),2), pull(psm2,block,(5,5),3), 
0.268553972244|reachable(psm1,block,(1,1)), reachable(psm1,block,(1,2)), reachable(psm1,block,(1,3)), reachable(psm1,block,(1,4)), reachable(psm1,block,(1,5)), reachable(psm1,block,(2,1)), reachable(psm1,block,(2,2)), reachable(psm1,block,(2,3)), reachable(psm1,block,(2,4)), reachable(psm1,block,(2,5)), reachable(psm1,block,(3,1)), reachable(psm1,block,(3,2)), reachable(psm1,block,(3,3)), reachable(psm2,block,(3,4)), reachable(psm2,block,(3,5)), reachable(psm2,block,(4,1)), reachable(psm2,block,(4,2)), reachable(psm2,block,(4,3)), reachable(psm2,block,(4,4)), reachable(psm2,block,(4,5)), reachable(psm2,block,(5,1)), reachable(psm2,block,(5,2)), reachable(psm2,block,(5,3)), reachable(psm2,block,(5,4)), reachable(psm2,block,(5,5)), fixed((3,4)), fixed((2,5)), fixed((1,3)), fixed((3,1)), fixed((1,1)), fixed((4,1)), fixed((2,1)), fixed((3,5)), fixed((3,2)), fixed((2,3)), fixed((1,5)), above_tumor((5,4)), |reach(psm2,block,(5,5),1), grasp(psm2,block,(5,5),2), pull(psm2,block,(5,5),3), 
0.249127864838|reachable(psm1,block,(1,1)), reachable(psm1,block,(1,2)), reachable(psm1,block,(1,3)), reachable(psm1,block,(1,4)), reachable(psm1,block,(1,5)), reachable(psm1,block,(2,1)), reachable(psm1,block,(2,2)), reachable(psm1,block,(2,3)), reachable(psm1,block,(2,4)), reachable(psm1,block,(2,5)), reachable(psm1,block,(3,1)), reachable(psm1,block,(3,2)), reachable(psm1,block,(3,3)), reachable(psm2,block,(3,4)), reachable(psm2,block,(3,5)), reachable(psm2,block,(4,1)), reachable(psm2,block,(4,2)), reachable(psm2,block,(4,3)), reachable(psm2,block,(4,4)), reachable(psm2,block,(4,5)), reachable(psm2,block,(5,1)), reachable(psm2,block,(5,2)), reachable(psm2,block,(5,3)), reachable(psm2,block,(5,4)), reachable(psm2,block,(5,5)), fixed((3,3)), fixed((1,4)), fixed((1,1)), fixed((1,2)), fixed((2,2)), fixed((3,2)), fixed((2,5)), fixed((2,3)), fixed((2,4)), fixed((3,1)), fixed((1,5)), above_tumor((5,2)), |reach(psm2,block,(5,1),1), grasp(psm2,block,(5,1),2), pull(psm2,block,(5,1),3), 
0.22413611412|reachable(psm1,block,(1,1)), reachable(psm1,block,(1,2)), reachable(psm1,block,(1,3)), reachable(psm1,block,(1,4)), reachable(psm1,block,(1,5)), reachable(psm1,block,(2,1)), reachable(psm1,block,(2,2)), reachable(psm1,block,(2,3)), reachable(psm1,block,(2,4)), reachable(psm1,block,(2,5)), reachable(psm1,block,(3,1)), reachable(psm1,block,(3,2)), reachable(psm1,block,(3,3)), reachable(psm2,block,(3,4)), reachable(psm2,block,(3,5)), reachable(psm2,block,(4,1)), reachable(psm2,block,(4,2)), reachable(psm2,block,(4,3)), reachable(psm2,block,(4,4)), reachable(psm2,block,(4,5)), reachable(psm2,block,(5,1)), reachable(psm2,block,(5,2)), reachable(psm2,block,(5,3)), reachable(psm2,block,(5,4)), reachable(psm2,block,(5,5)), fixed((2,3)), fixed((3,5)), fixed((1,2)), fixed((1,4)), fixed((2,1)), fixed((1,1)), fixed((3,1)), fixed((4,1)), fixed((1,3)), fixed((2,4)), fixed((1,5)), above_tumor((5,4)), |reach(psm2,block,(5,1),1), grasp(psm2,block,(5,1),2), pull(psm2,block,(5,1),3), 
0.246816158295|reachable(psm1,block,(1,1)), reachable(psm1,block,(1,2)), reachable(psm1,block,(1,3)), reachable(psm1,block,(1,4)), reachable(psm1,block,(1,5)), reachable(psm1,block,(2,1)), reachable(psm1,block,(2,2)), reachable(psm1,block,(2,3)), reachable(psm1,block,(2,4)), reachable(psm1,block,(2,5)), reachable(psm1,block,(3,1)), reachable(psm1,block,(3,2)), reachable(psm1,block,(3,3)), reachable(psm2,block,(3,4)), reachable(psm2,block,(3,5)), reachable(psm2,block,(4,1)), reachable(psm2,block,(4,2)), reachable(psm2,block,(4,3)), reachable(psm2,block,(4,4)), reachable(psm2,block,(4,5)), reachable(psm2,block,(5,1)), reachable(psm2,block,(5,2)), reachable(psm2,block,(5,3)), reachable(psm2,block,(5,4)), reachable(psm2,block,(5,5)), fixed((3,1)), fixed((2,1)), fixed((2,3)), fixed((2,4)), fixed((1,1)), fixed((1,4)), fixed((3,3)), fixed((1,5)), fixed((1,2)), fixed((2,2)), fixed((3,5)), above_tumor((4,2)), |reach(psm2,block,(5,1),1), grasp(psm2,block,(5,1),2), pull(psm2,block,(5,1),3), 
0.265923023224|reachable(psm1,block,(1,1)), reachable(psm1,block,(1,2)), reachable(psm1,block,(1,3)), reachable(psm1,block,(1,4)), reachable(psm1,block,(1,5)), reachable(psm1,block,(2,1)), reachable(psm1,block,(2,2)), reachable(psm1,block,(2,3)), reachable(psm1,block,(2,4)), reachable(psm1,block,(2,5)), reachable(psm1,block,(3,1)), reachable(psm1,block,(3,2)), reachable(psm1,block,(3,3)), reachable(psm2,block,(3,4)), reachable(psm2,block,(3,5)), reachable(psm2,block,(4,1)), reachable(psm2,block,(4,2)), reachable(psm2,block,(4,3)), reachable(psm2,block,(4,4)), reachable(psm2,block,(4,5)), reachable(psm2,block,(5,1)), reachable(psm2,block,(5,2)), reachable(psm2,block,(5,3)), reachable(psm2,block,(5,4)), reachable(psm2,block,(5,5)), fixed((2,3)), fixed((3,1)), fixed((2,4)), fixed((2,1)), fixed((3,2)), fixed((2,5)), fixed((2,2)), fixed((1,3)), fixed((1,4)), fixed((3,3)), fixed((4,1)), above_tumor((5,2)), |reach(psm2,block,(5,1),1), grasp(psm2,block,(5,1),2), pull(psm2,block,(5,1),3), 
0.254092931747|reachable(psm1,block,(1,1)), reachable(psm1,block,(1,2)), reachable(psm1,block,(1,3)), reachable(psm1,block,(1,4)), reachable(psm1,block,(1,5)), reachable(psm1,block,(2,1)), reachable(psm1,block,(2,2)), reachable(psm1,block,(2,3)), reachable(psm1,block,(2,4)), reachable(psm1,block,(2,5)), reachable(psm1,block,(3,1)), reachable(psm1,block,(3,2)), reachable(psm1,block,(3,3)), reachable(psm2,block,(3,4)), reachable(psm2,block,(3,5)), reachable(psm2,block,(4,1)), reachable(psm2,block,(4,2)), reachable(psm2,block,(4,3)), reachable(psm2,block,(4,4)), reachable(psm2,block,(4,5)), reachable(psm2,block,(5,1)), reachable(psm2,block,(5,2)), reachable(psm2,block,(5,3)), reachable(psm2,block,(5,4)), reachable(psm2,block,(5,5)), fixed((3,4)), fixed((4,1)), fixed((3,5)), fixed((1,1)), fixed((2,2)), fixed((2,5)), fixed((2,3)), fixed((1,4)), fixed((3,3)), fixed((1,3)), fixed((3,1)), above_tumor((5,1)), |reach(psm2,block,(5,5),1), grasp(psm2,block,(5,5),2), pull(psm2,block,(5,5),3), 
0.240164041519|reachable(psm1,block,(1,1)), reachable(psm1,block,(1,2)), reachable(psm1,block,(1,3)), reachable(psm1,block,(1,4)), reachable(psm1,block,(1,5)), reachable(psm1,block,(2,1)), reachable(psm1,block,(2,2)), reachable(psm1,block,(2,3)), reachable(psm1,block,(2,4)), reachable(psm1,block,(2,5)), reachable(psm1,block,(3,1)), reachable(psm1,block,(3,2)), reachable(psm1,block,(3,3)), reachable(psm2,block,(3,4)), reachable(psm2,block,(3,5)), reachable(psm2,block,(4,1)), reachable(psm2,block,(4,2)), reachable(psm2,block,(4,3)), reachable(psm2,block,(4,4)), reachable(psm2,block,(4,5)), reachable(psm2,block,(5,1)), reachable(psm2,block,(5,2)), reachable(psm2,block,(5,3)), reachable(psm2,block,(5,4)), reachable(psm2,block,(5,5)), fixed((2,3)), fixed((2,5)), fixed((1,4)), fixed((1,1)), fixed((1,5)), fixed((2,4)), fixed((2,1)), fixed((1,2)), fixed((3,1)), fixed((3,5)), fixed((3,3)), above_tumor((4,5)), |reach(psm2,block,(5,5),1), grasp(psm2,block,(5,5),2), pull(psm2,block,(5,5),3), 
0.228548049927|reachable(psm1,block,(1,1)), reachable(psm1,block,(1,2)), reachable(psm1,block,(1,3)), reachable(psm1,block,(1,4)), reachable(psm1,block,(1,5)), reachable(psm1,block,(2,1)), reachable(psm1,block,(2,2)), reachable(psm1,block,(2,3)), reachable(psm1,block,(2,4)), reachable(psm1,block,(2,5)), reachable(psm1,block,(3,1)), reachable(psm1,block,(3,2)), reachable(psm1,block,(3,3)), reachable(psm2,block,(3,4)), reachable(psm2,block,(3,5)), reachable(psm2,block,(4,1)), reachable(psm2,block,(4,2)), reachable(psm2,block,(4,3)), reachable(psm2,block,(4,4)), reachable(psm2,block,(4,5)), reachable(psm2,block,(5,1)), reachable(psm2,block,(5,2)), reachable(psm2,block,(5,3)), reachable(psm2,block,(5,4)), reachable(psm2,block,(5,5)), fixed((1,1)), fixed((3,2)), fixed((1,3)), fixed((2,2)), fixed((3,4)), fixed((2,5)), fixed((4,1)), fixed((1,4)), fixed((3,3)), fixed((2,1)), fixed((2,3)), above_tumor((5,3)), |reach(psm2,block,(5,5),1), grasp(psm2,block,(5,5),2), pull(psm2,block,(5,5),3), 
