0.221426010132|reachable(psm1,block,(1,1)), reachable(psm1,block,(1,2)), reachable(psm1,block,(1,3)), reachable(psm1,block,(1,4)), reachable(psm1,block,(1,5)), reachable(psm1,block,(2,1)), reachable(psm1,block,(2,2)), reachable(psm1,block,(2,3)), reachable(psm1,block,(2,4)), reachable(psm1,block,(2,5)), reachable(psm1,block,(3,1)), reachable(psm1,block,(3,2)), reachable(psm1,block,(3,3)), reachable(psm2,block,(3,4)), reachable(psm2,block,(3,5)), reachable(psm2,block,(4,1)), reachable(psm2,block,(4,2)), reachable(psm2,block,(4,3)), reachable(psm2,block,(4,4)), reachable(psm2,block,(4,5)), reachable(psm2,block,(5,1)), reachable(psm2,block,(5,2)), reachable(psm2,block,(5,3)), reachable(psm2,block,(5,4)), reachable(psm2,block,(5,5)), fixed((2,4)), fixed((3,5)), fixed((3,4)), fixed((1,2)), fixed((1,1)), fixed((1,3)), fixed((1,4)), fixed((2,1)), above_tumor((5,5)), |reach(psm2,block,(5,5),1), grasp(psm2,block,(5,5),2), pull(psm2,block,(5,5),3), 
0.23039317131|reachable(psm1,block,(1,1)), reachable(psm1,block,(1,2)), reachable(psm1,block,(1,3)), reachable(psm1,block,(1,4)), reachable(psm1,block,(1,5)), reachable(psm1,block,(2,1)), reachable(psm1,block,(2,2)), reachable(psm1,block,(2,3)), reachable(psm1,block,(2,4)), reachable(psm1,block,(2,5)), reachable(psm1,block,(3,1)), reachable(psm1,block,(3,2)), reachable(psm1,block,(3,3)), reachable(psm2,block,(3,4)), reachable(psm2,block,(3,5)), reachable(psm2,block,(4,1)), reachable(psm2,block,(4,2)), reachable(psm2,block,(4,3)), reachable(psm2,block,(4,4)), reachable(psm2,block,(4,5)), reachable(psm2,block,(5,1)), reachable(psm2,block,(5,2)), reachable(psm2,block,(5,3)), reachable(psm2,block,(5,4)), reachable(psm2,block,(5,5)), fixed((1,2)), fixed((1,4)), fixed((4,1)), fixed((3,4)), fixed((1,3)), fixed((3,5)), fixed((2,5)), fixed((2,3)), above_tumor((4,5)), |reach(psm2,block,(5,5),1), grasp(psm2,block,(5,5),2), pull(psm2,block,(5,5),3), 
0.245739936829|reachable(psm1,block,(1,1)), reachable(psm1,block,(1,2)), reachable(psm1,block,(1,3)), reachable(psm1,block,(1,4)), reachable(psm1,block,(1,5)), reachable(psm1,block,(2,1)), reachable(psm1,block,(2,2)), reachable(psm1,block,(2,3)), reachable(psm1,block,(2,4)), reachable(psm1,block,(2,5)), reachable(psm1,block,(3,1)), reachable(psm1,block,(3,2)), reachable(psm1,block,(3,3)), reachable(psm2,block,(3,4)), reachable(psm2,block,(3,5)), reachable(psm2,block,(4,1)), reachable(psm2,block,(4,2)), reachable(psm2,block,(4,3)), reachable(psm2,block,(4,4)), reachable(psm2,block,(4,5)), reachable(psm2,block,(5,1)), reachable(psm2,block,(5,2)), reachable(psm2,block,(5,3)), reachable(psm2,block,(5,4)), reachable(psm2,block,(5,5)), fixed((2,1)), fixed((3,1)), fixed((1,4)), fixed((3,5)), fixed((2,5)), fixed((3,4)), fixed((1,2)), fixed((2,3)), above_tumor((4,4)), |reach(psm2,block,(5,5),1), grasp(psm2,block,(5,5),2), pull(psm2,block,(5,5),3), 
0.237911939621|reachable(psm1,block,(1,1)), reachable(psm1,block,(1,2)), reachable(psm1,block,(1,3)), reachable(psm1,block,(1,4)), reachable(psm1,block,(1,5)), reachable(psm1,block,(2,1)), reachable(psm1,block,(2,2)), reachable(psm1,block,(2,3)), reachable(psm1,block,(2,4)), reachable(psm1,block,(2,5)), reachable(psm1,block,(3,1)), reachable(psm1,block,(3,2)), reachable(psm1,block,(3,3)), reachable(psm2,block,(3,4)), reachable(psm2,block,(3,5)), reachable(psm2,block,(4,1)), reachable(psm2,block,(4,2)), reachable(psm2,block,(4,3)), reachable(psm2,block,(4,4)), reachable(psm2,block,(4,5)), reachable(psm2,block,(5,1)), reachable(psm2,block,(5,2)), reachable(psm2,block,(5,3)), reachable(psm2,block,(5,4)), reachable(psm2,block,(5,5)), fixed((1,4)), fixed((3,5)), fixed((2,1)), fixed((3,3)), fixed((1,1)), fixed((4,1)), fixed((2,4)), fixed((1,5)), above_tumor((5,1)), |reach(psm2,block,(5,1),1), grasp(psm2,block,(5,1),2), pull(psm2,block,(5,1),3), 
0.243202924728|reachable(psm1,block,(1,1)), reachable(psm1,block,(1,2)), reachable(psm1,block,(1,3)), reachable(psm1,block,(1,4)), reachable(psm1,block,(1,5)), reachable(psm1,block,(2,1)), reachable(psm1,block,(2,2)), reachable(psm1,block,(2,3)), reachable(psm1,block,(2,4)), reachable(psm1,block,(2,5)), reachable(psm1,block,(3,1)), reachable(psm1,block,(3,2)), reachable(psm1,block,(3,3)), reachable(psm2,block,(3,4)), reachable(psm2,block,(3,5)), reachable(psm2,block,(4,1)), reachable(psm2,block,(4,2)), reachable(psm2,block,(4,3)), reachable(psm2,block,(4,4)), reachable(psm2,block,(4,5)), reachable(psm2,block,(5,1)), reachable(psm2,block,(5,2)), reachable(psm2,block,(5,3)), reachable(psm2,block,(5,4)), reachable(psm2,block,(5,5)), fixed((2,3)), fixed((2,1)), fixed((1,5)), fixed((1,3)), fixed((1,2)), fixed((3,1)), fixed((3,3)), fixed((1,4)), above_tumor((5,1)), |reach(psm2,block,(5,1),1), grasp(psm2,block,(5,1),2), pull(psm2,block,(5,1),3), 
0.244326114655|reachable(psm1,block,(1,1)), reachable(psm1,block,(1,2)), reachable(psm1,block,(1,3)), reachable(psm1,block,(1,4)), reachable(psm1,block,(1,5)), reachable(psm1,block,(2,1)), reachable(psm1,block,(2,2)), reachable(psm1,block,(2,3)), reachable(psm1,block,(2,4)), reachable(psm1,block,(2,5)), reachable(psm1,block,(3,1)), reachable(psm1,block,(3,2)), reachable(psm1,block,(3,3)), reachable(psm2,block,(3,4)), reachable(psm2,block,(3,5)), reachable(psm2,block,(4,1)), reachable(psm2,block,(4,2)), reachable(psm2,block,(4,3)), reachable(psm2,block,(4,4)), reachable(psm2,block,(4,5)), reachable(psm2,block,(5,1)), reachable(psm2,block,(5,2)), reachable(psm2,block,(5,3)), reachable(psm2,block,(5,4)), reachable(psm2,block,(5,5)), fixed((3,5)), fixed((2,1)), fixed((2,2)), fixed((1,3)), fixed((2,5)), fixed((1,1)), fixed((3,2)), fixed((3,1)), above_tumor((4,4)), |reach(psm2,block,(5,5),1), grasp(psm2,block,(5,5),2), pull(psm2,block,(5,5),3), 
0.23988199234|reachable(psm1,block,(1,1)), reachable(psm1,block,(1,2)), reachable(psm1,block,(1,3)), reachable(psm1,block,(1,4)), reachable(psm1,block,(1,5)), reachable(psm1,block,(2,1)), reachable(psm1,block,(2,2)), reachable(psm1,block,(2,3)), reachable(psm1,block,(2,4)), reachable(psm1,block,(2,5)), reachable(psm1,block,(3,1)), reachable(psm1,block,(3,2)), reachable(psm1,block,(3,3)), reachable(psm2,block,(3,4)), reachable(psm2,block,(3,5)), reachable(psm2,block,(4,1)), reachable(psm2,block,(4,2)), reachable(psm2,block,(4,3)), reachable(psm2,block,(4,4)), reachable(psm2,block,(4,5)), reachable(psm2,block,(5,1)), reachable(psm2,block,(5,2)), reachable(psm2,block,(5,3)), reachable(psm2,block,(5,4)), reachable(psm2,block,(5,5)), fixed((2,1)), fixed((2,4)), fixed((2,2)), fixed((1,1)), fixed((1,4)), fixed((1,3)), fixed((3,4)), fixed((3,2)), above_tumor((4,2)), |reach(psm2,block,(5,5),1), grasp(psm2,block,(5,5),2), pull(psm2,block,(5,5),3), 
0.223834991455|reachable(psm1,block,(1,1)), reachable(psm1,block,(1,2)), reachable(psm1,block,(1,3)), reachable(psm1,block,(1,4)), reachable(psm1,block,(1,5)), reachable(psm1,block,(2,1)), reachable(psm1,block,(2,2)), reachable(psm1,block,(2,3)), reachable(psm1,block,(2,4)), reachable(psm1,block,(2,5)), reachable(psm1,block,(3,1)), reachable(psm1,block,(3,2)), reachable(psm1,block,(3,3)), reachable(psm2,block,(3,4)), reachable(psm2,block,(3,5)), reachable(psm2,block,(4,1)), reachable(psm2,block,(4,2)), reachable(psm2,block,(4,3)), reachable(psm2,block,(4,4)), reachable(psm2,block,(4,5)), reachable(psm2,block,(5,1)), reachable(psm2,block,(5,2)), reachable(psm2,block,(5,3)), reachable(psm2,block,(5,4)), reachable(psm2,block,(5,5)), fixed((3,1)), fixed((1,5)), fixed((2,5)), fixed((3,2)), fixed((2,1)), fixed((4,1)), fixed((3,5)), fixed((2,4)), above_tumor((5,3)), |reach(psm2,block,(5,2),1), grasp(psm2,block,(5,2),2), pull(psm2,block,(5,2),3), 
0.229729890823|reachable(psm1,block,(1,1)), reachable(psm1,block,(1,2)), reachable(psm1,block,(1,3)), reachable(psm1,block,(1,4)), reachable(psm1,block,(1,5)), reachable(psm1,block,(2,1)), reachable(psm1,block,(2,2)), reachable(psm1,block,(2,3)), reachable(psm1,block,(2,4)), reachable(psm1,block,(2,5)), reachable(psm1,block,(3,1)), reachable(psm1,block,(3,2)), reachable(psm1,block,(3,3)), reachable(psm2,block,(3,4)), reachable(psm2,block,(3,5)), reachable(psm2,block,(4,1)), reachable(psm2,block,(4,2)), reachable(psm2,block,(4,3)), reachable(psm2,block,(4,4)), reachable(psm2,block,(4,5)), reachable(psm2,block,(5,1)), reachable(psm2,block,(5,2)), reachable(psm2,block,(5,3)), reachable(psm2,block,(5,4)), reachable(psm2,block,(5,5)), fixed((1,2)), fixed((4,1)), fixed((3,1)), fixed((1,5)), fixed((1,1)), fixed((3,5)), fixed((3,2)), fixed((2,2)), above_tumor((4,2)), |reach(psm2,block,(5,5),1), grasp(psm2,block,(5,5),2), pull(psm2,block,(5,5),3), 
0.229184150696|reachable(psm1,block,(1,1)), reachable(psm1,block,(1,2)), reachable(psm1,block,(1,3)), reachable(psm1,block,(1,4)), reachable(psm1,block,(1,5)), reachable(psm1,block,(2,1)), reachable(psm1,block,(2,2)), reachable(psm1,block,(2,3)), reachable(psm1,block,(2,4)), reachable(psm1,block,(2,5)), reachable(psm1,block,(3,1)), reachable(psm1,block,(3,2)), reachable(psm1,block,(3,3)), reachable(psm2,block,(3,4)), reachable(psm2,block,(3,5)), reachable(psm2,block,(4,1)), reachable(psm2,block,(4,2)), reachable(psm2,block,(4,3)), reachable(psm2,block,(4,4)), reachable(psm2,block,(4,5)), reachable(psm2,block,(5,1)), reachable(psm2,block,(5,2)), reachable(psm2,block,(5,3)), reachable(psm2,block,(5,4)), reachable(psm2,block,(5,5)), fixed((1,1)), fixed((2,1)), fixed((3,3)), fixed((3,5)), fixed((1,2)), fixed((3,4)), fixed((1,5)), fixed((2,3)), above_tumor((5,5)), |reach(psm2,block,(5,5),1), grasp(psm2,block,(5,5),2), pull(psm2,block,(5,5),3), 
0.235283136368|reachable(psm1,block,(1,1)), reachable(psm1,block,(1,2)), reachable(psm1,block,(1,3)), reachable(psm1,block,(1,4)), reachable(psm1,block,(1,5)), reachable(psm1,block,(2,1)), reachable(psm1,block,(2,2)), reachable(psm1,block,(2,3)), reachable(psm1,block,(2,4)), reachable(psm1,block,(2,5)), reachable(psm1,block,(3,1)), reachable(psm1,block,(3,2)), reachable(psm1,block,(3,3)), reachable(psm2,block,(3,4)), reachable(psm2,block,(3,5)), reachable(psm2,block,(4,1)), reachable(psm2,block,(4,2)), reachable(psm2,block,(4,3)), reachable(psm2,block,(4,4)), reachable(psm2,block,(4,5)), reachable(psm2,block,(5,1)), reachable(psm2,block,(5,2)), reachable(psm2,block,(5,3)), reachable(psm2,block,(5,4)), reachable(psm2,block,(5,5)), fixed((1,2)), fixed((2,5)), fixed((3,4)), fixed((2,3)), fixed((1,4)), fixed((3,3)), fixed((1,3)), fixed((3,1)), above_tumor((5,2)), |reach(psm2,block,(5,1),1), grasp(psm2,block,(5,1),2), pull(psm2,block,(5,1),3), 
0.233724832535|reachable(psm1,block,(1,1)), reachable(psm1,block,(1,2)), reachable(psm1,block,(1,3)), reachable(psm1,block,(1,4)), reachable(psm1,block,(1,5)), reachable(psm1,block,(2,1)), reachable(psm1,block,(2,2)), reachable(psm1,block,(2,3)), reachable(psm1,block,(2,4)), reachable(psm1,block,(2,5)), reachable(psm1,block,(3,1)), reachable(psm1,block,(3,2)), reachable(psm1,block,(3,3)), reachable(psm2,block,(3,4)), reachable(psm2,block,(3,5)), reachable(psm2,block,(4,1)), reachable(psm2,block,(4,2)), reachable(psm2,block,(4,3)), reachable(psm2,block,(4,4)), reachable(psm2,block,(4,5)), reachable(psm2,block,(5,1)), reachable(psm2,block,(5,2)), reachable(psm2,block,(5,3)), reachable(psm2,block,(5,4)), reachable(psm2,block,(5,5)), fixed((1,4)), fixed((2,2)), fixed((2,4)), fixed((3,2)), fixed((3,5)), fixed((2,5)), fixed((2,1)), fixed((3,3)), above_tumor((4,5)), |reach(psm2,block,(5,5),1), grasp(psm2,block,(5,5),2), pull(psm2,block,(5,5),3), 
0.213979005814|reachable(psm1,block,(1,1)), reachable(psm1,block,(1,2)), reachable(psm1,block,(1,3)), reachable(psm1,block,(1,4)), reachable(psm1,block,(1,5)), reachable(psm1,block,(2,1)), reachable(psm1,block,(2,2)), reachable(psm1,block,(2,3)), reachable(psm1,block,(2,4)), reachable(psm1,block,(2,5)), reachable(psm1,block,(3,1)), reachable(psm1,block,(3,2)), reachable(psm1,block,(3,3)), reachable(psm2,block,(3,4)), reachable(psm2,block,(3,5)), reachable(psm2,block,(4,1)), reachable(psm2,block,(4,2)), reachable(psm2,block,(4,3)), reachable(psm2,block,(4,4)), reachable(psm2,block,(4,5)), reachable(psm2,block,(5,1)), reachable(psm2,block,(5,2)), reachable(psm2,block,(5,3)), reachable(psm2,block,(5,4)), reachable(psm2,block,(5,5)), fixed((2,3)), fixed((3,1)), fixed((2,2)), fixed((2,4)), fixed((1,3)), fixed((3,2)), fixed((1,4)), fixed((2,1)), above_tumor((5,3)), |reach(psm2,block,(5,1),1), grasp(psm2,block,(5,1),2), pull(psm2,block,(5,1),3), 
0.23548078537|reachable(psm1,block,(1,1)), reachable(psm1,block,(1,2)), reachable(psm1,block,(1,3)), reachable(psm1,block,(1,4)), reachable(psm1,block,(1,5)), reachable(psm1,block,(2,1)), reachable(psm1,block,(2,2)), reachable(psm1,block,(2,3)), reachable(psm1,block,(2,4)), reachable(psm1,block,(2,5)), reachable(psm1,block,(3,1)), reachable(psm1,block,(3,2)), reachable(psm1,block,(3,3)), reachable(psm2,block,(3,4)), reachable(psm2,block,(3,5)), reachable(psm2,block,(4,1)), reachable(psm2,block,(4,2)), reachable(psm2,block,(4,3)), reachable(psm2,block,(4,4)), reachable(psm2,block,(4,5)), reachable(psm2,block,(5,1)), reachable(psm2,block,(5,2)), reachable(psm2,block,(5,3)), reachable(psm2,block,(5,4)), reachable(psm2,block,(5,5)), fixed((2,1)), fixed((3,1)), fixed((4,1)), fixed((1,5)), fixed((3,2)), fixed((2,3)), fixed((1,3)), fixed((3,3)), above_tumor((4,3)), |reach(psm2,block,(5,1),1), grasp(psm2,block,(5,1),2), pull(psm2,block,(5,1),3), 
0.243682861328|reachable(psm1,block,(1,1)), reachable(psm1,block,(1,2)), reachable(psm1,block,(1,3)), reachable(psm1,block,(1,4)), reachable(psm1,block,(1,5)), reachable(psm1,block,(2,1)), reachable(psm1,block,(2,2)), reachable(psm1,block,(2,3)), reachable(psm1,block,(2,4)), reachable(psm1,block,(2,5)), reachable(psm1,block,(3,1)), reachable(psm1,block,(3,2)), reachable(psm1,block,(3,3)), reachable(psm2,block,(3,4)), reachable(psm2,block,(3,5)), reachable(psm2,block,(4,1)), reachable(psm2,block,(4,2)), reachable(psm2,block,(4,3)), reachable(psm2,block,(4,4)), reachable(psm2,block,(4,5)), reachable(psm2,block,(5,1)), reachable(psm2,block,(5,2)), reachable(psm2,block,(5,3)), reachable(psm2,block,(5,4)), reachable(psm2,block,(5,5)), fixed((1,4)), fixed((2,5)), fixed((4,1)), fixed((2,1)), fixed((3,2)), fixed((1,3)), fixed((2,3)), fixed((3,1)), above_tumor((5,4)), |reach(psm2,block,(5,5),1), grasp(psm2,block,(5,5),2), pull(psm2,block,(5,5),3), 
0.263214111328|reachable(psm1,block,(1,1)), reachable(psm1,block,(1,2)), reachable(psm1,block,(1,3)), reachable(psm1,block,(1,4)), reachable(psm1,block,(1,5)), reachable(psm1,block,(2,1)), reachable(psm1,block,(2,2)), reachable(psm1,block,(2,3)), reachable(psm1,block,(2,4)), reachable(psm1,block,(2,5)), reachable(psm1,block,(3,1)), reachable(psm1,block,(3,2)), reachable(psm1,block,(3,3)), reachable(psm2,block,(3,4)), reachable(psm2,block,(3,5)), reachable(psm2,block,(4,1)), reachable(psm2,block,(4,2)), reachable(psm2,block,(4,3)), reachable(psm2,block,(4,4)), reachable(psm2,block,(4,5)), reachable(psm2,block,(5,1)), reachable(psm2,block,(5,2)), reachable(psm2,block,(5,3)), reachable(psm2,block,(5,4)), reachable(psm2,block,(5,5)), fixed((2,5)), fixed((1,5)), fixed((3,2)), fixed((3,3)), fixed((1,1)), fixed((3,5)), fixed((2,1)), fixed((2,4)), above_tumor((4,4)), |reach(psm2,block,(5,5),1), grasp(psm2,block,(5,5),2), pull(psm2,block,(5,5),3), 
0.242324113846|reachable(psm1,block,(1,1)), reachable(psm1,block,(1,2)), reachable(psm1,block,(1,3)), reachable(psm1,block,(1,4)), reachable(psm1,block,(1,5)), reachable(psm1,block,(2,1)), reachable(psm1,block,(2,2)), reachable(psm1,block,(2,3)), reachable(psm1,block,(2,4)), reachable(psm1,block,(2,5)), reachable(psm1,block,(3,1)), reachable(psm1,block,(3,2)), reachable(psm1,block,(3,3)), reachable(psm2,block,(3,4)), reachable(psm2,block,(3,5)), reachable(psm2,block,(4,1)), reachable(psm2,block,(4,2)), reachable(psm2,block,(4,3)), reachable(psm2,block,(4,4)), reachable(psm2,block,(4,5)), reachable(psm2,block,(5,1)), reachable(psm2,block,(5,2)), reachable(psm2,block,(5,3)), reachable(psm2,block,(5,4)), reachable(psm2,block,(5,5)), fixed((2,5)), fixed((1,1)), fixed((1,4)), fixed((2,4)), fixed((3,3)), fixed((3,5)), fixed((2,1)), fixed((1,3)), above_tumor((5,3)), |reach(psm2,block,(5,5),1), grasp(psm2,block,(5,5),2), pull(psm2,block,(5,5),3), 
0.235166072845|reachable(psm1,block,(1,1)), reachable(psm1,block,(1,2)), reachable(psm1,block,(1,3)), reachable(psm1,block,(1,4)), reachable(psm1,block,(1,5)), reachable(psm1,block,(2,1)), reachable(psm1,block,(2,2)), reachable(psm1,block,(2,3)), reachable(psm1,block,(2,4)), reachable(psm1,block,(2,5)), reachable(psm1,block,(3,1)), reachable(psm1,block,(3,2)), reachable(psm1,block,(3,3)), reachable(psm2,block,(3,4)), reachable(psm2,block,(3,5)), reachable(psm2,block,(4,1)), reachable(psm2,block,(4,2)), reachable(psm2,block,(4,3)), reachable(psm2,block,(4,4)), reachable(psm2,block,(4,5)), reachable(psm2,block,(5,1)), reachable(psm2,block,(5,2)), reachable(psm2,block,(5,3)), reachable(psm2,block,(5,4)), reachable(psm2,block,(5,5)), fixed((2,1)), fixed((2,3)), fixed((1,1)), fixed((1,4)), fixed((3,3)), fixed((1,3)), fixed((2,4)), fixed((3,2)), above_tumor((4,4)), |reach(psm2,block,(5,5),1), grasp(psm2,block,(5,5),2), pull(psm2,block,(5,5),3), 
0.239217996597|reachable(psm1,block,(1,1)), reachable(psm1,block,(1,2)), reachable(psm1,block,(1,3)), reachable(psm1,block,(1,4)), reachable(psm1,block,(1,5)), reachable(psm1,block,(2,1)), reachable(psm1,block,(2,2)), reachable(psm1,block,(2,3)), reachable(psm1,block,(2,4)), reachable(psm1,block,(2,5)), reachable(psm1,block,(3,1)), reachable(psm1,block,(3,2)), reachable(psm1,block,(3,3)), reachable(psm2,block,(3,4)), reachable(psm2,block,(3,5)), reachable(psm2,block,(4,1)), reachable(psm2,block,(4,2)), reachable(psm2,block,(4,3)), reachable(psm2,block,(4,4)), reachable(psm2,block,(4,5)), reachable(psm2,block,(5,1)), reachable(psm2,block,(5,2)), reachable(psm2,block,(5,3)), reachable(psm2,block,(5,4)), reachable(psm2,block,(5,5)), fixed((3,1)), fixed((3,4)), fixed((1,1)), fixed((2,3)), fixed((3,5)), fixed((3,3)), fixed((2,1)), fixed((1,2)), above_tumor((5,1)), |reach(psm2,block,(5,5),1), grasp(psm2,block,(5,5),2), pull(psm2,block,(5,5),3), 
0.215719938278|reachable(psm1,block,(1,1)), reachable(psm1,block,(1,2)), reachable(psm1,block,(1,3)), reachable(psm1,block,(1,4)), reachable(psm1,block,(1,5)), reachable(psm1,block,(2,1)), reachable(psm1,block,(2,2)), reachable(psm1,block,(2,3)), reachable(psm1,block,(2,4)), reachable(psm1,block,(2,5)), reachable(psm1,block,(3,1)), reachable(psm1,block,(3,2)), reachable(psm1,block,(3,3)), reachable(psm2,block,(3,4)), reachable(psm2,block,(3,5)), reachable(psm2,block,(4,1)), reachable(psm2,block,(4,2)), reachable(psm2,block,(4,3)), reachable(psm2,block,(4,4)), reachable(psm2,block,(4,5)), reachable(psm2,block,(5,1)), reachable(psm2,block,(5,2)), reachable(psm2,block,(5,3)), reachable(psm2,block,(5,4)), reachable(psm2,block,(5,5)), fixed((2,4)), fixed((2,2)), fixed((4,1)), fixed((2,5)), fixed((1,4)), fixed((1,2)), fixed((3,1)), fixed((2,1)), above_tumor((5,2)), |reach(psm2,block,(5,1),1), grasp(psm2,block,(5,1),2), pull(psm2,block,(5,1),3), 
0.234261035919|reachable(psm1,block,(1,1)), reachable(psm1,block,(1,2)), reachable(psm1,block,(1,3)), reachable(psm1,block,(1,4)), reachable(psm1,block,(1,5)), reachable(psm1,block,(2,1)), reachable(psm1,block,(2,2)), reachable(psm1,block,(2,3)), reachable(psm1,block,(2,4)), reachable(psm1,block,(2,5)), reachable(psm1,block,(3,1)), reachable(psm1,block,(3,2)), reachable(psm1,block,(3,3)), reachable(psm2,block,(3,4)), reachable(psm2,block,(3,5)), reachable(psm2,block,(4,1)), reachable(psm2,block,(4,2)), reachable(psm2,block,(4,3)), reachable(psm2,block,(4,4)), reachable(psm2,block,(4,5)), reachable(psm2,block,(5,1)), reachable(psm2,block,(5,2)), reachable(psm2,block,(5,3)), reachable(psm2,block,(5,4)), reachable(psm2,block,(5,5)), fixed((1,1)), fixed((1,5)), fixed((2,1)), fixed((2,3)), fixed((3,1)), fixed((3,4)), fixed((2,2)), fixed((4,1)), above_tumor((5,3)), |reach(psm2,block,(5,5),1), grasp(psm2,block,(5,5),2), pull(psm2,block,(5,5),3), 
0.241214036942|reachable(psm1,block,(1,1)), reachable(psm1,block,(1,2)), reachable(psm1,block,(1,3)), reachable(psm1,block,(1,4)), reachable(psm1,block,(1,5)), reachable(psm1,block,(2,1)), reachable(psm1,block,(2,2)), reachable(psm1,block,(2,3)), reachable(psm1,block,(2,4)), reachable(psm1,block,(2,5)), reachable(psm1,block,(3,1)), reachable(psm1,block,(3,2)), reachable(psm1,block,(3,3)), reachable(psm2,block,(3,4)), reachable(psm2,block,(3,5)), reachable(psm2,block,(4,1)), reachable(psm2,block,(4,2)), reachable(psm2,block,(4,3)), reachable(psm2,block,(4,4)), reachable(psm2,block,(4,5)), reachable(psm2,block,(5,1)), reachable(psm2,block,(5,2)), reachable(psm2,block,(5,3)), reachable(psm2,block,(5,4)), reachable(psm2,block,(5,5)), fixed((1,5)), fixed((2,1)), fixed((1,3)), fixed((2,2)), fixed((3,3)), fixed((2,3)), fixed((3,2)), fixed((3,5)), above_tumor((5,2)), |reach(psm2,block,(5,1),1), grasp(psm2,block,(5,1),2), pull(psm2,block,(5,1),3), 
0.232658147812|reachable(psm1,block,(1,1)), reachable(psm1,block,(1,2)), reachable(psm1,block,(1,3)), reachable(psm1,block,(1,4)), reachable(psm1,block,(1,5)), reachable(psm1,block,(2,1)), reachable(psm1,block,(2,2)), reachable(psm1,block,(2,3)), reachable(psm1,block,(2,4)), reachable(psm1,block,(2,5)), reachable(psm1,block,(3,1)), reachable(psm1,block,(3,2)), reachable(psm1,block,(3,3)), reachable(psm2,block,(3,4)), reachable(psm2,block,(3,5)), reachable(psm2,block,(4,1)), reachable(psm2,block,(4,2)), reachable(psm2,block,(4,3)), reachable(psm2,block,(4,4)), reachable(psm2,block,(4,5)), reachable(psm2,block,(5,1)), reachable(psm2,block,(5,2)), reachable(psm2,block,(5,3)), reachable(psm2,block,(5,4)), reachable(psm2,block,(5,5)), fixed((3,4)), fixed((1,1)), fixed((2,2)), fixed((1,3)), fixed((2,1)), fixed((2,3)), fixed((3,3)), fixed((1,2)), above_tumor((4,4)), |reach(psm2,block,(5,5),1), grasp(psm2,block,(5,5),2), pull(psm2,block,(5,5),3), 
0.231396913528|reachable(psm1,block,(1,1)), reachable(psm1,block,(1,2)), reachable(psm1,block,(1,3)), reachable(psm1,block,(1,4)), reachable(psm1,block,(1,5)), reachable(psm1,block,(2,1)), reachable(psm1,block,(2,2)), reachable(psm1,block,(2,3)), reachable(psm1,block,(2,4)), reachable(psm1,block,(2,5)), reachable(psm1,block,(3,1)), reachable(psm1,block,(3,2)), reachable(psm1,block,(3,3)), reachable(psm2,block,(3,4)), reachable(psm2,block,(3,5)), reachable(psm2,block,(4,1)), reachable(psm2,block,(4,2)), reachable(psm2,block,(4,3)), reachable(psm2,block,(4,4)), reachable(psm2,block,(4,5)), reachable(psm2,block,(5,1)), reachable(psm2,block,(5,2)), reachable(psm2,block,(5,3)), reachable(psm2,block,(5,4)), reachable(psm2,block,(5,5)), fixed((3,1)), fixed((1,4)), fixed((3,2)), fixed((3,3)), fixed((2,3)), fixed((1,3)), fixed((2,1)), fixed((2,5)), above_tumor((5,3)), |reach(psm2,block,(5,1),1), grasp(psm2,block,(5,1),2), pull(psm2,block,(5,1),3), 
0.215291023254|reachable(psm1,block,(1,1)), reachable(psm1,block,(1,2)), reachable(psm1,block,(1,3)), reachable(psm1,block,(1,4)), reachable(psm1,block,(1,5)), reachable(psm1,block,(2,1)), reachable(psm1,block,(2,2)), reachable(psm1,block,(2,3)), reachable(psm1,block,(2,4)), reachable(psm1,block,(2,5)), reachable(psm1,block,(3,1)), reachable(psm1,block,(3,2)), reachable(psm1,block,(3,3)), reachable(psm2,block,(3,4)), reachable(psm2,block,(3,5)), reachable(psm2,block,(4,1)), reachable(psm2,block,(4,2)), reachable(psm2,block,(4,3)), reachable(psm2,block,(4,4)), reachable(psm2,block,(4,5)), reachable(psm2,block,(5,1)), reachable(psm2,block,(5,2)), reachable(psm2,block,(5,3)), reachable(psm2,block,(5,4)), reachable(psm2,block,(5,5)), fixed((1,4)), fixed((1,3)), fixed((2,1)), fixed((1,5)), fixed((2,3)), fixed((2,4)), fixed((1,1)), fixed((2,2)), above_tumor((4,4)), |reach(psm2,block,(5,1),1), grasp(psm2,block,(5,1),2), pull(psm2,block,(5,1),3), 
