1.42313218117|reachable(psm1,block,(1,1)), reachable(psm1,block,(1,2)), reachable(psm1,block,(1,3)), reachable(psm1,block,(1,4)), reachable(psm1,block,(1,5)), reachable(psm1,block,(1,6)), reachable(psm1,block,(1,7)), reachable(psm1,block,(2,1)), reachable(psm1,block,(2,2)), reachable(psm1,block,(2,3)), reachable(psm1,block,(2,4)), reachable(psm1,block,(2,5)), reachable(psm1,block,(2,6)), reachable(psm1,block,(2,7)), reachable(psm1,block,(3,1)), reachable(psm1,block,(3,2)), reachable(psm1,block,(3,3)), reachable(psm1,block,(3,4)), reachable(psm1,block,(3,5)), reachable(psm1,block,(3,6)), reachable(psm1,block,(3,7)), reachable(psm1,block,(4,1)), reachable(psm1,block,(4,2)), reachable(psm1,block,(4,3)), reachable(psm1,block,(4,4)), reachable(psm2,block,(4,5)), reachable(psm2,block,(4,6)), reachable(psm2,block,(4,7)), reachable(psm2,block,(5,1)), reachable(psm2,block,(5,2)), reachable(psm2,block,(5,3)), reachable(psm2,block,(5,4)), reachable(psm2,block,(5,5)), reachable(psm2,block,(5,6)), reachable(psm2,block,(5,7)), reachable(psm2,block,(6,1)), reachable(psm2,block,(6,2)), reachable(psm2,block,(6,3)), reachable(psm2,block,(6,4)), reachable(psm2,block,(6,5)), reachable(psm2,block,(6,6)), reachable(psm2,block,(6,7)), reachable(psm2,block,(7,1)), reachable(psm2,block,(7,2)), reachable(psm2,block,(7,3)), reachable(psm2,block,(7,4)), reachable(psm2,block,(7,5)), reachable(psm2,block,(7,6)), reachable(psm2,block,(7,7)), fixed((1,3)), fixed((2,1)), fixed((3,7)), fixed((6,1)), fixed((3,5)), fixed((5,3)), fixed((1,5)), fixed((4,5)), fixed((1,4)), fixed((5,4)), fixed((5,2)), fixed((4,1)), fixed((1,7)), fixed((4,2)), fixed((3,2)), fixed((4,4)), fixed((2,6)), fixed((5,1)), above_tumor((6,7)), |reach(psm2,block,(7,7),1), grasp(psm2,block,(7,7),2), pull(psm2,block,(7,7),3), 
1.39145207405|reachable(psm1,block,(1,1)), reachable(psm1,block,(1,2)), reachable(psm1,block,(1,3)), reachable(psm1,block,(1,4)), reachable(psm1,block,(1,5)), reachable(psm1,block,(1,6)), reachable(psm1,block,(1,7)), reachable(psm1,block,(2,1)), reachable(psm1,block,(2,2)), reachable(psm1,block,(2,3)), reachable(psm1,block,(2,4)), reachable(psm1,block,(2,5)), reachable(psm1,block,(2,6)), reachable(psm1,block,(2,7)), reachable(psm1,block,(3,1)), reachable(psm1,block,(3,2)), reachable(psm1,block,(3,3)), reachable(psm1,block,(3,4)), reachable(psm1,block,(3,5)), reachable(psm1,block,(3,6)), reachable(psm1,block,(3,7)), reachable(psm1,block,(4,1)), reachable(psm1,block,(4,2)), reachable(psm1,block,(4,3)), reachable(psm1,block,(4,4)), reachable(psm2,block,(4,5)), reachable(psm2,block,(4,6)), reachable(psm2,block,(4,7)), reachable(psm2,block,(5,1)), reachable(psm2,block,(5,2)), reachable(psm2,block,(5,3)), reachable(psm2,block,(5,4)), reachable(psm2,block,(5,5)), reachable(psm2,block,(5,6)), reachable(psm2,block,(5,7)), reachable(psm2,block,(6,1)), reachable(psm2,block,(6,2)), reachable(psm2,block,(6,3)), reachable(psm2,block,(6,4)), reachable(psm2,block,(6,5)), reachable(psm2,block,(6,6)), reachable(psm2,block,(6,7)), reachable(psm2,block,(7,1)), reachable(psm2,block,(7,2)), reachable(psm2,block,(7,3)), reachable(psm2,block,(7,4)), reachable(psm2,block,(7,5)), reachable(psm2,block,(7,6)), reachable(psm2,block,(7,7)), fixed((3,3)), fixed((1,5)), fixed((1,2)), fixed((1,1)), fixed((4,6)), fixed((2,2)), fixed((2,6)), fixed((5,1)), fixed((1,6)), fixed((5,5)), fixed((5,2)), fixed((3,6)), fixed((3,2)), fixed((5,7)), fixed((1,7)), fixed((2,4)), fixed((4,2)), fixed((3,5)), above_tumor((7,6)), |reach(psm2,block,(7,7),1), grasp(psm2,block,(7,7),2), pull(psm2,block,(7,7),3), 
1.41982913017|reachable(psm1,block,(1,1)), reachable(psm1,block,(1,2)), reachable(psm1,block,(1,3)), reachable(psm1,block,(1,4)), reachable(psm1,block,(1,5)), reachable(psm1,block,(1,6)), reachable(psm1,block,(1,7)), reachable(psm1,block,(2,1)), reachable(psm1,block,(2,2)), reachable(psm1,block,(2,3)), reachable(psm1,block,(2,4)), reachable(psm1,block,(2,5)), reachable(psm1,block,(2,6)), reachable(psm1,block,(2,7)), reachable(psm1,block,(3,1)), reachable(psm1,block,(3,2)), reachable(psm1,block,(3,3)), reachable(psm1,block,(3,4)), reachable(psm1,block,(3,5)), reachable(psm1,block,(3,6)), reachable(psm1,block,(3,7)), reachable(psm1,block,(4,1)), reachable(psm1,block,(4,2)), reachable(psm1,block,(4,3)), reachable(psm1,block,(4,4)), reachable(psm2,block,(4,5)), reachable(psm2,block,(4,6)), reachable(psm2,block,(4,7)), reachable(psm2,block,(5,1)), reachable(psm2,block,(5,2)), reachable(psm2,block,(5,3)), reachable(psm2,block,(5,4)), reachable(psm2,block,(5,5)), reachable(psm2,block,(5,6)), reachable(psm2,block,(5,7)), reachable(psm2,block,(6,1)), reachable(psm2,block,(6,2)), reachable(psm2,block,(6,3)), reachable(psm2,block,(6,4)), reachable(psm2,block,(6,5)), reachable(psm2,block,(6,6)), reachable(psm2,block,(6,7)), reachable(psm2,block,(7,1)), reachable(psm2,block,(7,2)), reachable(psm2,block,(7,3)), reachable(psm2,block,(7,4)), reachable(psm2,block,(7,5)), reachable(psm2,block,(7,6)), reachable(psm2,block,(7,7)), fixed((4,1)), fixed((4,6)), fixed((5,7)), fixed((2,3)), fixed((3,2)), fixed((2,2)), fixed((4,5)), fixed((5,3)), fixed((3,1)), fixed((1,3)), fixed((3,6)), fixed((4,7)), fixed((2,5)), fixed((5,1)), fixed((2,7)), fixed((4,3)), fixed((1,6)), fixed((5,6)), above_tumor((6,2)), |reach(psm2,block,(7,1),1), grasp(psm2,block,(7,1),2), pull(psm2,block,(7,1),3), 
1.39261102676|reachable(psm1,block,(1,1)), reachable(psm1,block,(1,2)), reachable(psm1,block,(1,3)), reachable(psm1,block,(1,4)), reachable(psm1,block,(1,5)), reachable(psm1,block,(1,6)), reachable(psm1,block,(1,7)), reachable(psm1,block,(2,1)), reachable(psm1,block,(2,2)), reachable(psm1,block,(2,3)), reachable(psm1,block,(2,4)), reachable(psm1,block,(2,5)), reachable(psm1,block,(2,6)), reachable(psm1,block,(2,7)), reachable(psm1,block,(3,1)), reachable(psm1,block,(3,2)), reachable(psm1,block,(3,3)), reachable(psm1,block,(3,4)), reachable(psm1,block,(3,5)), reachable(psm1,block,(3,6)), reachable(psm1,block,(3,7)), reachable(psm1,block,(4,1)), reachable(psm1,block,(4,2)), reachable(psm1,block,(4,3)), reachable(psm1,block,(4,4)), reachable(psm2,block,(4,5)), reachable(psm2,block,(4,6)), reachable(psm2,block,(4,7)), reachable(psm2,block,(5,1)), reachable(psm2,block,(5,2)), reachable(psm2,block,(5,3)), reachable(psm2,block,(5,4)), reachable(psm2,block,(5,5)), reachable(psm2,block,(5,6)), reachable(psm2,block,(5,7)), reachable(psm2,block,(6,1)), reachable(psm2,block,(6,2)), reachable(psm2,block,(6,3)), reachable(psm2,block,(6,4)), reachable(psm2,block,(6,5)), reachable(psm2,block,(6,6)), reachable(psm2,block,(6,7)), reachable(psm2,block,(7,1)), reachable(psm2,block,(7,2)), reachable(psm2,block,(7,3)), reachable(psm2,block,(7,4)), reachable(psm2,block,(7,5)), reachable(psm2,block,(7,6)), reachable(psm2,block,(7,7)), fixed((2,5)), fixed((2,6)), fixed((3,1)), fixed((1,2)), fixed((4,1)), fixed((5,2)), fixed((5,1)), fixed((4,7)), fixed((3,2)), fixed((5,6)), fixed((3,5)), fixed((1,5)), fixed((1,6)), fixed((4,3)), fixed((4,5)), fixed((1,3)), fixed((1,4)), fixed((5,5)), above_tumor((6,5)), |reach(psm2,block,(7,1),1), grasp(psm2,block,(7,1),2), pull(psm2,block,(7,1),3), 
1.39937710762|reachable(psm1,block,(1,1)), reachable(psm1,block,(1,2)), reachable(psm1,block,(1,3)), reachable(psm1,block,(1,4)), reachable(psm1,block,(1,5)), reachable(psm1,block,(1,6)), reachable(psm1,block,(1,7)), reachable(psm1,block,(2,1)), reachable(psm1,block,(2,2)), reachable(psm1,block,(2,3)), reachable(psm1,block,(2,4)), reachable(psm1,block,(2,5)), reachable(psm1,block,(2,6)), reachable(psm1,block,(2,7)), reachable(psm1,block,(3,1)), reachable(psm1,block,(3,2)), reachable(psm1,block,(3,3)), reachable(psm1,block,(3,4)), reachable(psm1,block,(3,5)), reachable(psm1,block,(3,6)), reachable(psm1,block,(3,7)), reachable(psm1,block,(4,1)), reachable(psm1,block,(4,2)), reachable(psm1,block,(4,3)), reachable(psm1,block,(4,4)), reachable(psm2,block,(4,5)), reachable(psm2,block,(4,6)), reachable(psm2,block,(4,7)), reachable(psm2,block,(5,1)), reachable(psm2,block,(5,2)), reachable(psm2,block,(5,3)), reachable(psm2,block,(5,4)), reachable(psm2,block,(5,5)), reachable(psm2,block,(5,6)), reachable(psm2,block,(5,7)), reachable(psm2,block,(6,1)), reachable(psm2,block,(6,2)), reachable(psm2,block,(6,3)), reachable(psm2,block,(6,4)), reachable(psm2,block,(6,5)), reachable(psm2,block,(6,6)), reachable(psm2,block,(6,7)), reachable(psm2,block,(7,1)), reachable(psm2,block,(7,2)), reachable(psm2,block,(7,3)), reachable(psm2,block,(7,4)), reachable(psm2,block,(7,5)), reachable(psm2,block,(7,6)), reachable(psm2,block,(7,7)), fixed((4,3)), fixed((1,6)), fixed((1,3)), fixed((4,5)), fixed((5,7)), fixed((2,7)), fixed((1,2)), fixed((4,2)), fixed((2,5)), fixed((2,1)), fixed((5,5)), fixed((5,2)), fixed((5,4)), fixed((1,5)), fixed((3,4)), fixed((4,6)), fixed((3,5)), fixed((2,2)), above_tumor((7,6)), |reach(psm2,block,(7,1),1), grasp(psm2,block,(7,1),2), pull(psm2,block,(7,1),3), 
1.40270996094|reachable(psm1,block,(1,1)), reachable(psm1,block,(1,2)), reachable(psm1,block,(1,3)), reachable(psm1,block,(1,4)), reachable(psm1,block,(1,5)), reachable(psm1,block,(1,6)), reachable(psm1,block,(1,7)), reachable(psm1,block,(2,1)), reachable(psm1,block,(2,2)), reachable(psm1,block,(2,3)), reachable(psm1,block,(2,4)), reachable(psm1,block,(2,5)), reachable(psm1,block,(2,6)), reachable(psm1,block,(2,7)), reachable(psm1,block,(3,1)), reachable(psm1,block,(3,2)), reachable(psm1,block,(3,3)), reachable(psm1,block,(3,4)), reachable(psm1,block,(3,5)), reachable(psm1,block,(3,6)), reachable(psm1,block,(3,7)), reachable(psm1,block,(4,1)), reachable(psm1,block,(4,2)), reachable(psm1,block,(4,3)), reachable(psm1,block,(4,4)), reachable(psm2,block,(4,5)), reachable(psm2,block,(4,6)), reachable(psm2,block,(4,7)), reachable(psm2,block,(5,1)), reachable(psm2,block,(5,2)), reachable(psm2,block,(5,3)), reachable(psm2,block,(5,4)), reachable(psm2,block,(5,5)), reachable(psm2,block,(5,6)), reachable(psm2,block,(5,7)), reachable(psm2,block,(6,1)), reachable(psm2,block,(6,2)), reachable(psm2,block,(6,3)), reachable(psm2,block,(6,4)), reachable(psm2,block,(6,5)), reachable(psm2,block,(6,6)), reachable(psm2,block,(6,7)), reachable(psm2,block,(7,1)), reachable(psm2,block,(7,2)), reachable(psm2,block,(7,3)), reachable(psm2,block,(7,4)), reachable(psm2,block,(7,5)), reachable(psm2,block,(7,6)), reachable(psm2,block,(7,7)), fixed((2,7)), fixed((4,7)), fixed((2,5)), fixed((5,1)), fixed((2,2)), fixed((3,1)), fixed((3,2)), fixed((1,2)), fixed((4,5)), fixed((5,7)), fixed((1,3)), fixed((4,4)), fixed((3,5)), fixed((4,3)), fixed((5,6)), fixed((2,1)), fixed((3,7)), fixed((1,1)), above_tumor((7,1)), |reach(psm2,block,(7,7),1), grasp(psm2,block,(7,7),2), pull(psm2,block,(7,7),3), 
1.39391994476|reachable(psm1,block,(1,1)), reachable(psm1,block,(1,2)), reachable(psm1,block,(1,3)), reachable(psm1,block,(1,4)), reachable(psm1,block,(1,5)), reachable(psm1,block,(1,6)), reachable(psm1,block,(1,7)), reachable(psm1,block,(2,1)), reachable(psm1,block,(2,2)), reachable(psm1,block,(2,3)), reachable(psm1,block,(2,4)), reachable(psm1,block,(2,5)), reachable(psm1,block,(2,6)), reachable(psm1,block,(2,7)), reachable(psm1,block,(3,1)), reachable(psm1,block,(3,2)), reachable(psm1,block,(3,3)), reachable(psm1,block,(3,4)), reachable(psm1,block,(3,5)), reachable(psm1,block,(3,6)), reachable(psm1,block,(3,7)), reachable(psm1,block,(4,1)), reachable(psm1,block,(4,2)), reachable(psm1,block,(4,3)), reachable(psm1,block,(4,4)), reachable(psm2,block,(4,5)), reachable(psm2,block,(4,6)), reachable(psm2,block,(4,7)), reachable(psm2,block,(5,1)), reachable(psm2,block,(5,2)), reachable(psm2,block,(5,3)), reachable(psm2,block,(5,4)), reachable(psm2,block,(5,5)), reachable(psm2,block,(5,6)), reachable(psm2,block,(5,7)), reachable(psm2,block,(6,1)), reachable(psm2,block,(6,2)), reachable(psm2,block,(6,3)), reachable(psm2,block,(6,4)), reachable(psm2,block,(6,5)), reachable(psm2,block,(6,6)), reachable(psm2,block,(6,7)), reachable(psm2,block,(7,1)), reachable(psm2,block,(7,2)), reachable(psm2,block,(7,3)), reachable(psm2,block,(7,4)), reachable(psm2,block,(7,5)), reachable(psm2,block,(7,6)), reachable(psm2,block,(7,7)), fixed((5,2)), fixed((4,4)), fixed((4,1)), fixed((2,5)), fixed((5,1)), fixed((4,2)), fixed((4,7)), fixed((4,5)), fixed((1,3)), fixed((3,5)), fixed((1,1)), fixed((5,4)), fixed((4,6)), fixed((1,5)), fixed((3,4)), fixed((4,3)), fixed((5,7)), fixed((2,3)), above_tumor((6,3)), |reach(psm2,block,(7,7),1), grasp(psm2,block,(7,7),2), pull(psm2,block,(7,7),3), 
1.41655993462|reachable(psm1,block,(1,1)), reachable(psm1,block,(1,2)), reachable(psm1,block,(1,3)), reachable(psm1,block,(1,4)), reachable(psm1,block,(1,5)), reachable(psm1,block,(1,6)), reachable(psm1,block,(1,7)), reachable(psm1,block,(2,1)), reachable(psm1,block,(2,2)), reachable(psm1,block,(2,3)), reachable(psm1,block,(2,4)), reachable(psm1,block,(2,5)), reachable(psm1,block,(2,6)), reachable(psm1,block,(2,7)), reachable(psm1,block,(3,1)), reachable(psm1,block,(3,2)), reachable(psm1,block,(3,3)), reachable(psm1,block,(3,4)), reachable(psm1,block,(3,5)), reachable(psm1,block,(3,6)), reachable(psm1,block,(3,7)), reachable(psm1,block,(4,1)), reachable(psm1,block,(4,2)), reachable(psm1,block,(4,3)), reachable(psm1,block,(4,4)), reachable(psm2,block,(4,5)), reachable(psm2,block,(4,6)), reachable(psm2,block,(4,7)), reachable(psm2,block,(5,1)), reachable(psm2,block,(5,2)), reachable(psm2,block,(5,3)), reachable(psm2,block,(5,4)), reachable(psm2,block,(5,5)), reachable(psm2,block,(5,6)), reachable(psm2,block,(5,7)), reachable(psm2,block,(6,1)), reachable(psm2,block,(6,2)), reachable(psm2,block,(6,3)), reachable(psm2,block,(6,4)), reachable(psm2,block,(6,5)), reachable(psm2,block,(6,6)), reachable(psm2,block,(6,7)), reachable(psm2,block,(7,1)), reachable(psm2,block,(7,2)), reachable(psm2,block,(7,3)), reachable(psm2,block,(7,4)), reachable(psm2,block,(7,5)), reachable(psm2,block,(7,6)), reachable(psm2,block,(7,7)), fixed((3,6)), fixed((3,4)), fixed((1,7)), fixed((3,2)), fixed((2,3)), fixed((1,2)), fixed((2,2)), fixed((1,3)), fixed((3,7)), fixed((4,7)), fixed((5,2)), fixed((4,5)), fixed((3,3)), fixed((2,5)), fixed((4,2)), fixed((4,6)), fixed((2,4)), fixed((5,3)), above_tumor((7,5)), |reach(psm2,block,(7,7),1), grasp(psm2,block,(7,7),2), pull(psm2,block,(7,7),3), 
1.39352893829|reachable(psm1,block,(1,1)), reachable(psm1,block,(1,2)), reachable(psm1,block,(1,3)), reachable(psm1,block,(1,4)), reachable(psm1,block,(1,5)), reachable(psm1,block,(1,6)), reachable(psm1,block,(1,7)), reachable(psm1,block,(2,1)), reachable(psm1,block,(2,2)), reachable(psm1,block,(2,3)), reachable(psm1,block,(2,4)), reachable(psm1,block,(2,5)), reachable(psm1,block,(2,6)), reachable(psm1,block,(2,7)), reachable(psm1,block,(3,1)), reachable(psm1,block,(3,2)), reachable(psm1,block,(3,3)), reachable(psm1,block,(3,4)), reachable(psm1,block,(3,5)), reachable(psm1,block,(3,6)), reachable(psm1,block,(3,7)), reachable(psm1,block,(4,1)), reachable(psm1,block,(4,2)), reachable(psm1,block,(4,3)), reachable(psm1,block,(4,4)), reachable(psm2,block,(4,5)), reachable(psm2,block,(4,6)), reachable(psm2,block,(4,7)), reachable(psm2,block,(5,1)), reachable(psm2,block,(5,2)), reachable(psm2,block,(5,3)), reachable(psm2,block,(5,4)), reachable(psm2,block,(5,5)), reachable(psm2,block,(5,6)), reachable(psm2,block,(5,7)), reachable(psm2,block,(6,1)), reachable(psm2,block,(6,2)), reachable(psm2,block,(6,3)), reachable(psm2,block,(6,4)), reachable(psm2,block,(6,5)), reachable(psm2,block,(6,6)), reachable(psm2,block,(6,7)), reachable(psm2,block,(7,1)), reachable(psm2,block,(7,2)), reachable(psm2,block,(7,3)), reachable(psm2,block,(7,4)), reachable(psm2,block,(7,5)), reachable(psm2,block,(7,6)), reachable(psm2,block,(7,7)), fixed((3,6)), fixed((2,4)), fixed((4,7)), fixed((1,6)), fixed((4,3)), fixed((1,3)), fixed((2,1)), fixed((2,6)), fixed((1,2)), fixed((1,1)), fixed((5,2)), fixed((4,2)), fixed((2,3)), fixed((3,1)), fixed((3,5)), fixed((1,4)), fixed((4,6)), fixed((3,7)), above_tumor((7,3)), |reach(psm2,block,(7,7),1), grasp(psm2,block,(7,7),2), pull(psm2,block,(7,7),3), 
1.41504001617|reachable(psm1,block,(1,1)), reachable(psm1,block,(1,2)), reachable(psm1,block,(1,3)), reachable(psm1,block,(1,4)), reachable(psm1,block,(1,5)), reachable(psm1,block,(1,6)), reachable(psm1,block,(1,7)), reachable(psm1,block,(2,1)), reachable(psm1,block,(2,2)), reachable(psm1,block,(2,3)), reachable(psm1,block,(2,4)), reachable(psm1,block,(2,5)), reachable(psm1,block,(2,6)), reachable(psm1,block,(2,7)), reachable(psm1,block,(3,1)), reachable(psm1,block,(3,2)), reachable(psm1,block,(3,3)), reachable(psm1,block,(3,4)), reachable(psm1,block,(3,5)), reachable(psm1,block,(3,6)), reachable(psm1,block,(3,7)), reachable(psm1,block,(4,1)), reachable(psm1,block,(4,2)), reachable(psm1,block,(4,3)), reachable(psm1,block,(4,4)), reachable(psm2,block,(4,5)), reachable(psm2,block,(4,6)), reachable(psm2,block,(4,7)), reachable(psm2,block,(5,1)), reachable(psm2,block,(5,2)), reachable(psm2,block,(5,3)), reachable(psm2,block,(5,4)), reachable(psm2,block,(5,5)), reachable(psm2,block,(5,6)), reachable(psm2,block,(5,7)), reachable(psm2,block,(6,1)), reachable(psm2,block,(6,2)), reachable(psm2,block,(6,3)), reachable(psm2,block,(6,4)), reachable(psm2,block,(6,5)), reachable(psm2,block,(6,6)), reachable(psm2,block,(6,7)), reachable(psm2,block,(7,1)), reachable(psm2,block,(7,2)), reachable(psm2,block,(7,3)), reachable(psm2,block,(7,4)), reachable(psm2,block,(7,5)), reachable(psm2,block,(7,6)), reachable(psm2,block,(7,7)), fixed((1,7)), fixed((1,1)), fixed((2,3)), fixed((5,1)), fixed((4,3)), fixed((3,3)), fixed((3,4)), fixed((3,7)), fixed((2,1)), fixed((3,1)), fixed((2,4)), fixed((1,6)), fixed((1,5)), fixed((4,2)), fixed((2,7)), fixed((1,4)), fixed((4,4)), fixed((5,3)), above_tumor((7,5)), |reach(psm2,block,(7,1),1), grasp(psm2,block,(7,1),2), pull(psm2,block,(7,1),3), 
1.40289187431|reachable(psm1,block,(1,1)), reachable(psm1,block,(1,2)), reachable(psm1,block,(1,3)), reachable(psm1,block,(1,4)), reachable(psm1,block,(1,5)), reachable(psm1,block,(1,6)), reachable(psm1,block,(1,7)), reachable(psm1,block,(2,1)), reachable(psm1,block,(2,2)), reachable(psm1,block,(2,3)), reachable(psm1,block,(2,4)), reachable(psm1,block,(2,5)), reachable(psm1,block,(2,6)), reachable(psm1,block,(2,7)), reachable(psm1,block,(3,1)), reachable(psm1,block,(3,2)), reachable(psm1,block,(3,3)), reachable(psm1,block,(3,4)), reachable(psm1,block,(3,5)), reachable(psm1,block,(3,6)), reachable(psm1,block,(3,7)), reachable(psm1,block,(4,1)), reachable(psm1,block,(4,2)), reachable(psm1,block,(4,3)), reachable(psm1,block,(4,4)), reachable(psm2,block,(4,5)), reachable(psm2,block,(4,6)), reachable(psm2,block,(4,7)), reachable(psm2,block,(5,1)), reachable(psm2,block,(5,2)), reachable(psm2,block,(5,3)), reachable(psm2,block,(5,4)), reachable(psm2,block,(5,5)), reachable(psm2,block,(5,6)), reachable(psm2,block,(5,7)), reachable(psm2,block,(6,1)), reachable(psm2,block,(6,2)), reachable(psm2,block,(6,3)), reachable(psm2,block,(6,4)), reachable(psm2,block,(6,5)), reachable(psm2,block,(6,6)), reachable(psm2,block,(6,7)), reachable(psm2,block,(7,1)), reachable(psm2,block,(7,2)), reachable(psm2,block,(7,3)), reachable(psm2,block,(7,4)), reachable(psm2,block,(7,5)), reachable(psm2,block,(7,6)), reachable(psm2,block,(7,7)), fixed((3,7)), fixed((3,6)), fixed((4,4)), fixed((2,2)), fixed((4,6)), fixed((3,4)), fixed((5,5)), fixed((1,6)), fixed((5,1)), fixed((3,3)), fixed((5,4)), fixed((2,1)), fixed((1,4)), fixed((4,1)), fixed((1,5)), fixed((5,2)), fixed((4,5)), fixed((2,4)), above_tumor((7,1)), |reach(psm2,block,(7,1),1), grasp(psm2,block,(7,1),2), pull(psm2,block,(7,1),3), 
1.40330600739|reachable(psm1,block,(1,1)), reachable(psm1,block,(1,2)), reachable(psm1,block,(1,3)), reachable(psm1,block,(1,4)), reachable(psm1,block,(1,5)), reachable(psm1,block,(1,6)), reachable(psm1,block,(1,7)), reachable(psm1,block,(2,1)), reachable(psm1,block,(2,2)), reachable(psm1,block,(2,3)), reachable(psm1,block,(2,4)), reachable(psm1,block,(2,5)), reachable(psm1,block,(2,6)), reachable(psm1,block,(2,7)), reachable(psm1,block,(3,1)), reachable(psm1,block,(3,2)), reachable(psm1,block,(3,3)), reachable(psm1,block,(3,4)), reachable(psm1,block,(3,5)), reachable(psm1,block,(3,6)), reachable(psm1,block,(3,7)), reachable(psm1,block,(4,1)), reachable(psm1,block,(4,2)), reachable(psm1,block,(4,3)), reachable(psm1,block,(4,4)), reachable(psm2,block,(4,5)), reachable(psm2,block,(4,6)), reachable(psm2,block,(4,7)), reachable(psm2,block,(5,1)), reachable(psm2,block,(5,2)), reachable(psm2,block,(5,3)), reachable(psm2,block,(5,4)), reachable(psm2,block,(5,5)), reachable(psm2,block,(5,6)), reachable(psm2,block,(5,7)), reachable(psm2,block,(6,1)), reachable(psm2,block,(6,2)), reachable(psm2,block,(6,3)), reachable(psm2,block,(6,4)), reachable(psm2,block,(6,5)), reachable(psm2,block,(6,6)), reachable(psm2,block,(6,7)), reachable(psm2,block,(7,1)), reachable(psm2,block,(7,2)), reachable(psm2,block,(7,3)), reachable(psm2,block,(7,4)), reachable(psm2,block,(7,5)), reachable(psm2,block,(7,6)), reachable(psm2,block,(7,7)), fixed((3,1)), fixed((4,1)), fixed((2,5)), fixed((3,7)), fixed((3,4)), fixed((5,5)), fixed((4,4)), fixed((1,6)), fixed((1,3)), fixed((1,1)), fixed((2,7)), fixed((4,7)), fixed((2,2)), fixed((4,6)), fixed((5,6)), fixed((3,5)), fixed((2,1)), fixed((5,1)), above_tumor((6,5)), |reach(psm2,block,(7,7),1), grasp(psm2,block,(7,7),2), pull(psm2,block,(7,7),3), 
1.41796779633|reachable(psm1,block,(1,1)), reachable(psm1,block,(1,2)), reachable(psm1,block,(1,3)), reachable(psm1,block,(1,4)), reachable(psm1,block,(1,5)), reachable(psm1,block,(1,6)), reachable(psm1,block,(1,7)), reachable(psm1,block,(2,1)), reachable(psm1,block,(2,2)), reachable(psm1,block,(2,3)), reachable(psm1,block,(2,4)), reachable(psm1,block,(2,5)), reachable(psm1,block,(2,6)), reachable(psm1,block,(2,7)), reachable(psm1,block,(3,1)), reachable(psm1,block,(3,2)), reachable(psm1,block,(3,3)), reachable(psm1,block,(3,4)), reachable(psm1,block,(3,5)), reachable(psm1,block,(3,6)), reachable(psm1,block,(3,7)), reachable(psm1,block,(4,1)), reachable(psm1,block,(4,2)), reachable(psm1,block,(4,3)), reachable(psm1,block,(4,4)), reachable(psm2,block,(4,5)), reachable(psm2,block,(4,6)), reachable(psm2,block,(4,7)), reachable(psm2,block,(5,1)), reachable(psm2,block,(5,2)), reachable(psm2,block,(5,3)), reachable(psm2,block,(5,4)), reachable(psm2,block,(5,5)), reachable(psm2,block,(5,6)), reachable(psm2,block,(5,7)), reachable(psm2,block,(6,1)), reachable(psm2,block,(6,2)), reachable(psm2,block,(6,3)), reachable(psm2,block,(6,4)), reachable(psm2,block,(6,5)), reachable(psm2,block,(6,6)), reachable(psm2,block,(6,7)), reachable(psm2,block,(7,1)), reachable(psm2,block,(7,2)), reachable(psm2,block,(7,3)), reachable(psm2,block,(7,4)), reachable(psm2,block,(7,5)), reachable(psm2,block,(7,6)), reachable(psm2,block,(7,7)), fixed((3,1)), fixed((6,1)), fixed((2,1)), fixed((5,4)), fixed((5,6)), fixed((4,6)), fixed((1,1)), fixed((3,6)), fixed((2,2)), fixed((1,3)), fixed((4,4)), fixed((4,2)), fixed((2,5)), fixed((3,4)), fixed((4,3)), fixed((1,5)), fixed((3,7)), fixed((5,7)), above_tumor((7,6)), |reach(psm2,block,(7,7),1), grasp(psm2,block,(7,7),2), pull(psm2,block,(7,7),3), 
1.41104388237|reachable(psm1,block,(1,1)), reachable(psm1,block,(1,2)), reachable(psm1,block,(1,3)), reachable(psm1,block,(1,4)), reachable(psm1,block,(1,5)), reachable(psm1,block,(1,6)), reachable(psm1,block,(1,7)), reachable(psm1,block,(2,1)), reachable(psm1,block,(2,2)), reachable(psm1,block,(2,3)), reachable(psm1,block,(2,4)), reachable(psm1,block,(2,5)), reachable(psm1,block,(2,6)), reachable(psm1,block,(2,7)), reachable(psm1,block,(3,1)), reachable(psm1,block,(3,2)), reachable(psm1,block,(3,3)), reachable(psm1,block,(3,4)), reachable(psm1,block,(3,5)), reachable(psm1,block,(3,6)), reachable(psm1,block,(3,7)), reachable(psm1,block,(4,1)), reachable(psm1,block,(4,2)), reachable(psm1,block,(4,3)), reachable(psm1,block,(4,4)), reachable(psm2,block,(4,5)), reachable(psm2,block,(4,6)), reachable(psm2,block,(4,7)), reachable(psm2,block,(5,1)), reachable(psm2,block,(5,2)), reachable(psm2,block,(5,3)), reachable(psm2,block,(5,4)), reachable(psm2,block,(5,5)), reachable(psm2,block,(5,6)), reachable(psm2,block,(5,7)), reachable(psm2,block,(6,1)), reachable(psm2,block,(6,2)), reachable(psm2,block,(6,3)), reachable(psm2,block,(6,4)), reachable(psm2,block,(6,5)), reachable(psm2,block,(6,6)), reachable(psm2,block,(6,7)), reachable(psm2,block,(7,1)), reachable(psm2,block,(7,2)), reachable(psm2,block,(7,3)), reachable(psm2,block,(7,4)), reachable(psm2,block,(7,5)), reachable(psm2,block,(7,6)), reachable(psm2,block,(7,7)), fixed((3,2)), fixed((4,3)), fixed((3,5)), fixed((2,3)), fixed((5,7)), fixed((1,6)), fixed((3,3)), fixed((3,6)), fixed((1,2)), fixed((2,5)), fixed((5,4)), fixed((1,1)), fixed((1,7)), fixed((5,5)), fixed((6,1)), fixed((2,7)), fixed((3,1)), fixed((4,4)), above_tumor((6,4)), |reach(psm2,block,(7,7),1), grasp(psm2,block,(7,7),2), pull(psm2,block,(7,7),3), 
1.41206407547|reachable(psm1,block,(1,1)), reachable(psm1,block,(1,2)), reachable(psm1,block,(1,3)), reachable(psm1,block,(1,4)), reachable(psm1,block,(1,5)), reachable(psm1,block,(1,6)), reachable(psm1,block,(1,7)), reachable(psm1,block,(2,1)), reachable(psm1,block,(2,2)), reachable(psm1,block,(2,3)), reachable(psm1,block,(2,4)), reachable(psm1,block,(2,5)), reachable(psm1,block,(2,6)), reachable(psm1,block,(2,7)), reachable(psm1,block,(3,1)), reachable(psm1,block,(3,2)), reachable(psm1,block,(3,3)), reachable(psm1,block,(3,4)), reachable(psm1,block,(3,5)), reachable(psm1,block,(3,6)), reachable(psm1,block,(3,7)), reachable(psm1,block,(4,1)), reachable(psm1,block,(4,2)), reachable(psm1,block,(4,3)), reachable(psm1,block,(4,4)), reachable(psm2,block,(4,5)), reachable(psm2,block,(4,6)), reachable(psm2,block,(4,7)), reachable(psm2,block,(5,1)), reachable(psm2,block,(5,2)), reachable(psm2,block,(5,3)), reachable(psm2,block,(5,4)), reachable(psm2,block,(5,5)), reachable(psm2,block,(5,6)), reachable(psm2,block,(5,7)), reachable(psm2,block,(6,1)), reachable(psm2,block,(6,2)), reachable(psm2,block,(6,3)), reachable(psm2,block,(6,4)), reachable(psm2,block,(6,5)), reachable(psm2,block,(6,6)), reachable(psm2,block,(6,7)), reachable(psm2,block,(7,1)), reachable(psm2,block,(7,2)), reachable(psm2,block,(7,3)), reachable(psm2,block,(7,4)), reachable(psm2,block,(7,5)), reachable(psm2,block,(7,6)), reachable(psm2,block,(7,7)), fixed((2,7)), fixed((1,2)), fixed((2,6)), fixed((4,1)), fixed((3,6)), fixed((2,4)), fixed((2,2)), fixed((2,3)), fixed((4,5)), fixed((6,1)), fixed((1,3)), fixed((5,7)), fixed((2,1)), fixed((4,3)), fixed((3,1)), fixed((2,5)), fixed((1,5)), fixed((3,7)), above_tumor((6,7)), |reach(psm2,block,(7,7),1), grasp(psm2,block,(7,7),2), pull(psm2,block,(7,7),3), 
1.42981219292|reachable(psm1,block,(1,1)), reachable(psm1,block,(1,2)), reachable(psm1,block,(1,3)), reachable(psm1,block,(1,4)), reachable(psm1,block,(1,5)), reachable(psm1,block,(1,6)), reachable(psm1,block,(1,7)), reachable(psm1,block,(2,1)), reachable(psm1,block,(2,2)), reachable(psm1,block,(2,3)), reachable(psm1,block,(2,4)), reachable(psm1,block,(2,5)), reachable(psm1,block,(2,6)), reachable(psm1,block,(2,7)), reachable(psm1,block,(3,1)), reachable(psm1,block,(3,2)), reachable(psm1,block,(3,3)), reachable(psm1,block,(3,4)), reachable(psm1,block,(3,5)), reachable(psm1,block,(3,6)), reachable(psm1,block,(3,7)), reachable(psm1,block,(4,1)), reachable(psm1,block,(4,2)), reachable(psm1,block,(4,3)), reachable(psm1,block,(4,4)), reachable(psm2,block,(4,5)), reachable(psm2,block,(4,6)), reachable(psm2,block,(4,7)), reachable(psm2,block,(5,1)), reachable(psm2,block,(5,2)), reachable(psm2,block,(5,3)), reachable(psm2,block,(5,4)), reachable(psm2,block,(5,5)), reachable(psm2,block,(5,6)), reachable(psm2,block,(5,7)), reachable(psm2,block,(6,1)), reachable(psm2,block,(6,2)), reachable(psm2,block,(6,3)), reachable(psm2,block,(6,4)), reachable(psm2,block,(6,5)), reachable(psm2,block,(6,6)), reachable(psm2,block,(6,7)), reachable(psm2,block,(7,1)), reachable(psm2,block,(7,2)), reachable(psm2,block,(7,3)), reachable(psm2,block,(7,4)), reachable(psm2,block,(7,5)), reachable(psm2,block,(7,6)), reachable(psm2,block,(7,7)), fixed((1,2)), fixed((1,1)), fixed((5,1)), fixed((3,6)), fixed((4,2)), fixed((5,3)), fixed((6,1)), fixed((5,6)), fixed((4,4)), fixed((4,5)), fixed((3,5)), fixed((2,6)), fixed((3,1)), fixed((1,7)), fixed((1,4)), fixed((2,3)), fixed((5,5)), fixed((3,7)), above_tumor((6,3)), |reach(psm2,block,(7,7),1), grasp(psm2,block,(7,7),2), pull(psm2,block,(7,7),3), 
1.4156370163|reachable(psm1,block,(1,1)), reachable(psm1,block,(1,2)), reachable(psm1,block,(1,3)), reachable(psm1,block,(1,4)), reachable(psm1,block,(1,5)), reachable(psm1,block,(1,6)), reachable(psm1,block,(1,7)), reachable(psm1,block,(2,1)), reachable(psm1,block,(2,2)), reachable(psm1,block,(2,3)), reachable(psm1,block,(2,4)), reachable(psm1,block,(2,5)), reachable(psm1,block,(2,6)), reachable(psm1,block,(2,7)), reachable(psm1,block,(3,1)), reachable(psm1,block,(3,2)), reachable(psm1,block,(3,3)), reachable(psm1,block,(3,4)), reachable(psm1,block,(3,5)), reachable(psm1,block,(3,6)), reachable(psm1,block,(3,7)), reachable(psm1,block,(4,1)), reachable(psm1,block,(4,2)), reachable(psm1,block,(4,3)), reachable(psm1,block,(4,4)), reachable(psm2,block,(4,5)), reachable(psm2,block,(4,6)), reachable(psm2,block,(4,7)), reachable(psm2,block,(5,1)), reachable(psm2,block,(5,2)), reachable(psm2,block,(5,3)), reachable(psm2,block,(5,4)), reachable(psm2,block,(5,5)), reachable(psm2,block,(5,6)), reachable(psm2,block,(5,7)), reachable(psm2,block,(6,1)), reachable(psm2,block,(6,2)), reachable(psm2,block,(6,3)), reachable(psm2,block,(6,4)), reachable(psm2,block,(6,5)), reachable(psm2,block,(6,6)), reachable(psm2,block,(6,7)), reachable(psm2,block,(7,1)), reachable(psm2,block,(7,2)), reachable(psm2,block,(7,3)), reachable(psm2,block,(7,4)), reachable(psm2,block,(7,5)), reachable(psm2,block,(7,6)), reachable(psm2,block,(7,7)), fixed((1,3)), fixed((4,2)), fixed((5,1)), fixed((1,2)), fixed((5,2)), fixed((2,6)), fixed((1,7)), fixed((2,7)), fixed((3,5)), fixed((3,1)), fixed((4,5)), fixed((1,6)), fixed((3,3)), fixed((4,4)), fixed((1,4)), fixed((4,3)), fixed((2,5)), fixed((3,6)), above_tumor((7,5)), |reach(psm2,block,(7,1),1), grasp(psm2,block,(7,1),2), pull(psm2,block,(7,1),3), 
1.42185807228|reachable(psm1,block,(1,1)), reachable(psm1,block,(1,2)), reachable(psm1,block,(1,3)), reachable(psm1,block,(1,4)), reachable(psm1,block,(1,5)), reachable(psm1,block,(1,6)), reachable(psm1,block,(1,7)), reachable(psm1,block,(2,1)), reachable(psm1,block,(2,2)), reachable(psm1,block,(2,3)), reachable(psm1,block,(2,4)), reachable(psm1,block,(2,5)), reachable(psm1,block,(2,6)), reachable(psm1,block,(2,7)), reachable(psm1,block,(3,1)), reachable(psm1,block,(3,2)), reachable(psm1,block,(3,3)), reachable(psm1,block,(3,4)), reachable(psm1,block,(3,5)), reachable(psm1,block,(3,6)), reachable(psm1,block,(3,7)), reachable(psm1,block,(4,1)), reachable(psm1,block,(4,2)), reachable(psm1,block,(4,3)), reachable(psm1,block,(4,4)), reachable(psm2,block,(4,5)), reachable(psm2,block,(4,6)), reachable(psm2,block,(4,7)), reachable(psm2,block,(5,1)), reachable(psm2,block,(5,2)), reachable(psm2,block,(5,3)), reachable(psm2,block,(5,4)), reachable(psm2,block,(5,5)), reachable(psm2,block,(5,6)), reachable(psm2,block,(5,7)), reachable(psm2,block,(6,1)), reachable(psm2,block,(6,2)), reachable(psm2,block,(6,3)), reachable(psm2,block,(6,4)), reachable(psm2,block,(6,5)), reachable(psm2,block,(6,6)), reachable(psm2,block,(6,7)), reachable(psm2,block,(7,1)), reachable(psm2,block,(7,2)), reachable(psm2,block,(7,3)), reachable(psm2,block,(7,4)), reachable(psm2,block,(7,5)), reachable(psm2,block,(7,6)), reachable(psm2,block,(7,7)), fixed((2,5)), fixed((2,4)), fixed((1,1)), fixed((6,1)), fixed((4,3)), fixed((5,3)), fixed((3,3)), fixed((1,7)), fixed((5,7)), fixed((5,2)), fixed((1,4)), fixed((4,1)), fixed((3,7)), fixed((3,5)), fixed((5,4)), fixed((3,1)), fixed((4,6)), fixed((1,5)), above_tumor((7,7)), |reach(psm2,block,(7,7),1), grasp(psm2,block,(7,7),2), pull(psm2,block,(7,7),3), 
1.44289302826|reachable(psm1,block,(1,1)), reachable(psm1,block,(1,2)), reachable(psm1,block,(1,3)), reachable(psm1,block,(1,4)), reachable(psm1,block,(1,5)), reachable(psm1,block,(1,6)), reachable(psm1,block,(1,7)), reachable(psm1,block,(2,1)), reachable(psm1,block,(2,2)), reachable(psm1,block,(2,3)), reachable(psm1,block,(2,4)), reachable(psm1,block,(2,5)), reachable(psm1,block,(2,6)), reachable(psm1,block,(2,7)), reachable(psm1,block,(3,1)), reachable(psm1,block,(3,2)), reachable(psm1,block,(3,3)), reachable(psm1,block,(3,4)), reachable(psm1,block,(3,5)), reachable(psm1,block,(3,6)), reachable(psm1,block,(3,7)), reachable(psm1,block,(4,1)), reachable(psm1,block,(4,2)), reachable(psm1,block,(4,3)), reachable(psm1,block,(4,4)), reachable(psm2,block,(4,5)), reachable(psm2,block,(4,6)), reachable(psm2,block,(4,7)), reachable(psm2,block,(5,1)), reachable(psm2,block,(5,2)), reachable(psm2,block,(5,3)), reachable(psm2,block,(5,4)), reachable(psm2,block,(5,5)), reachable(psm2,block,(5,6)), reachable(psm2,block,(5,7)), reachable(psm2,block,(6,1)), reachable(psm2,block,(6,2)), reachable(psm2,block,(6,3)), reachable(psm2,block,(6,4)), reachable(psm2,block,(6,5)), reachable(psm2,block,(6,6)), reachable(psm2,block,(6,7)), reachable(psm2,block,(7,1)), reachable(psm2,block,(7,2)), reachable(psm2,block,(7,3)), reachable(psm2,block,(7,4)), reachable(psm2,block,(7,5)), reachable(psm2,block,(7,6)), reachable(psm2,block,(7,7)), fixed((2,5)), fixed((2,2)), fixed((1,1)), fixed((3,6)), fixed((2,6)), fixed((5,3)), fixed((2,4)), fixed((4,7)), fixed((5,6)), fixed((3,2)), fixed((3,1)), fixed((5,7)), fixed((6,1)), fixed((1,6)), fixed((4,6)), fixed((2,3)), fixed((5,2)), fixed((3,7)), above_tumor((6,6)), |reach(psm2,block,(7,7),1), grasp(psm2,block,(7,7),2), pull(psm2,block,(7,7),3), 
1.44187402725|reachable(psm1,block,(1,1)), reachable(psm1,block,(1,2)), reachable(psm1,block,(1,3)), reachable(psm1,block,(1,4)), reachable(psm1,block,(1,5)), reachable(psm1,block,(1,6)), reachable(psm1,block,(1,7)), reachable(psm1,block,(2,1)), reachable(psm1,block,(2,2)), reachable(psm1,block,(2,3)), reachable(psm1,block,(2,4)), reachable(psm1,block,(2,5)), reachable(psm1,block,(2,6)), reachable(psm1,block,(2,7)), reachable(psm1,block,(3,1)), reachable(psm1,block,(3,2)), reachable(psm1,block,(3,3)), reachable(psm1,block,(3,4)), reachable(psm1,block,(3,5)), reachable(psm1,block,(3,6)), reachable(psm1,block,(3,7)), reachable(psm1,block,(4,1)), reachable(psm1,block,(4,2)), reachable(psm1,block,(4,3)), reachable(psm1,block,(4,4)), reachable(psm2,block,(4,5)), reachable(psm2,block,(4,6)), reachable(psm2,block,(4,7)), reachable(psm2,block,(5,1)), reachable(psm2,block,(5,2)), reachable(psm2,block,(5,3)), reachable(psm2,block,(5,4)), reachable(psm2,block,(5,5)), reachable(psm2,block,(5,6)), reachable(psm2,block,(5,7)), reachable(psm2,block,(6,1)), reachable(psm2,block,(6,2)), reachable(psm2,block,(6,3)), reachable(psm2,block,(6,4)), reachable(psm2,block,(6,5)), reachable(psm2,block,(6,6)), reachable(psm2,block,(6,7)), reachable(psm2,block,(7,1)), reachable(psm2,block,(7,2)), reachable(psm2,block,(7,3)), reachable(psm2,block,(7,4)), reachable(psm2,block,(7,5)), reachable(psm2,block,(7,6)), reachable(psm2,block,(7,7)), fixed((5,6)), fixed((3,5)), fixed((5,1)), fixed((1,5)), fixed((2,4)), fixed((3,1)), fixed((4,6)), fixed((4,3)), fixed((2,6)), fixed((3,3)), fixed((3,4)), fixed((4,4)), fixed((4,1)), fixed((6,1)), fixed((4,2)), fixed((2,7)), fixed((2,3)), fixed((1,1)), above_tumor((6,5)), |reach(psm2,block,(7,7),1), grasp(psm2,block,(7,7),2), pull(psm2,block,(7,7),3), 
1.40334892273|reachable(psm1,block,(1,1)), reachable(psm1,block,(1,2)), reachable(psm1,block,(1,3)), reachable(psm1,block,(1,4)), reachable(psm1,block,(1,5)), reachable(psm1,block,(1,6)), reachable(psm1,block,(1,7)), reachable(psm1,block,(2,1)), reachable(psm1,block,(2,2)), reachable(psm1,block,(2,3)), reachable(psm1,block,(2,4)), reachable(psm1,block,(2,5)), reachable(psm1,block,(2,6)), reachable(psm1,block,(2,7)), reachable(psm1,block,(3,1)), reachable(psm1,block,(3,2)), reachable(psm1,block,(3,3)), reachable(psm1,block,(3,4)), reachable(psm1,block,(3,5)), reachable(psm1,block,(3,6)), reachable(psm1,block,(3,7)), reachable(psm1,block,(4,1)), reachable(psm1,block,(4,2)), reachable(psm1,block,(4,3)), reachable(psm1,block,(4,4)), reachable(psm2,block,(4,5)), reachable(psm2,block,(4,6)), reachable(psm2,block,(4,7)), reachable(psm2,block,(5,1)), reachable(psm2,block,(5,2)), reachable(psm2,block,(5,3)), reachable(psm2,block,(5,4)), reachable(psm2,block,(5,5)), reachable(psm2,block,(5,6)), reachable(psm2,block,(5,7)), reachable(psm2,block,(6,1)), reachable(psm2,block,(6,2)), reachable(psm2,block,(6,3)), reachable(psm2,block,(6,4)), reachable(psm2,block,(6,5)), reachable(psm2,block,(6,6)), reachable(psm2,block,(6,7)), reachable(psm2,block,(7,1)), reachable(psm2,block,(7,2)), reachable(psm2,block,(7,3)), reachable(psm2,block,(7,4)), reachable(psm2,block,(7,5)), reachable(psm2,block,(7,6)), reachable(psm2,block,(7,7)), fixed((5,3)), fixed((1,5)), fixed((4,7)), fixed((2,1)), fixed((1,2)), fixed((5,7)), fixed((4,5)), fixed((4,6)), fixed((2,6)), fixed((2,4)), fixed((5,1)), fixed((3,4)), fixed((4,4)), fixed((1,4)), fixed((2,3)), fixed((4,2)), fixed((4,1)), fixed((3,6)), above_tumor((7,5)), |reach(psm2,block,(7,7),1), grasp(psm2,block,(7,7),2), pull(psm2,block,(7,7),3), 
1.41089296341|reachable(psm1,block,(1,1)), reachable(psm1,block,(1,2)), reachable(psm1,block,(1,3)), reachable(psm1,block,(1,4)), reachable(psm1,block,(1,5)), reachable(psm1,block,(1,6)), reachable(psm1,block,(1,7)), reachable(psm1,block,(2,1)), reachable(psm1,block,(2,2)), reachable(psm1,block,(2,3)), reachable(psm1,block,(2,4)), reachable(psm1,block,(2,5)), reachable(psm1,block,(2,6)), reachable(psm1,block,(2,7)), reachable(psm1,block,(3,1)), reachable(psm1,block,(3,2)), reachable(psm1,block,(3,3)), reachable(psm1,block,(3,4)), reachable(psm1,block,(3,5)), reachable(psm1,block,(3,6)), reachable(psm1,block,(3,7)), reachable(psm1,block,(4,1)), reachable(psm1,block,(4,2)), reachable(psm1,block,(4,3)), reachable(psm1,block,(4,4)), reachable(psm2,block,(4,5)), reachable(psm2,block,(4,6)), reachable(psm2,block,(4,7)), reachable(psm2,block,(5,1)), reachable(psm2,block,(5,2)), reachable(psm2,block,(5,3)), reachable(psm2,block,(5,4)), reachable(psm2,block,(5,5)), reachable(psm2,block,(5,6)), reachable(psm2,block,(5,7)), reachable(psm2,block,(6,1)), reachable(psm2,block,(6,2)), reachable(psm2,block,(6,3)), reachable(psm2,block,(6,4)), reachable(psm2,block,(6,5)), reachable(psm2,block,(6,6)), reachable(psm2,block,(6,7)), reachable(psm2,block,(7,1)), reachable(psm2,block,(7,2)), reachable(psm2,block,(7,3)), reachable(psm2,block,(7,4)), reachable(psm2,block,(7,5)), reachable(psm2,block,(7,6)), reachable(psm2,block,(7,7)), fixed((4,4)), fixed((1,4)), fixed((1,1)), fixed((5,2)), fixed((4,2)), fixed((5,1)), fixed((4,3)), fixed((5,7)), fixed((1,6)), fixed((2,4)), fixed((2,6)), fixed((2,1)), fixed((3,3)), fixed((4,7)), fixed((4,5)), fixed((2,7)), fixed((2,2)), fixed((3,1)), above_tumor((6,2)), |reach(psm2,block,(7,7),1), grasp(psm2,block,(7,7),2), pull(psm2,block,(7,7),3), 
1.44217801094|reachable(psm1,block,(1,1)), reachable(psm1,block,(1,2)), reachable(psm1,block,(1,3)), reachable(psm1,block,(1,4)), reachable(psm1,block,(1,5)), reachable(psm1,block,(1,6)), reachable(psm1,block,(1,7)), reachable(psm1,block,(2,1)), reachable(psm1,block,(2,2)), reachable(psm1,block,(2,3)), reachable(psm1,block,(2,4)), reachable(psm1,block,(2,5)), reachable(psm1,block,(2,6)), reachable(psm1,block,(2,7)), reachable(psm1,block,(3,1)), reachable(psm1,block,(3,2)), reachable(psm1,block,(3,3)), reachable(psm1,block,(3,4)), reachable(psm1,block,(3,5)), reachable(psm1,block,(3,6)), reachable(psm1,block,(3,7)), reachable(psm1,block,(4,1)), reachable(psm1,block,(4,2)), reachable(psm1,block,(4,3)), reachable(psm1,block,(4,4)), reachable(psm2,block,(4,5)), reachable(psm2,block,(4,6)), reachable(psm2,block,(4,7)), reachable(psm2,block,(5,1)), reachable(psm2,block,(5,2)), reachable(psm2,block,(5,3)), reachable(psm2,block,(5,4)), reachable(psm2,block,(5,5)), reachable(psm2,block,(5,6)), reachable(psm2,block,(5,7)), reachable(psm2,block,(6,1)), reachable(psm2,block,(6,2)), reachable(psm2,block,(6,3)), reachable(psm2,block,(6,4)), reachable(psm2,block,(6,5)), reachable(psm2,block,(6,6)), reachable(psm2,block,(6,7)), reachable(psm2,block,(7,1)), reachable(psm2,block,(7,2)), reachable(psm2,block,(7,3)), reachable(psm2,block,(7,4)), reachable(psm2,block,(7,5)), reachable(psm2,block,(7,6)), reachable(psm2,block,(7,7)), fixed((2,4)), fixed((4,6)), fixed((2,1)), fixed((5,2)), fixed((3,4)), fixed((4,4)), fixed((5,7)), fixed((5,4)), fixed((1,1)), fixed((2,3)), fixed((1,7)), fixed((3,3)), fixed((5,5)), fixed((3,6)), fixed((4,1)), fixed((3,5)), fixed((3,7)), fixed((4,2)), above_tumor((7,3)), |reach(psm2,block,(7,1),1), grasp(psm2,block,(7,1),2), pull(psm2,block,(7,1),3), 
1.41620087624|reachable(psm1,block,(1,1)), reachable(psm1,block,(1,2)), reachable(psm1,block,(1,3)), reachable(psm1,block,(1,4)), reachable(psm1,block,(1,5)), reachable(psm1,block,(1,6)), reachable(psm1,block,(1,7)), reachable(psm1,block,(2,1)), reachable(psm1,block,(2,2)), reachable(psm1,block,(2,3)), reachable(psm1,block,(2,4)), reachable(psm1,block,(2,5)), reachable(psm1,block,(2,6)), reachable(psm1,block,(2,7)), reachable(psm1,block,(3,1)), reachable(psm1,block,(3,2)), reachable(psm1,block,(3,3)), reachable(psm1,block,(3,4)), reachable(psm1,block,(3,5)), reachable(psm1,block,(3,6)), reachable(psm1,block,(3,7)), reachable(psm1,block,(4,1)), reachable(psm1,block,(4,2)), reachable(psm1,block,(4,3)), reachable(psm1,block,(4,4)), reachable(psm2,block,(4,5)), reachable(psm2,block,(4,6)), reachable(psm2,block,(4,7)), reachable(psm2,block,(5,1)), reachable(psm2,block,(5,2)), reachable(psm2,block,(5,3)), reachable(psm2,block,(5,4)), reachable(psm2,block,(5,5)), reachable(psm2,block,(5,6)), reachable(psm2,block,(5,7)), reachable(psm2,block,(6,1)), reachable(psm2,block,(6,2)), reachable(psm2,block,(6,3)), reachable(psm2,block,(6,4)), reachable(psm2,block,(6,5)), reachable(psm2,block,(6,6)), reachable(psm2,block,(6,7)), reachable(psm2,block,(7,1)), reachable(psm2,block,(7,2)), reachable(psm2,block,(7,3)), reachable(psm2,block,(7,4)), reachable(psm2,block,(7,5)), reachable(psm2,block,(7,6)), reachable(psm2,block,(7,7)), fixed((2,4)), fixed((1,4)), fixed((1,6)), fixed((2,1)), fixed((1,7)), fixed((5,5)), fixed((5,2)), fixed((3,2)), fixed((3,6)), fixed((4,1)), fixed((1,2)), fixed((3,7)), fixed((3,5)), fixed((4,4)), fixed((1,5)), fixed((5,3)), fixed((5,6)), fixed((2,6)), above_tumor((6,3)), |reach(psm2,block,(7,1),1), grasp(psm2,block,(7,1),2), pull(psm2,block,(7,1),3), 
1.44071388245|reachable(psm1,block,(1,1)), reachable(psm1,block,(1,2)), reachable(psm1,block,(1,3)), reachable(psm1,block,(1,4)), reachable(psm1,block,(1,5)), reachable(psm1,block,(1,6)), reachable(psm1,block,(1,7)), reachable(psm1,block,(2,1)), reachable(psm1,block,(2,2)), reachable(psm1,block,(2,3)), reachable(psm1,block,(2,4)), reachable(psm1,block,(2,5)), reachable(psm1,block,(2,6)), reachable(psm1,block,(2,7)), reachable(psm1,block,(3,1)), reachable(psm1,block,(3,2)), reachable(psm1,block,(3,3)), reachable(psm1,block,(3,4)), reachable(psm1,block,(3,5)), reachable(psm1,block,(3,6)), reachable(psm1,block,(3,7)), reachable(psm1,block,(4,1)), reachable(psm1,block,(4,2)), reachable(psm1,block,(4,3)), reachable(psm1,block,(4,4)), reachable(psm2,block,(4,5)), reachable(psm2,block,(4,6)), reachable(psm2,block,(4,7)), reachable(psm2,block,(5,1)), reachable(psm2,block,(5,2)), reachable(psm2,block,(5,3)), reachable(psm2,block,(5,4)), reachable(psm2,block,(5,5)), reachable(psm2,block,(5,6)), reachable(psm2,block,(5,7)), reachable(psm2,block,(6,1)), reachable(psm2,block,(6,2)), reachable(psm2,block,(6,3)), reachable(psm2,block,(6,4)), reachable(psm2,block,(6,5)), reachable(psm2,block,(6,6)), reachable(psm2,block,(6,7)), reachable(psm2,block,(7,1)), reachable(psm2,block,(7,2)), reachable(psm2,block,(7,3)), reachable(psm2,block,(7,4)), reachable(psm2,block,(7,5)), reachable(psm2,block,(7,6)), reachable(psm2,block,(7,7)), fixed((4,1)), fixed((4,5)), fixed((2,3)), fixed((3,3)), fixed((2,5)), fixed((2,4)), fixed((6,1)), fixed((3,1)), fixed((3,2)), fixed((4,4)), fixed((5,3)), fixed((1,1)), fixed((2,6)), fixed((2,2)), fixed((5,6)), fixed((3,7)), fixed((1,3)), fixed((4,2)), above_tumor((6,2)), |reach(psm2,block,(7,7),1), grasp(psm2,block,(7,7),2), pull(psm2,block,(7,7),3), 
