0.657470941544|reachable(psm1,block,(1,1)), reachable(psm1,block,(1,2)), reachable(psm1,block,(1,3)), reachable(psm1,block,(1,4)), reachable(psm1,block,(1,5)), reachable(psm1,block,(1,6)), reachable(psm1,block,(2,1)), reachable(psm1,block,(2,2)), reachable(psm1,block,(2,3)), reachable(psm1,block,(2,4)), reachable(psm1,block,(2,5)), reachable(psm1,block,(2,6)), reachable(psm1,block,(3,1)), reachable(psm1,block,(3,2)), reachable(psm1,block,(3,3)), reachable(psm1,block,(3,4)), reachable(psm1,block,(3,5)), reachable(psm1,block,(3,6)), reachable(psm2,block,(4,1)), reachable(psm2,block,(4,2)), reachable(psm2,block,(4,3)), reachable(psm2,block,(4,4)), reachable(psm2,block,(4,5)), reachable(psm2,block,(4,6)), reachable(psm2,block,(5,1)), reachable(psm2,block,(5,2)), reachable(psm2,block,(5,3)), reachable(psm2,block,(5,4)), reachable(psm2,block,(5,5)), reachable(psm2,block,(5,6)), reachable(psm2,block,(6,1)), reachable(psm2,block,(6,2)), reachable(psm2,block,(6,3)), reachable(psm2,block,(6,4)), reachable(psm2,block,(6,5)), reachable(psm2,block,(6,6)), fixed((2,4)), fixed((1,5)), fixed((3,6)), fixed((4,6)), fixed((2,3)), fixed((3,5)), fixed((3,2)), fixed((5,1)), fixed((2,5)), fixed((2,6)), fixed((4,1)), fixed((1,1)), above_tumor((6,2)), |reach(psm2,block,(6,1),1), grasp(psm2,block,(6,1),2), pull(psm2,block,(6,1),3), 
0.645888090134|reachable(psm1,block,(1,1)), reachable(psm1,block,(1,2)), reachable(psm1,block,(1,3)), reachable(psm1,block,(1,4)), reachable(psm1,block,(1,5)), reachable(psm1,block,(1,6)), reachable(psm1,block,(2,1)), reachable(psm1,block,(2,2)), reachable(psm1,block,(2,3)), reachable(psm1,block,(2,4)), reachable(psm1,block,(2,5)), reachable(psm1,block,(2,6)), reachable(psm1,block,(3,1)), reachable(psm1,block,(3,2)), reachable(psm1,block,(3,3)), reachable(psm1,block,(3,4)), reachable(psm1,block,(3,5)), reachable(psm1,block,(3,6)), reachable(psm2,block,(4,1)), reachable(psm2,block,(4,2)), reachable(psm2,block,(4,3)), reachable(psm2,block,(4,4)), reachable(psm2,block,(4,5)), reachable(psm2,block,(4,6)), reachable(psm2,block,(5,1)), reachable(psm2,block,(5,2)), reachable(psm2,block,(5,3)), reachable(psm2,block,(5,4)), reachable(psm2,block,(5,5)), reachable(psm2,block,(5,6)), reachable(psm2,block,(6,1)), reachable(psm2,block,(6,2)), reachable(psm2,block,(6,3)), reachable(psm2,block,(6,4)), reachable(psm2,block,(6,5)), reachable(psm2,block,(6,6)), fixed((1,3)), fixed((4,4)), fixed((1,4)), fixed((1,6)), fixed((4,2)), fixed((3,1)), fixed((3,5)), fixed((4,6)), fixed((1,5)), fixed((4,3)), fixed((2,2)), fixed((2,1)), above_tumor((5,6)), |reach(psm2,block,(6,6),1), grasp(psm2,block,(6,6),2), pull(psm2,block,(6,6),3), 
0.622673988342|reachable(psm1,block,(1,1)), reachable(psm1,block,(1,2)), reachable(psm1,block,(1,3)), reachable(psm1,block,(1,4)), reachable(psm1,block,(1,5)), reachable(psm1,block,(1,6)), reachable(psm1,block,(2,1)), reachable(psm1,block,(2,2)), reachable(psm1,block,(2,3)), reachable(psm1,block,(2,4)), reachable(psm1,block,(2,5)), reachable(psm1,block,(2,6)), reachable(psm1,block,(3,1)), reachable(psm1,block,(3,2)), reachable(psm1,block,(3,3)), reachable(psm1,block,(3,4)), reachable(psm1,block,(3,5)), reachable(psm1,block,(3,6)), reachable(psm2,block,(4,1)), reachable(psm2,block,(4,2)), reachable(psm2,block,(4,3)), reachable(psm2,block,(4,4)), reachable(psm2,block,(4,5)), reachable(psm2,block,(4,6)), reachable(psm2,block,(5,1)), reachable(psm2,block,(5,2)), reachable(psm2,block,(5,3)), reachable(psm2,block,(5,4)), reachable(psm2,block,(5,5)), reachable(psm2,block,(5,6)), reachable(psm2,block,(6,1)), reachable(psm2,block,(6,2)), reachable(psm2,block,(6,3)), reachable(psm2,block,(6,4)), reachable(psm2,block,(6,5)), reachable(psm2,block,(6,6)), fixed((5,1)), fixed((4,4)), fixed((2,3)), fixed((3,3)), fixed((4,3)), fixed((3,2)), fixed((2,2)), fixed((4,1)), fixed((1,4)), fixed((2,4)), fixed((1,3)), fixed((3,1)), above_tumor((6,6)), |reach(psm1,block,(1,6),1), grasp(psm1,block,(1,6),2), pull(psm1,block,(1,6),3), 
0.631057024002|reachable(psm1,block,(1,1)), reachable(psm1,block,(1,2)), reachable(psm1,block,(1,3)), reachable(psm1,block,(1,4)), reachable(psm1,block,(1,5)), reachable(psm1,block,(1,6)), reachable(psm1,block,(2,1)), reachable(psm1,block,(2,2)), reachable(psm1,block,(2,3)), reachable(psm1,block,(2,4)), reachable(psm1,block,(2,5)), reachable(psm1,block,(2,6)), reachable(psm1,block,(3,1)), reachable(psm1,block,(3,2)), reachable(psm1,block,(3,3)), reachable(psm1,block,(3,4)), reachable(psm1,block,(3,5)), reachable(psm1,block,(3,6)), reachable(psm2,block,(4,1)), reachable(psm2,block,(4,2)), reachable(psm2,block,(4,3)), reachable(psm2,block,(4,4)), reachable(psm2,block,(4,5)), reachable(psm2,block,(4,6)), reachable(psm2,block,(5,1)), reachable(psm2,block,(5,2)), reachable(psm2,block,(5,3)), reachable(psm2,block,(5,4)), reachable(psm2,block,(5,5)), reachable(psm2,block,(5,6)), reachable(psm2,block,(6,1)), reachable(psm2,block,(6,2)), reachable(psm2,block,(6,3)), reachable(psm2,block,(6,4)), reachable(psm2,block,(6,5)), reachable(psm2,block,(6,6)), fixed((4,6)), fixed((3,5)), fixed((4,1)), fixed((5,1)), fixed((3,2)), fixed((4,5)), fixed((3,1)), fixed((1,1)), fixed((1,2)), fixed((3,3)), fixed((1,6)), fixed((3,6)), above_tumor((5,5)), |reach(psm2,block,(6,6),1), grasp(psm2,block,(6,6),2), pull(psm2,block,(6,6),3), 
0.610219955444|reachable(psm1,block,(1,1)), reachable(psm1,block,(1,2)), reachable(psm1,block,(1,3)), reachable(psm1,block,(1,4)), reachable(psm1,block,(1,5)), reachable(psm1,block,(1,6)), reachable(psm1,block,(2,1)), reachable(psm1,block,(2,2)), reachable(psm1,block,(2,3)), reachable(psm1,block,(2,4)), reachable(psm1,block,(2,5)), reachable(psm1,block,(2,6)), reachable(psm1,block,(3,1)), reachable(psm1,block,(3,2)), reachable(psm1,block,(3,3)), reachable(psm1,block,(3,4)), reachable(psm1,block,(3,5)), reachable(psm1,block,(3,6)), reachable(psm2,block,(4,1)), reachable(psm2,block,(4,2)), reachable(psm2,block,(4,3)), reachable(psm2,block,(4,4)), reachable(psm2,block,(4,5)), reachable(psm2,block,(4,6)), reachable(psm2,block,(5,1)), reachable(psm2,block,(5,2)), reachable(psm2,block,(5,3)), reachable(psm2,block,(5,4)), reachable(psm2,block,(5,5)), reachable(psm2,block,(5,6)), reachable(psm2,block,(6,1)), reachable(psm2,block,(6,2)), reachable(psm2,block,(6,3)), reachable(psm2,block,(6,4)), reachable(psm2,block,(6,5)), reachable(psm2,block,(6,6)), fixed((4,4)), fixed((2,4)), fixed((2,5)), fixed((2,6)), fixed((3,2)), fixed((3,5)), fixed((1,1)), fixed((1,2)), fixed((4,2)), fixed((3,3)), fixed((2,2)), fixed((4,5)), above_tumor((6,6)), |reach(psm2,block,(6,6),1), grasp(psm2,block,(6,6),2), pull(psm2,block,(6,6),3), 
0.621532917023|reachable(psm1,block,(1,1)), reachable(psm1,block,(1,2)), reachable(psm1,block,(1,3)), reachable(psm1,block,(1,4)), reachable(psm1,block,(1,5)), reachable(psm1,block,(1,6)), reachable(psm1,block,(2,1)), reachable(psm1,block,(2,2)), reachable(psm1,block,(2,3)), reachable(psm1,block,(2,4)), reachable(psm1,block,(2,5)), reachable(psm1,block,(2,6)), reachable(psm1,block,(3,1)), reachable(psm1,block,(3,2)), reachable(psm1,block,(3,3)), reachable(psm1,block,(3,4)), reachable(psm1,block,(3,5)), reachable(psm1,block,(3,6)), reachable(psm2,block,(4,1)), reachable(psm2,block,(4,2)), reachable(psm2,block,(4,3)), reachable(psm2,block,(4,4)), reachable(psm2,block,(4,5)), reachable(psm2,block,(4,6)), reachable(psm2,block,(5,1)), reachable(psm2,block,(5,2)), reachable(psm2,block,(5,3)), reachable(psm2,block,(5,4)), reachable(psm2,block,(5,5)), reachable(psm2,block,(5,6)), reachable(psm2,block,(6,1)), reachable(psm2,block,(6,2)), reachable(psm2,block,(6,3)), reachable(psm2,block,(6,4)), reachable(psm2,block,(6,5)), reachable(psm2,block,(6,6)), fixed((2,4)), fixed((3,3)), fixed((4,1)), fixed((3,2)), fixed((1,4)), fixed((1,3)), fixed((3,6)), fixed((3,5)), fixed((1,2)), fixed((2,3)), fixed((1,6)), fixed((2,6)), above_tumor((5,6)), |reach(psm2,block,(6,1),1), grasp(psm2,block,(6,1),2), pull(psm2,block,(6,1),3), 
0.657705068588|reachable(psm1,block,(1,1)), reachable(psm1,block,(1,2)), reachable(psm1,block,(1,3)), reachable(psm1,block,(1,4)), reachable(psm1,block,(1,5)), reachable(psm1,block,(1,6)), reachable(psm1,block,(2,1)), reachable(psm1,block,(2,2)), reachable(psm1,block,(2,3)), reachable(psm1,block,(2,4)), reachable(psm1,block,(2,5)), reachable(psm1,block,(2,6)), reachable(psm1,block,(3,1)), reachable(psm1,block,(3,2)), reachable(psm1,block,(3,3)), reachable(psm1,block,(3,4)), reachable(psm1,block,(3,5)), reachable(psm1,block,(3,6)), reachable(psm2,block,(4,1)), reachable(psm2,block,(4,2)), reachable(psm2,block,(4,3)), reachable(psm2,block,(4,4)), reachable(psm2,block,(4,5)), reachable(psm2,block,(4,6)), reachable(psm2,block,(5,1)), reachable(psm2,block,(5,2)), reachable(psm2,block,(5,3)), reachable(psm2,block,(5,4)), reachable(psm2,block,(5,5)), reachable(psm2,block,(5,6)), reachable(psm2,block,(6,1)), reachable(psm2,block,(6,2)), reachable(psm2,block,(6,3)), reachable(psm2,block,(6,4)), reachable(psm2,block,(6,5)), reachable(psm2,block,(6,6)), fixed((5,1)), fixed((2,1)), fixed((4,1)), fixed((2,2)), fixed((1,2)), fixed((3,1)), fixed((3,2)), fixed((1,1)), fixed((4,2)), fixed((4,4)), fixed((2,6)), fixed((3,3)), above_tumor((5,4)), |reach(psm2,block,(6,6),1), grasp(psm2,block,(6,6),2), pull(psm2,block,(6,6),3), 
0.618338108063|reachable(psm1,block,(1,1)), reachable(psm1,block,(1,2)), reachable(psm1,block,(1,3)), reachable(psm1,block,(1,4)), reachable(psm1,block,(1,5)), reachable(psm1,block,(1,6)), reachable(psm1,block,(2,1)), reachable(psm1,block,(2,2)), reachable(psm1,block,(2,3)), reachable(psm1,block,(2,4)), reachable(psm1,block,(2,5)), reachable(psm1,block,(2,6)), reachable(psm1,block,(3,1)), reachable(psm1,block,(3,2)), reachable(psm1,block,(3,3)), reachable(psm1,block,(3,4)), reachable(psm1,block,(3,5)), reachable(psm1,block,(3,6)), reachable(psm2,block,(4,1)), reachable(psm2,block,(4,2)), reachable(psm2,block,(4,3)), reachable(psm2,block,(4,4)), reachable(psm2,block,(4,5)), reachable(psm2,block,(4,6)), reachable(psm2,block,(5,1)), reachable(psm2,block,(5,2)), reachable(psm2,block,(5,3)), reachable(psm2,block,(5,4)), reachable(psm2,block,(5,5)), reachable(psm2,block,(5,6)), reachable(psm2,block,(6,1)), reachable(psm2,block,(6,2)), reachable(psm2,block,(6,3)), reachable(psm2,block,(6,4)), reachable(psm2,block,(6,5)), reachable(psm2,block,(6,6)), fixed((1,6)), fixed((2,3)), fixed((1,3)), fixed((3,4)), fixed((3,5)), fixed((4,1)), fixed((3,1)), fixed((4,3)), fixed((4,5)), fixed((3,2)), fixed((1,5)), fixed((1,2)), above_tumor((5,6)), |reach(psm2,block,(6,6),1), grasp(psm2,block,(6,6),2), pull(psm2,block,(6,6),3), 
0.618176937103|reachable(psm1,block,(1,1)), reachable(psm1,block,(1,2)), reachable(psm1,block,(1,3)), reachable(psm1,block,(1,4)), reachable(psm1,block,(1,5)), reachable(psm1,block,(1,6)), reachable(psm1,block,(2,1)), reachable(psm1,block,(2,2)), reachable(psm1,block,(2,3)), reachable(psm1,block,(2,4)), reachable(psm1,block,(2,5)), reachable(psm1,block,(2,6)), reachable(psm1,block,(3,1)), reachable(psm1,block,(3,2)), reachable(psm1,block,(3,3)), reachable(psm1,block,(3,4)), reachable(psm1,block,(3,5)), reachable(psm1,block,(3,6)), reachable(psm2,block,(4,1)), reachable(psm2,block,(4,2)), reachable(psm2,block,(4,3)), reachable(psm2,block,(4,4)), reachable(psm2,block,(4,5)), reachable(psm2,block,(4,6)), reachable(psm2,block,(5,1)), reachable(psm2,block,(5,2)), reachable(psm2,block,(5,3)), reachable(psm2,block,(5,4)), reachable(psm2,block,(5,5)), reachable(psm2,block,(5,6)), reachable(psm2,block,(6,1)), reachable(psm2,block,(6,2)), reachable(psm2,block,(6,3)), reachable(psm2,block,(6,4)), reachable(psm2,block,(6,5)), reachable(psm2,block,(6,6)), fixed((1,1)), fixed((4,4)), fixed((2,2)), fixed((1,5)), fixed((4,5)), fixed((3,3)), fixed((1,4)), fixed((4,3)), fixed((3,2)), fixed((1,3)), fixed((4,2)), fixed((3,6)), above_tumor((6,3)), |reach(psm2,block,(6,6),1), grasp(psm2,block,(6,6),2), pull(psm2,block,(6,6),3), 
0.638159036636|reachable(psm1,block,(1,1)), reachable(psm1,block,(1,2)), reachable(psm1,block,(1,3)), reachable(psm1,block,(1,4)), reachable(psm1,block,(1,5)), reachable(psm1,block,(1,6)), reachable(psm1,block,(2,1)), reachable(psm1,block,(2,2)), reachable(psm1,block,(2,3)), reachable(psm1,block,(2,4)), reachable(psm1,block,(2,5)), reachable(psm1,block,(2,6)), reachable(psm1,block,(3,1)), reachable(psm1,block,(3,2)), reachable(psm1,block,(3,3)), reachable(psm1,block,(3,4)), reachable(psm1,block,(3,5)), reachable(psm1,block,(3,6)), reachable(psm2,block,(4,1)), reachable(psm2,block,(4,2)), reachable(psm2,block,(4,3)), reachable(psm2,block,(4,4)), reachable(psm2,block,(4,5)), reachable(psm2,block,(4,6)), reachable(psm2,block,(5,1)), reachable(psm2,block,(5,2)), reachable(psm2,block,(5,3)), reachable(psm2,block,(5,4)), reachable(psm2,block,(5,5)), reachable(psm2,block,(5,6)), reachable(psm2,block,(6,1)), reachable(psm2,block,(6,2)), reachable(psm2,block,(6,3)), reachable(psm2,block,(6,4)), reachable(psm2,block,(6,5)), reachable(psm2,block,(6,6)), fixed((1,6)), fixed((3,2)), fixed((2,5)), fixed((3,4)), fixed((3,3)), fixed((4,6)), fixed((2,6)), fixed((2,2)), fixed((2,4)), fixed((2,3)), fixed((3,6)), fixed((4,4)), above_tumor((5,2)), |reach(psm2,block,(6,1),1), grasp(psm2,block,(6,1),2), pull(psm2,block,(6,1),3), 
0.638532876968|reachable(psm1,block,(1,1)), reachable(psm1,block,(1,2)), reachable(psm1,block,(1,3)), reachable(psm1,block,(1,4)), reachable(psm1,block,(1,5)), reachable(psm1,block,(1,6)), reachable(psm1,block,(2,1)), reachable(psm1,block,(2,2)), reachable(psm1,block,(2,3)), reachable(psm1,block,(2,4)), reachable(psm1,block,(2,5)), reachable(psm1,block,(2,6)), reachable(psm1,block,(3,1)), reachable(psm1,block,(3,2)), reachable(psm1,block,(3,3)), reachable(psm1,block,(3,4)), reachable(psm1,block,(3,5)), reachable(psm1,block,(3,6)), reachable(psm2,block,(4,1)), reachable(psm2,block,(4,2)), reachable(psm2,block,(4,3)), reachable(psm2,block,(4,4)), reachable(psm2,block,(4,5)), reachable(psm2,block,(4,6)), reachable(psm2,block,(5,1)), reachable(psm2,block,(5,2)), reachable(psm2,block,(5,3)), reachable(psm2,block,(5,4)), reachable(psm2,block,(5,5)), reachable(psm2,block,(5,6)), reachable(psm2,block,(6,1)), reachable(psm2,block,(6,2)), reachable(psm2,block,(6,3)), reachable(psm2,block,(6,4)), reachable(psm2,block,(6,5)), reachable(psm2,block,(6,6)), fixed((1,4)), fixed((4,1)), fixed((4,3)), fixed((2,4)), fixed((1,6)), fixed((4,4)), fixed((1,3)), fixed((3,3)), fixed((1,5)), fixed((3,5)), fixed((4,2)), fixed((1,1)), above_tumor((5,2)), |reach(psm2,block,(6,1),1), grasp(psm2,block,(6,1),2), pull(psm2,block,(6,1),3), 
0.614807128906|reachable(psm1,block,(1,1)), reachable(psm1,block,(1,2)), reachable(psm1,block,(1,3)), reachable(psm1,block,(1,4)), reachable(psm1,block,(1,5)), reachable(psm1,block,(1,6)), reachable(psm1,block,(2,1)), reachable(psm1,block,(2,2)), reachable(psm1,block,(2,3)), reachable(psm1,block,(2,4)), reachable(psm1,block,(2,5)), reachable(psm1,block,(2,6)), reachable(psm1,block,(3,1)), reachable(psm1,block,(3,2)), reachable(psm1,block,(3,3)), reachable(psm1,block,(3,4)), reachable(psm1,block,(3,5)), reachable(psm1,block,(3,6)), reachable(psm2,block,(4,1)), reachable(psm2,block,(4,2)), reachable(psm2,block,(4,3)), reachable(psm2,block,(4,4)), reachable(psm2,block,(4,5)), reachable(psm2,block,(4,6)), reachable(psm2,block,(5,1)), reachable(psm2,block,(5,2)), reachable(psm2,block,(5,3)), reachable(psm2,block,(5,4)), reachable(psm2,block,(5,5)), reachable(psm2,block,(5,6)), reachable(psm2,block,(6,1)), reachable(psm2,block,(6,2)), reachable(psm2,block,(6,3)), reachable(psm2,block,(6,4)), reachable(psm2,block,(6,5)), reachable(psm2,block,(6,6)), fixed((4,6)), fixed((4,3)), fixed((3,5)), fixed((2,5)), fixed((1,5)), fixed((4,5)), fixed((1,1)), fixed((1,4)), fixed((3,2)), fixed((3,1)), fixed((4,1)), fixed((2,4)), above_tumor((5,4)), |reach(psm2,block,(6,6),1), grasp(psm2,block,(6,6),2), pull(psm2,block,(6,6),3), 
0.627995967865|reachable(psm1,block,(1,1)), reachable(psm1,block,(1,2)), reachable(psm1,block,(1,3)), reachable(psm1,block,(1,4)), reachable(psm1,block,(1,5)), reachable(psm1,block,(1,6)), reachable(psm1,block,(2,1)), reachable(psm1,block,(2,2)), reachable(psm1,block,(2,3)), reachable(psm1,block,(2,4)), reachable(psm1,block,(2,5)), reachable(psm1,block,(2,6)), reachable(psm1,block,(3,1)), reachable(psm1,block,(3,2)), reachable(psm1,block,(3,3)), reachable(psm1,block,(3,4)), reachable(psm1,block,(3,5)), reachable(psm1,block,(3,6)), reachable(psm2,block,(4,1)), reachable(psm2,block,(4,2)), reachable(psm2,block,(4,3)), reachable(psm2,block,(4,4)), reachable(psm2,block,(4,5)), reachable(psm2,block,(4,6)), reachable(psm2,block,(5,1)), reachable(psm2,block,(5,2)), reachable(psm2,block,(5,3)), reachable(psm2,block,(5,4)), reachable(psm2,block,(5,5)), reachable(psm2,block,(5,6)), reachable(psm2,block,(6,1)), reachable(psm2,block,(6,2)), reachable(psm2,block,(6,3)), reachable(psm2,block,(6,4)), reachable(psm2,block,(6,5)), reachable(psm2,block,(6,6)), fixed((4,3)), fixed((2,4)), fixed((3,5)), fixed((1,5)), fixed((4,2)), fixed((4,5)), fixed((4,6)), fixed((3,2)), fixed((3,1)), fixed((2,1)), fixed((2,3)), fixed((5,1)), above_tumor((6,1)), |reach(psm2,block,(6,6),1), grasp(psm2,block,(6,6),2), pull(psm2,block,(6,6),3), 
0.649829149246|reachable(psm1,block,(1,1)), reachable(psm1,block,(1,2)), reachable(psm1,block,(1,3)), reachable(psm1,block,(1,4)), reachable(psm1,block,(1,5)), reachable(psm1,block,(1,6)), reachable(psm1,block,(2,1)), reachable(psm1,block,(2,2)), reachable(psm1,block,(2,3)), reachable(psm1,block,(2,4)), reachable(psm1,block,(2,5)), reachable(psm1,block,(2,6)), reachable(psm1,block,(3,1)), reachable(psm1,block,(3,2)), reachable(psm1,block,(3,3)), reachable(psm1,block,(3,4)), reachable(psm1,block,(3,5)), reachable(psm1,block,(3,6)), reachable(psm2,block,(4,1)), reachable(psm2,block,(4,2)), reachable(psm2,block,(4,3)), reachable(psm2,block,(4,4)), reachable(psm2,block,(4,5)), reachable(psm2,block,(4,6)), reachable(psm2,block,(5,1)), reachable(psm2,block,(5,2)), reachable(psm2,block,(5,3)), reachable(psm2,block,(5,4)), reachable(psm2,block,(5,5)), reachable(psm2,block,(5,6)), reachable(psm2,block,(6,1)), reachable(psm2,block,(6,2)), reachable(psm2,block,(6,3)), reachable(psm2,block,(6,4)), reachable(psm2,block,(6,5)), reachable(psm2,block,(6,6)), fixed((5,1)), fixed((3,4)), fixed((3,5)), fixed((4,4)), fixed((1,5)), fixed((3,3)), fixed((1,1)), fixed((2,2)), fixed((1,3)), fixed((1,6)), fixed((2,3)), fixed((3,2)), above_tumor((6,1)), |reach(psm2,block,(6,1),1), grasp(psm2,block,(6,1),2), pull(psm2,block,(6,1),3), 
0.623773097992|reachable(psm1,block,(1,1)), reachable(psm1,block,(1,2)), reachable(psm1,block,(1,3)), reachable(psm1,block,(1,4)), reachable(psm1,block,(1,5)), reachable(psm1,block,(1,6)), reachable(psm1,block,(2,1)), reachable(psm1,block,(2,2)), reachable(psm1,block,(2,3)), reachable(psm1,block,(2,4)), reachable(psm1,block,(2,5)), reachable(psm1,block,(2,6)), reachable(psm1,block,(3,1)), reachable(psm1,block,(3,2)), reachable(psm1,block,(3,3)), reachable(psm1,block,(3,4)), reachable(psm1,block,(3,5)), reachable(psm1,block,(3,6)), reachable(psm2,block,(4,1)), reachable(psm2,block,(4,2)), reachable(psm2,block,(4,3)), reachable(psm2,block,(4,4)), reachable(psm2,block,(4,5)), reachable(psm2,block,(4,6)), reachable(psm2,block,(5,1)), reachable(psm2,block,(5,2)), reachable(psm2,block,(5,3)), reachable(psm2,block,(5,4)), reachable(psm2,block,(5,5)), reachable(psm2,block,(5,6)), reachable(psm2,block,(6,1)), reachable(psm2,block,(6,2)), reachable(psm2,block,(6,3)), reachable(psm2,block,(6,4)), reachable(psm2,block,(6,5)), reachable(psm2,block,(6,6)), fixed((2,1)), fixed((3,1)), fixed((2,3)), fixed((2,2)), fixed((2,4)), fixed((3,5)), fixed((4,6)), fixed((1,6)), fixed((1,3)), fixed((1,5)), fixed((3,6)), fixed((4,1)), above_tumor((6,2)), |reach(psm2,block,(6,1),1), grasp(psm2,block,(6,1),2), pull(psm2,block,(6,1),3), 
0.620445966721|reachable(psm1,block,(1,1)), reachable(psm1,block,(1,2)), reachable(psm1,block,(1,3)), reachable(psm1,block,(1,4)), reachable(psm1,block,(1,5)), reachable(psm1,block,(1,6)), reachable(psm1,block,(2,1)), reachable(psm1,block,(2,2)), reachable(psm1,block,(2,3)), reachable(psm1,block,(2,4)), reachable(psm1,block,(2,5)), reachable(psm1,block,(2,6)), reachable(psm1,block,(3,1)), reachable(psm1,block,(3,2)), reachable(psm1,block,(3,3)), reachable(psm1,block,(3,4)), reachable(psm1,block,(3,5)), reachable(psm1,block,(3,6)), reachable(psm2,block,(4,1)), reachable(psm2,block,(4,2)), reachable(psm2,block,(4,3)), reachable(psm2,block,(4,4)), reachable(psm2,block,(4,5)), reachable(psm2,block,(4,6)), reachable(psm2,block,(5,1)), reachable(psm2,block,(5,2)), reachable(psm2,block,(5,3)), reachable(psm2,block,(5,4)), reachable(psm2,block,(5,5)), reachable(psm2,block,(5,6)), reachable(psm2,block,(6,1)), reachable(psm2,block,(6,2)), reachable(psm2,block,(6,3)), reachable(psm2,block,(6,4)), reachable(psm2,block,(6,5)), reachable(psm2,block,(6,6)), fixed((4,3)), fixed((4,4)), fixed((3,3)), fixed((2,5)), fixed((3,4)), fixed((2,3)), fixed((1,4)), fixed((1,5)), fixed((1,2)), fixed((5,1)), fixed((4,2)), fixed((3,2)), above_tumor((6,4)), |reach(psm2,block,(6,1),1), grasp(psm2,block,(6,1),2), pull(psm2,block,(6,1),3), 
0.630271911621|reachable(psm1,block,(1,1)), reachable(psm1,block,(1,2)), reachable(psm1,block,(1,3)), reachable(psm1,block,(1,4)), reachable(psm1,block,(1,5)), reachable(psm1,block,(1,6)), reachable(psm1,block,(2,1)), reachable(psm1,block,(2,2)), reachable(psm1,block,(2,3)), reachable(psm1,block,(2,4)), reachable(psm1,block,(2,5)), reachable(psm1,block,(2,6)), reachable(psm1,block,(3,1)), reachable(psm1,block,(3,2)), reachable(psm1,block,(3,3)), reachable(psm1,block,(3,4)), reachable(psm1,block,(3,5)), reachable(psm1,block,(3,6)), reachable(psm2,block,(4,1)), reachable(psm2,block,(4,2)), reachable(psm2,block,(4,3)), reachable(psm2,block,(4,4)), reachable(psm2,block,(4,5)), reachable(psm2,block,(4,6)), reachable(psm2,block,(5,1)), reachable(psm2,block,(5,2)), reachable(psm2,block,(5,3)), reachable(psm2,block,(5,4)), reachable(psm2,block,(5,5)), reachable(psm2,block,(5,6)), reachable(psm2,block,(6,1)), reachable(psm2,block,(6,2)), reachable(psm2,block,(6,3)), reachable(psm2,block,(6,4)), reachable(psm2,block,(6,5)), reachable(psm2,block,(6,6)), fixed((3,3)), fixed((1,6)), fixed((4,4)), fixed((1,2)), fixed((1,3)), fixed((4,5)), fixed((4,2)), fixed((2,4)), fixed((2,3)), fixed((1,5)), fixed((5,1)), fixed((3,4)), above_tumor((5,3)), |reach(psm2,block,(6,6),1), grasp(psm2,block,(6,6),2), pull(psm2,block,(6,6),3), 
0.610133886337|reachable(psm1,block,(1,1)), reachable(psm1,block,(1,2)), reachable(psm1,block,(1,3)), reachable(psm1,block,(1,4)), reachable(psm1,block,(1,5)), reachable(psm1,block,(1,6)), reachable(psm1,block,(2,1)), reachable(psm1,block,(2,2)), reachable(psm1,block,(2,3)), reachable(psm1,block,(2,4)), reachable(psm1,block,(2,5)), reachable(psm1,block,(2,6)), reachable(psm1,block,(3,1)), reachable(psm1,block,(3,2)), reachable(psm1,block,(3,3)), reachable(psm1,block,(3,4)), reachable(psm1,block,(3,5)), reachable(psm1,block,(3,6)), reachable(psm2,block,(4,1)), reachable(psm2,block,(4,2)), reachable(psm2,block,(4,3)), reachable(psm2,block,(4,4)), reachable(psm2,block,(4,5)), reachable(psm2,block,(4,6)), reachable(psm2,block,(5,1)), reachable(psm2,block,(5,2)), reachable(psm2,block,(5,3)), reachable(psm2,block,(5,4)), reachable(psm2,block,(5,5)), reachable(psm2,block,(5,6)), reachable(psm2,block,(6,1)), reachable(psm2,block,(6,2)), reachable(psm2,block,(6,3)), reachable(psm2,block,(6,4)), reachable(psm2,block,(6,5)), reachable(psm2,block,(6,6)), fixed((2,3)), fixed((3,5)), fixed((3,6)), fixed((3,3)), fixed((4,4)), fixed((4,1)), fixed((2,1)), fixed((3,4)), fixed((2,6)), fixed((1,5)), fixed((1,2)), fixed((4,5)), above_tumor((5,2)), |reach(psm2,block,(6,1),1), grasp(psm2,block,(6,1),2), pull(psm2,block,(6,1),3), 
0.624940872192|reachable(psm1,block,(1,1)), reachable(psm1,block,(1,2)), reachable(psm1,block,(1,3)), reachable(psm1,block,(1,4)), reachable(psm1,block,(1,5)), reachable(psm1,block,(1,6)), reachable(psm1,block,(2,1)), reachable(psm1,block,(2,2)), reachable(psm1,block,(2,3)), reachable(psm1,block,(2,4)), reachable(psm1,block,(2,5)), reachable(psm1,block,(2,6)), reachable(psm1,block,(3,1)), reachable(psm1,block,(3,2)), reachable(psm1,block,(3,3)), reachable(psm1,block,(3,4)), reachable(psm1,block,(3,5)), reachable(psm1,block,(3,6)), reachable(psm2,block,(4,1)), reachable(psm2,block,(4,2)), reachable(psm2,block,(4,3)), reachable(psm2,block,(4,4)), reachable(psm2,block,(4,5)), reachable(psm2,block,(4,6)), reachable(psm2,block,(5,1)), reachable(psm2,block,(5,2)), reachable(psm2,block,(5,3)), reachable(psm2,block,(5,4)), reachable(psm2,block,(5,5)), reachable(psm2,block,(5,6)), reachable(psm2,block,(6,1)), reachable(psm2,block,(6,2)), reachable(psm2,block,(6,3)), reachable(psm2,block,(6,4)), reachable(psm2,block,(6,5)), reachable(psm2,block,(6,6)), fixed((3,2)), fixed((1,3)), fixed((4,2)), fixed((1,4)), fixed((3,6)), fixed((1,6)), fixed((3,3)), fixed((4,5)), fixed((3,4)), fixed((4,4)), fixed((3,1)), fixed((2,2)), above_tumor((6,2)), |reach(psm2,block,(6,1),1), grasp(psm2,block,(6,1),2), pull(psm2,block,(6,1),3), 
0.64422082901|reachable(psm1,block,(1,1)), reachable(psm1,block,(1,2)), reachable(psm1,block,(1,3)), reachable(psm1,block,(1,4)), reachable(psm1,block,(1,5)), reachable(psm1,block,(1,6)), reachable(psm1,block,(2,1)), reachable(psm1,block,(2,2)), reachable(psm1,block,(2,3)), reachable(psm1,block,(2,4)), reachable(psm1,block,(2,5)), reachable(psm1,block,(2,6)), reachable(psm1,block,(3,1)), reachable(psm1,block,(3,2)), reachable(psm1,block,(3,3)), reachable(psm1,block,(3,4)), reachable(psm1,block,(3,5)), reachable(psm1,block,(3,6)), reachable(psm2,block,(4,1)), reachable(psm2,block,(4,2)), reachable(psm2,block,(4,3)), reachable(psm2,block,(4,4)), reachable(psm2,block,(4,5)), reachable(psm2,block,(4,6)), reachable(psm2,block,(5,1)), reachable(psm2,block,(5,2)), reachable(psm2,block,(5,3)), reachable(psm2,block,(5,4)), reachable(psm2,block,(5,5)), reachable(psm2,block,(5,6)), reachable(psm2,block,(6,1)), reachable(psm2,block,(6,2)), reachable(psm2,block,(6,3)), reachable(psm2,block,(6,4)), reachable(psm2,block,(6,5)), reachable(psm2,block,(6,6)), fixed((1,3)), fixed((3,1)), fixed((3,3)), fixed((2,1)), fixed((4,2)), fixed((1,5)), fixed((2,3)), fixed((1,4)), fixed((4,1)), fixed((2,2)), fixed((3,2)), fixed((2,4)), above_tumor((6,1)), |reach(psm2,block,(6,1),1), grasp(psm2,block,(6,1),2), pull(psm2,block,(6,1),3), 
0.608924150467|reachable(psm1,block,(1,1)), reachable(psm1,block,(1,2)), reachable(psm1,block,(1,3)), reachable(psm1,block,(1,4)), reachable(psm1,block,(1,5)), reachable(psm1,block,(1,6)), reachable(psm1,block,(2,1)), reachable(psm1,block,(2,2)), reachable(psm1,block,(2,3)), reachable(psm1,block,(2,4)), reachable(psm1,block,(2,5)), reachable(psm1,block,(2,6)), reachable(psm1,block,(3,1)), reachable(psm1,block,(3,2)), reachable(psm1,block,(3,3)), reachable(psm1,block,(3,4)), reachable(psm1,block,(3,5)), reachable(psm1,block,(3,6)), reachable(psm2,block,(4,1)), reachable(psm2,block,(4,2)), reachable(psm2,block,(4,3)), reachable(psm2,block,(4,4)), reachable(psm2,block,(4,5)), reachable(psm2,block,(4,6)), reachable(psm2,block,(5,1)), reachable(psm2,block,(5,2)), reachable(psm2,block,(5,3)), reachable(psm2,block,(5,4)), reachable(psm2,block,(5,5)), reachable(psm2,block,(5,6)), reachable(psm2,block,(6,1)), reachable(psm2,block,(6,2)), reachable(psm2,block,(6,3)), reachable(psm2,block,(6,4)), reachable(psm2,block,(6,5)), reachable(psm2,block,(6,6)), fixed((2,2)), fixed((3,6)), fixed((1,6)), fixed((3,4)), fixed((4,5)), fixed((1,2)), fixed((4,2)), fixed((2,5)), fixed((2,3)), fixed((4,3)), fixed((3,5)), fixed((1,1)), above_tumor((6,3)), |reach(psm2,block,(6,6),1), grasp(psm2,block,(6,6),2), pull(psm2,block,(6,6),3), 
0.632076978683|reachable(psm1,block,(1,1)), reachable(psm1,block,(1,2)), reachable(psm1,block,(1,3)), reachable(psm1,block,(1,4)), reachable(psm1,block,(1,5)), reachable(psm1,block,(1,6)), reachable(psm1,block,(2,1)), reachable(psm1,block,(2,2)), reachable(psm1,block,(2,3)), reachable(psm1,block,(2,4)), reachable(psm1,block,(2,5)), reachable(psm1,block,(2,6)), reachable(psm1,block,(3,1)), reachable(psm1,block,(3,2)), reachable(psm1,block,(3,3)), reachable(psm1,block,(3,4)), reachable(psm1,block,(3,5)), reachable(psm1,block,(3,6)), reachable(psm2,block,(4,1)), reachable(psm2,block,(4,2)), reachable(psm2,block,(4,3)), reachable(psm2,block,(4,4)), reachable(psm2,block,(4,5)), reachable(psm2,block,(4,6)), reachable(psm2,block,(5,1)), reachable(psm2,block,(5,2)), reachable(psm2,block,(5,3)), reachable(psm2,block,(5,4)), reachable(psm2,block,(5,5)), reachable(psm2,block,(5,6)), reachable(psm2,block,(6,1)), reachable(psm2,block,(6,2)), reachable(psm2,block,(6,3)), reachable(psm2,block,(6,4)), reachable(psm2,block,(6,5)), reachable(psm2,block,(6,6)), fixed((4,4)), fixed((2,1)), fixed((5,1)), fixed((4,3)), fixed((1,1)), fixed((4,6)), fixed((3,6)), fixed((1,2)), fixed((2,4)), fixed((3,1)), fixed((3,3)), fixed((3,4)), above_tumor((6,2)), |reach(psm2,block,(6,6),1), grasp(psm2,block,(6,6),2), pull(psm2,block,(6,6),3), 
0.637485027313|reachable(psm1,block,(1,1)), reachable(psm1,block,(1,2)), reachable(psm1,block,(1,3)), reachable(psm1,block,(1,4)), reachable(psm1,block,(1,5)), reachable(psm1,block,(1,6)), reachable(psm1,block,(2,1)), reachable(psm1,block,(2,2)), reachable(psm1,block,(2,3)), reachable(psm1,block,(2,4)), reachable(psm1,block,(2,5)), reachable(psm1,block,(2,6)), reachable(psm1,block,(3,1)), reachable(psm1,block,(3,2)), reachable(psm1,block,(3,3)), reachable(psm1,block,(3,4)), reachable(psm1,block,(3,5)), reachable(psm1,block,(3,6)), reachable(psm2,block,(4,1)), reachable(psm2,block,(4,2)), reachable(psm2,block,(4,3)), reachable(psm2,block,(4,4)), reachable(psm2,block,(4,5)), reachable(psm2,block,(4,6)), reachable(psm2,block,(5,1)), reachable(psm2,block,(5,2)), reachable(psm2,block,(5,3)), reachable(psm2,block,(5,4)), reachable(psm2,block,(5,5)), reachable(psm2,block,(5,6)), reachable(psm2,block,(6,1)), reachable(psm2,block,(6,2)), reachable(psm2,block,(6,3)), reachable(psm2,block,(6,4)), reachable(psm2,block,(6,5)), reachable(psm2,block,(6,6)), fixed((1,2)), fixed((5,1)), fixed((2,4)), fixed((1,1)), fixed((2,5)), fixed((4,6)), fixed((4,3)), fixed((4,5)), fixed((3,2)), fixed((1,3)), fixed((4,2)), fixed((1,5)), above_tumor((5,5)), |reach(psm2,block,(6,6),1), grasp(psm2,block,(6,6),2), pull(psm2,block,(6,6),3), 
0.612297058105|reachable(psm1,block,(1,1)), reachable(psm1,block,(1,2)), reachable(psm1,block,(1,3)), reachable(psm1,block,(1,4)), reachable(psm1,block,(1,5)), reachable(psm1,block,(1,6)), reachable(psm1,block,(2,1)), reachable(psm1,block,(2,2)), reachable(psm1,block,(2,3)), reachable(psm1,block,(2,4)), reachable(psm1,block,(2,5)), reachable(psm1,block,(2,6)), reachable(psm1,block,(3,1)), reachable(psm1,block,(3,2)), reachable(psm1,block,(3,3)), reachable(psm1,block,(3,4)), reachable(psm1,block,(3,5)), reachable(psm1,block,(3,6)), reachable(psm2,block,(4,1)), reachable(psm2,block,(4,2)), reachable(psm2,block,(4,3)), reachable(psm2,block,(4,4)), reachable(psm2,block,(4,5)), reachable(psm2,block,(4,6)), reachable(psm2,block,(5,1)), reachable(psm2,block,(5,2)), reachable(psm2,block,(5,3)), reachable(psm2,block,(5,4)), reachable(psm2,block,(5,5)), reachable(psm2,block,(5,6)), reachable(psm2,block,(6,1)), reachable(psm2,block,(6,2)), reachable(psm2,block,(6,3)), reachable(psm2,block,(6,4)), reachable(psm2,block,(6,5)), reachable(psm2,block,(6,6)), fixed((4,5)), fixed((3,5)), fixed((4,4)), fixed((1,5)), fixed((3,3)), fixed((2,1)), fixed((1,6)), fixed((2,2)), fixed((4,1)), fixed((1,3)), fixed((3,2)), fixed((4,2)), above_tumor((5,4)), |reach(psm2,block,(6,1),1), grasp(psm2,block,(6,1),2), pull(psm2,block,(6,1),3), 
0.629780054092|reachable(psm1,block,(1,1)), reachable(psm1,block,(1,2)), reachable(psm1,block,(1,3)), reachable(psm1,block,(1,4)), reachable(psm1,block,(1,5)), reachable(psm1,block,(1,6)), reachable(psm1,block,(2,1)), reachable(psm1,block,(2,2)), reachable(psm1,block,(2,3)), reachable(psm1,block,(2,4)), reachable(psm1,block,(2,5)), reachable(psm1,block,(2,6)), reachable(psm1,block,(3,1)), reachable(psm1,block,(3,2)), reachable(psm1,block,(3,3)), reachable(psm1,block,(3,4)), reachable(psm1,block,(3,5)), reachable(psm1,block,(3,6)), reachable(psm2,block,(4,1)), reachable(psm2,block,(4,2)), reachable(psm2,block,(4,3)), reachable(psm2,block,(4,4)), reachable(psm2,block,(4,5)), reachable(psm2,block,(4,6)), reachable(psm2,block,(5,1)), reachable(psm2,block,(5,2)), reachable(psm2,block,(5,3)), reachable(psm2,block,(5,4)), reachable(psm2,block,(5,5)), reachable(psm2,block,(5,6)), reachable(psm2,block,(6,1)), reachable(psm2,block,(6,2)), reachable(psm2,block,(6,3)), reachable(psm2,block,(6,4)), reachable(psm2,block,(6,5)), reachable(psm2,block,(6,6)), fixed((1,1)), fixed((2,3)), fixed((2,5)), fixed((4,5)), fixed((1,4)), fixed((3,2)), fixed((3,4)), fixed((4,2)), fixed((3,6)), fixed((3,5)), fixed((2,6)), fixed((1,2)), above_tumor((5,3)), |reach(psm2,block,(6,6),1), grasp(psm2,block,(6,6),2), pull(psm2,block,(6,6),3), 
