3.02742099762|reachable(psm1,block,(1,1)), reachable(psm1,block,(1,2)), reachable(psm1,block,(1,3)), reachable(psm1,block,(1,4)), reachable(psm1,block,(1,5)), reachable(psm1,block,(1,6)), reachable(psm1,block,(1,7)), reachable(psm1,block,(1,8)), reachable(psm1,block,(2,1)), reachable(psm1,block,(2,2)), reachable(psm1,block,(2,3)), reachable(psm1,block,(2,4)), reachable(psm1,block,(2,5)), reachable(psm1,block,(2,6)), reachable(psm1,block,(2,7)), reachable(psm1,block,(2,8)), reachable(psm1,block,(3,1)), reachable(psm1,block,(3,2)), reachable(psm1,block,(3,3)), reachable(psm1,block,(3,4)), reachable(psm1,block,(3,5)), reachable(psm1,block,(3,6)), reachable(psm1,block,(3,7)), reachable(psm1,block,(3,8)), reachable(psm1,block,(4,1)), reachable(psm1,block,(4,2)), reachable(psm1,block,(4,3)), reachable(psm1,block,(4,4)), reachable(psm1,block,(4,5)), reachable(psm1,block,(4,6)), reachable(psm1,block,(4,7)), reachable(psm1,block,(4,8)), reachable(psm2,block,(5,1)), reachable(psm2,block,(5,2)), reachable(psm2,block,(5,3)), reachable(psm2,block,(5,4)), reachable(psm2,block,(5,5)), reachable(psm2,block,(5,6)), reachable(psm2,block,(5,7)), reachable(psm2,block,(5,8)), reachable(psm2,block,(6,1)), reachable(psm2,block,(6,2)), reachable(psm2,block,(6,3)), reachable(psm2,block,(6,4)), reachable(psm2,block,(6,5)), reachable(psm2,block,(6,6)), reachable(psm2,block,(6,7)), reachable(psm2,block,(6,8)), reachable(psm2,block,(7,1)), reachable(psm2,block,(7,2)), reachable(psm2,block,(7,3)), reachable(psm2,block,(7,4)), reachable(psm2,block,(7,5)), reachable(psm2,block,(7,6)), reachable(psm2,block,(7,7)), reachable(psm2,block,(7,8)), reachable(psm2,block,(8,1)), reachable(psm2,block,(8,2)), reachable(psm2,block,(8,3)), reachable(psm2,block,(8,4)), reachable(psm2,block,(8,5)), reachable(psm2,block,(8,6)), reachable(psm2,block,(8,7)), reachable(psm2,block,(8,8)), fixed((2,8)), fixed((3,3)), fixed((5,4)), fixed((4,8)), above_tumor((8,6)), |reach(psm2,block,(8,1),1), grasp(psm2,block,(8,1),2), pull(psm2,block,(8,1),3), 
3.06768417358|reachable(psm1,block,(1,1)), reachable(psm1,block,(1,2)), reachable(psm1,block,(1,3)), reachable(psm1,block,(1,4)), reachable(psm1,block,(1,5)), reachable(psm1,block,(1,6)), reachable(psm1,block,(1,7)), reachable(psm1,block,(1,8)), reachable(psm1,block,(2,1)), reachable(psm1,block,(2,2)), reachable(psm1,block,(2,3)), reachable(psm1,block,(2,4)), reachable(psm1,block,(2,5)), reachable(psm1,block,(2,6)), reachable(psm1,block,(2,7)), reachable(psm1,block,(2,8)), reachable(psm1,block,(3,1)), reachable(psm1,block,(3,2)), reachable(psm1,block,(3,3)), reachable(psm1,block,(3,4)), reachable(psm1,block,(3,5)), reachable(psm1,block,(3,6)), reachable(psm1,block,(3,7)), reachable(psm1,block,(3,8)), reachable(psm1,block,(4,1)), reachable(psm1,block,(4,2)), reachable(psm1,block,(4,3)), reachable(psm1,block,(4,4)), reachable(psm1,block,(4,5)), reachable(psm1,block,(4,6)), reachable(psm1,block,(4,7)), reachable(psm1,block,(4,8)), reachable(psm2,block,(5,1)), reachable(psm2,block,(5,2)), reachable(psm2,block,(5,3)), reachable(psm2,block,(5,4)), reachable(psm2,block,(5,5)), reachable(psm2,block,(5,6)), reachable(psm2,block,(5,7)), reachable(psm2,block,(5,8)), reachable(psm2,block,(6,1)), reachable(psm2,block,(6,2)), reachable(psm2,block,(6,3)), reachable(psm2,block,(6,4)), reachable(psm2,block,(6,5)), reachable(psm2,block,(6,6)), reachable(psm2,block,(6,7)), reachable(psm2,block,(6,8)), reachable(psm2,block,(7,1)), reachable(psm2,block,(7,2)), reachable(psm2,block,(7,3)), reachable(psm2,block,(7,4)), reachable(psm2,block,(7,5)), reachable(psm2,block,(7,6)), reachable(psm2,block,(7,7)), reachable(psm2,block,(7,8)), reachable(psm2,block,(8,1)), reachable(psm2,block,(8,2)), reachable(psm2,block,(8,3)), reachable(psm2,block,(8,4)), reachable(psm2,block,(8,5)), reachable(psm2,block,(8,6)), reachable(psm2,block,(8,7)), reachable(psm2,block,(8,8)), fixed((3,1)), fixed((6,2)), fixed((3,3)), fixed((1,2)), above_tumor((8,8)), |reach(psm2,block,(8,8),1), grasp(psm2,block,(8,8),2), pull(psm2,block,(8,8),3), 
3.08347201347|reachable(psm1,block,(1,1)), reachable(psm1,block,(1,2)), reachable(psm1,block,(1,3)), reachable(psm1,block,(1,4)), reachable(psm1,block,(1,5)), reachable(psm1,block,(1,6)), reachable(psm1,block,(1,7)), reachable(psm1,block,(1,8)), reachable(psm1,block,(2,1)), reachable(psm1,block,(2,2)), reachable(psm1,block,(2,3)), reachable(psm1,block,(2,4)), reachable(psm1,block,(2,5)), reachable(psm1,block,(2,6)), reachable(psm1,block,(2,7)), reachable(psm1,block,(2,8)), reachable(psm1,block,(3,1)), reachable(psm1,block,(3,2)), reachable(psm1,block,(3,3)), reachable(psm1,block,(3,4)), reachable(psm1,block,(3,5)), reachable(psm1,block,(3,6)), reachable(psm1,block,(3,7)), reachable(psm1,block,(3,8)), reachable(psm1,block,(4,1)), reachable(psm1,block,(4,2)), reachable(psm1,block,(4,3)), reachable(psm1,block,(4,4)), reachable(psm1,block,(4,5)), reachable(psm1,block,(4,6)), reachable(psm1,block,(4,7)), reachable(psm1,block,(4,8)), reachable(psm2,block,(5,1)), reachable(psm2,block,(5,2)), reachable(psm2,block,(5,3)), reachable(psm2,block,(5,4)), reachable(psm2,block,(5,5)), reachable(psm2,block,(5,6)), reachable(psm2,block,(5,7)), reachable(psm2,block,(5,8)), reachable(psm2,block,(6,1)), reachable(psm2,block,(6,2)), reachable(psm2,block,(6,3)), reachable(psm2,block,(6,4)), reachable(psm2,block,(6,5)), reachable(psm2,block,(6,6)), reachable(psm2,block,(6,7)), reachable(psm2,block,(6,8)), reachable(psm2,block,(7,1)), reachable(psm2,block,(7,2)), reachable(psm2,block,(7,3)), reachable(psm2,block,(7,4)), reachable(psm2,block,(7,5)), reachable(psm2,block,(7,6)), reachable(psm2,block,(7,7)), reachable(psm2,block,(7,8)), reachable(psm2,block,(8,1)), reachable(psm2,block,(8,2)), reachable(psm2,block,(8,3)), reachable(psm2,block,(8,4)), reachable(psm2,block,(8,5)), reachable(psm2,block,(8,6)), reachable(psm2,block,(8,7)), reachable(psm2,block,(8,8)), fixed((6,8)), fixed((1,4)), fixed((1,7)), fixed((2,7)), above_tumor((7,8)), |reach(psm2,block,(8,1),1), grasp(psm2,block,(8,1),2), pull(psm2,block,(8,1),3), 
3.07369089127|reachable(psm1,block,(1,1)), reachable(psm1,block,(1,2)), reachable(psm1,block,(1,3)), reachable(psm1,block,(1,4)), reachable(psm1,block,(1,5)), reachable(psm1,block,(1,6)), reachable(psm1,block,(1,7)), reachable(psm1,block,(1,8)), reachable(psm1,block,(2,1)), reachable(psm1,block,(2,2)), reachable(psm1,block,(2,3)), reachable(psm1,block,(2,4)), reachable(psm1,block,(2,5)), reachable(psm1,block,(2,6)), reachable(psm1,block,(2,7)), reachable(psm1,block,(2,8)), reachable(psm1,block,(3,1)), reachable(psm1,block,(3,2)), reachable(psm1,block,(3,3)), reachable(psm1,block,(3,4)), reachable(psm1,block,(3,5)), reachable(psm1,block,(3,6)), reachable(psm1,block,(3,7)), reachable(psm1,block,(3,8)), reachable(psm1,block,(4,1)), reachable(psm1,block,(4,2)), reachable(psm1,block,(4,3)), reachable(psm1,block,(4,4)), reachable(psm1,block,(4,5)), reachable(psm1,block,(4,6)), reachable(psm1,block,(4,7)), reachable(psm1,block,(4,8)), reachable(psm2,block,(5,1)), reachable(psm2,block,(5,2)), reachable(psm2,block,(5,3)), reachable(psm2,block,(5,4)), reachable(psm2,block,(5,5)), reachable(psm2,block,(5,6)), reachable(psm2,block,(5,7)), reachable(psm2,block,(5,8)), reachable(psm2,block,(6,1)), reachable(psm2,block,(6,2)), reachable(psm2,block,(6,3)), reachable(psm2,block,(6,4)), reachable(psm2,block,(6,5)), reachable(psm2,block,(6,6)), reachable(psm2,block,(6,7)), reachable(psm2,block,(6,8)), reachable(psm2,block,(7,1)), reachable(psm2,block,(7,2)), reachable(psm2,block,(7,3)), reachable(psm2,block,(7,4)), reachable(psm2,block,(7,5)), reachable(psm2,block,(7,6)), reachable(psm2,block,(7,7)), reachable(psm2,block,(7,8)), reachable(psm2,block,(8,1)), reachable(psm2,block,(8,2)), reachable(psm2,block,(8,3)), reachable(psm2,block,(8,4)), reachable(psm2,block,(8,5)), reachable(psm2,block,(8,6)), reachable(psm2,block,(8,7)), reachable(psm2,block,(8,8)), fixed((5,8)), fixed((2,8)), fixed((6,7)), fixed((1,3)), above_tumor((8,2)), |reach(psm2,block,(8,1),1), grasp(psm2,block,(8,1),2), pull(psm2,block,(8,1),3), 
3.04541802406|reachable(psm1,block,(1,1)), reachable(psm1,block,(1,2)), reachable(psm1,block,(1,3)), reachable(psm1,block,(1,4)), reachable(psm1,block,(1,5)), reachable(psm1,block,(1,6)), reachable(psm1,block,(1,7)), reachable(psm1,block,(1,8)), reachable(psm1,block,(2,1)), reachable(psm1,block,(2,2)), reachable(psm1,block,(2,3)), reachable(psm1,block,(2,4)), reachable(psm1,block,(2,5)), reachable(psm1,block,(2,6)), reachable(psm1,block,(2,7)), reachable(psm1,block,(2,8)), reachable(psm1,block,(3,1)), reachable(psm1,block,(3,2)), reachable(psm1,block,(3,3)), reachable(psm1,block,(3,4)), reachable(psm1,block,(3,5)), reachable(psm1,block,(3,6)), reachable(psm1,block,(3,7)), reachable(psm1,block,(3,8)), reachable(psm1,block,(4,1)), reachable(psm1,block,(4,2)), reachable(psm1,block,(4,3)), reachable(psm1,block,(4,4)), reachable(psm1,block,(4,5)), reachable(psm1,block,(4,6)), reachable(psm1,block,(4,7)), reachable(psm1,block,(4,8)), reachable(psm2,block,(5,1)), reachable(psm2,block,(5,2)), reachable(psm2,block,(5,3)), reachable(psm2,block,(5,4)), reachable(psm2,block,(5,5)), reachable(psm2,block,(5,6)), reachable(psm2,block,(5,7)), reachable(psm2,block,(5,8)), reachable(psm2,block,(6,1)), reachable(psm2,block,(6,2)), reachable(psm2,block,(6,3)), reachable(psm2,block,(6,4)), reachable(psm2,block,(6,5)), reachable(psm2,block,(6,6)), reachable(psm2,block,(6,7)), reachable(psm2,block,(6,8)), reachable(psm2,block,(7,1)), reachable(psm2,block,(7,2)), reachable(psm2,block,(7,3)), reachable(psm2,block,(7,4)), reachable(psm2,block,(7,5)), reachable(psm2,block,(7,6)), reachable(psm2,block,(7,7)), reachable(psm2,block,(7,8)), reachable(psm2,block,(8,1)), reachable(psm2,block,(8,2)), reachable(psm2,block,(8,3)), reachable(psm2,block,(8,4)), reachable(psm2,block,(8,5)), reachable(psm2,block,(8,6)), reachable(psm2,block,(8,7)), reachable(psm2,block,(8,8)), fixed((4,4)), fixed((6,3)), fixed((4,8)), fixed((5,5)), above_tumor((7,4)), |reach(psm1,block,(1,1),1), grasp(psm1,block,(1,1),2), pull(psm1,block,(1,1),3), 
3.08325004578|reachable(psm1,block,(1,1)), reachable(psm1,block,(1,2)), reachable(psm1,block,(1,3)), reachable(psm1,block,(1,4)), reachable(psm1,block,(1,5)), reachable(psm1,block,(1,6)), reachable(psm1,block,(1,7)), reachable(psm1,block,(1,8)), reachable(psm1,block,(2,1)), reachable(psm1,block,(2,2)), reachable(psm1,block,(2,3)), reachable(psm1,block,(2,4)), reachable(psm1,block,(2,5)), reachable(psm1,block,(2,6)), reachable(psm1,block,(2,7)), reachable(psm1,block,(2,8)), reachable(psm1,block,(3,1)), reachable(psm1,block,(3,2)), reachable(psm1,block,(3,3)), reachable(psm1,block,(3,4)), reachable(psm1,block,(3,5)), reachable(psm1,block,(3,6)), reachable(psm1,block,(3,7)), reachable(psm1,block,(3,8)), reachable(psm1,block,(4,1)), reachable(psm1,block,(4,2)), reachable(psm1,block,(4,3)), reachable(psm1,block,(4,4)), reachable(psm1,block,(4,5)), reachable(psm1,block,(4,6)), reachable(psm1,block,(4,7)), reachable(psm1,block,(4,8)), reachable(psm2,block,(5,1)), reachable(psm2,block,(5,2)), reachable(psm2,block,(5,3)), reachable(psm2,block,(5,4)), reachable(psm2,block,(5,5)), reachable(psm2,block,(5,6)), reachable(psm2,block,(5,7)), reachable(psm2,block,(5,8)), reachable(psm2,block,(6,1)), reachable(psm2,block,(6,2)), reachable(psm2,block,(6,3)), reachable(psm2,block,(6,4)), reachable(psm2,block,(6,5)), reachable(psm2,block,(6,6)), reachable(psm2,block,(6,7)), reachable(psm2,block,(6,8)), reachable(psm2,block,(7,1)), reachable(psm2,block,(7,2)), reachable(psm2,block,(7,3)), reachable(psm2,block,(7,4)), reachable(psm2,block,(7,5)), reachable(psm2,block,(7,6)), reachable(psm2,block,(7,7)), reachable(psm2,block,(7,8)), reachable(psm2,block,(8,1)), reachable(psm2,block,(8,2)), reachable(psm2,block,(8,3)), reachable(psm2,block,(8,4)), reachable(psm2,block,(8,5)), reachable(psm2,block,(8,6)), reachable(psm2,block,(8,7)), reachable(psm2,block,(8,8)), fixed((2,2)), fixed((4,6)), fixed((2,4)), fixed((1,7)), above_tumor((7,5)), |reach(psm2,block,(8,8),1), grasp(psm2,block,(8,8),2), pull(psm2,block,(8,8),3), 
3.07739186287|reachable(psm1,block,(1,1)), reachable(psm1,block,(1,2)), reachable(psm1,block,(1,3)), reachable(psm1,block,(1,4)), reachable(psm1,block,(1,5)), reachable(psm1,block,(1,6)), reachable(psm1,block,(1,7)), reachable(psm1,block,(1,8)), reachable(psm1,block,(2,1)), reachable(psm1,block,(2,2)), reachable(psm1,block,(2,3)), reachable(psm1,block,(2,4)), reachable(psm1,block,(2,5)), reachable(psm1,block,(2,6)), reachable(psm1,block,(2,7)), reachable(psm1,block,(2,8)), reachable(psm1,block,(3,1)), reachable(psm1,block,(3,2)), reachable(psm1,block,(3,3)), reachable(psm1,block,(3,4)), reachable(psm1,block,(3,5)), reachable(psm1,block,(3,6)), reachable(psm1,block,(3,7)), reachable(psm1,block,(3,8)), reachable(psm1,block,(4,1)), reachable(psm1,block,(4,2)), reachable(psm1,block,(4,3)), reachable(psm1,block,(4,4)), reachable(psm1,block,(4,5)), reachable(psm1,block,(4,6)), reachable(psm1,block,(4,7)), reachable(psm1,block,(4,8)), reachable(psm2,block,(5,1)), reachable(psm2,block,(5,2)), reachable(psm2,block,(5,3)), reachable(psm2,block,(5,4)), reachable(psm2,block,(5,5)), reachable(psm2,block,(5,6)), reachable(psm2,block,(5,7)), reachable(psm2,block,(5,8)), reachable(psm2,block,(6,1)), reachable(psm2,block,(6,2)), reachable(psm2,block,(6,3)), reachable(psm2,block,(6,4)), reachable(psm2,block,(6,5)), reachable(psm2,block,(6,6)), reachable(psm2,block,(6,7)), reachable(psm2,block,(6,8)), reachable(psm2,block,(7,1)), reachable(psm2,block,(7,2)), reachable(psm2,block,(7,3)), reachable(psm2,block,(7,4)), reachable(psm2,block,(7,5)), reachable(psm2,block,(7,6)), reachable(psm2,block,(7,7)), reachable(psm2,block,(7,8)), reachable(psm2,block,(8,1)), reachable(psm2,block,(8,2)), reachable(psm2,block,(8,3)), reachable(psm2,block,(8,4)), reachable(psm2,block,(8,5)), reachable(psm2,block,(8,6)), reachable(psm2,block,(8,7)), reachable(psm2,block,(8,8)), fixed((6,1)), fixed((6,6)), fixed((3,5)), fixed((4,7)), above_tumor((8,3)), |reach(psm2,block,(8,1),1), grasp(psm2,block,(8,1),2), pull(psm2,block,(8,1),3), 
3.06162500381|reachable(psm1,block,(1,1)), reachable(psm1,block,(1,2)), reachable(psm1,block,(1,3)), reachable(psm1,block,(1,4)), reachable(psm1,block,(1,5)), reachable(psm1,block,(1,6)), reachable(psm1,block,(1,7)), reachable(psm1,block,(1,8)), reachable(psm1,block,(2,1)), reachable(psm1,block,(2,2)), reachable(psm1,block,(2,3)), reachable(psm1,block,(2,4)), reachable(psm1,block,(2,5)), reachable(psm1,block,(2,6)), reachable(psm1,block,(2,7)), reachable(psm1,block,(2,8)), reachable(psm1,block,(3,1)), reachable(psm1,block,(3,2)), reachable(psm1,block,(3,3)), reachable(psm1,block,(3,4)), reachable(psm1,block,(3,5)), reachable(psm1,block,(3,6)), reachable(psm1,block,(3,7)), reachable(psm1,block,(3,8)), reachable(psm1,block,(4,1)), reachable(psm1,block,(4,2)), reachable(psm1,block,(4,3)), reachable(psm1,block,(4,4)), reachable(psm1,block,(4,5)), reachable(psm1,block,(4,6)), reachable(psm1,block,(4,7)), reachable(psm1,block,(4,8)), reachable(psm2,block,(5,1)), reachable(psm2,block,(5,2)), reachable(psm2,block,(5,3)), reachable(psm2,block,(5,4)), reachable(psm2,block,(5,5)), reachable(psm2,block,(5,6)), reachable(psm2,block,(5,7)), reachable(psm2,block,(5,8)), reachable(psm2,block,(6,1)), reachable(psm2,block,(6,2)), reachable(psm2,block,(6,3)), reachable(psm2,block,(6,4)), reachable(psm2,block,(6,5)), reachable(psm2,block,(6,6)), reachable(psm2,block,(6,7)), reachable(psm2,block,(6,8)), reachable(psm2,block,(7,1)), reachable(psm2,block,(7,2)), reachable(psm2,block,(7,3)), reachable(psm2,block,(7,4)), reachable(psm2,block,(7,5)), reachable(psm2,block,(7,6)), reachable(psm2,block,(7,7)), reachable(psm2,block,(7,8)), reachable(psm2,block,(8,1)), reachable(psm2,block,(8,2)), reachable(psm2,block,(8,3)), reachable(psm2,block,(8,4)), reachable(psm2,block,(8,5)), reachable(psm2,block,(8,6)), reachable(psm2,block,(8,7)), reachable(psm2,block,(8,8)), fixed((1,8)), fixed((6,3)), fixed((5,1)), fixed((2,6)), above_tumor((7,7)), |reach(psm2,block,(8,7),1), grasp(psm2,block,(8,7),2), pull(psm2,block,(8,7),3), 
3.15817785263|reachable(psm1,block,(1,1)), reachable(psm1,block,(1,2)), reachable(psm1,block,(1,3)), reachable(psm1,block,(1,4)), reachable(psm1,block,(1,5)), reachable(psm1,block,(1,6)), reachable(psm1,block,(1,7)), reachable(psm1,block,(1,8)), reachable(psm1,block,(2,1)), reachable(psm1,block,(2,2)), reachable(psm1,block,(2,3)), reachable(psm1,block,(2,4)), reachable(psm1,block,(2,5)), reachable(psm1,block,(2,6)), reachable(psm1,block,(2,7)), reachable(psm1,block,(2,8)), reachable(psm1,block,(3,1)), reachable(psm1,block,(3,2)), reachable(psm1,block,(3,3)), reachable(psm1,block,(3,4)), reachable(psm1,block,(3,5)), reachable(psm1,block,(3,6)), reachable(psm1,block,(3,7)), reachable(psm1,block,(3,8)), reachable(psm1,block,(4,1)), reachable(psm1,block,(4,2)), reachable(psm1,block,(4,3)), reachable(psm1,block,(4,4)), reachable(psm1,block,(4,5)), reachable(psm1,block,(4,6)), reachable(psm1,block,(4,7)), reachable(psm1,block,(4,8)), reachable(psm2,block,(5,1)), reachable(psm2,block,(5,2)), reachable(psm2,block,(5,3)), reachable(psm2,block,(5,4)), reachable(psm2,block,(5,5)), reachable(psm2,block,(5,6)), reachable(psm2,block,(5,7)), reachable(psm2,block,(5,8)), reachable(psm2,block,(6,1)), reachable(psm2,block,(6,2)), reachable(psm2,block,(6,3)), reachable(psm2,block,(6,4)), reachable(psm2,block,(6,5)), reachable(psm2,block,(6,6)), reachable(psm2,block,(6,7)), reachable(psm2,block,(6,8)), reachable(psm2,block,(7,1)), reachable(psm2,block,(7,2)), reachable(psm2,block,(7,3)), reachable(psm2,block,(7,4)), reachable(psm2,block,(7,5)), reachable(psm2,block,(7,6)), reachable(psm2,block,(7,7)), reachable(psm2,block,(7,8)), reachable(psm2,block,(8,1)), reachable(psm2,block,(8,2)), reachable(psm2,block,(8,3)), reachable(psm2,block,(8,4)), reachable(psm2,block,(8,5)), reachable(psm2,block,(8,6)), reachable(psm2,block,(8,7)), reachable(psm2,block,(8,8)), fixed((1,5)), fixed((4,5)), fixed((3,3)), fixed((5,3)), above_tumor((8,1)), |reach(psm2,block,(8,1),1), grasp(psm2,block,(8,1),2), pull(psm2,block,(8,1),3), 
2.99625015259|reachable(psm1,block,(1,1)), reachable(psm1,block,(1,2)), reachable(psm1,block,(1,3)), reachable(psm1,block,(1,4)), reachable(psm1,block,(1,5)), reachable(psm1,block,(1,6)), reachable(psm1,block,(1,7)), reachable(psm1,block,(1,8)), reachable(psm1,block,(2,1)), reachable(psm1,block,(2,2)), reachable(psm1,block,(2,3)), reachable(psm1,block,(2,4)), reachable(psm1,block,(2,5)), reachable(psm1,block,(2,6)), reachable(psm1,block,(2,7)), reachable(psm1,block,(2,8)), reachable(psm1,block,(3,1)), reachable(psm1,block,(3,2)), reachable(psm1,block,(3,3)), reachable(psm1,block,(3,4)), reachable(psm1,block,(3,5)), reachable(psm1,block,(3,6)), reachable(psm1,block,(3,7)), reachable(psm1,block,(3,8)), reachable(psm1,block,(4,1)), reachable(psm1,block,(4,2)), reachable(psm1,block,(4,3)), reachable(psm1,block,(4,4)), reachable(psm1,block,(4,5)), reachable(psm1,block,(4,6)), reachable(psm1,block,(4,7)), reachable(psm1,block,(4,8)), reachable(psm2,block,(5,1)), reachable(psm2,block,(5,2)), reachable(psm2,block,(5,3)), reachable(psm2,block,(5,4)), reachable(psm2,block,(5,5)), reachable(psm2,block,(5,6)), reachable(psm2,block,(5,7)), reachable(psm2,block,(5,8)), reachable(psm2,block,(6,1)), reachable(psm2,block,(6,2)), reachable(psm2,block,(6,3)), reachable(psm2,block,(6,4)), reachable(psm2,block,(6,5)), reachable(psm2,block,(6,6)), reachable(psm2,block,(6,7)), reachable(psm2,block,(6,8)), reachable(psm2,block,(7,1)), reachable(psm2,block,(7,2)), reachable(psm2,block,(7,3)), reachable(psm2,block,(7,4)), reachable(psm2,block,(7,5)), reachable(psm2,block,(7,6)), reachable(psm2,block,(7,7)), reachable(psm2,block,(7,8)), reachable(psm2,block,(8,1)), reachable(psm2,block,(8,2)), reachable(psm2,block,(8,3)), reachable(psm2,block,(8,4)), reachable(psm2,block,(8,5)), reachable(psm2,block,(8,6)), reachable(psm2,block,(8,7)), reachable(psm2,block,(8,8)), fixed((2,7)), fixed((3,5)), fixed((2,1)), fixed((4,2)), above_tumor((8,2)), |reach(psm2,block,(8,8),1), grasp(psm2,block,(8,8),2), pull(psm2,block,(8,8),3), 
3.00952792168|reachable(psm1,block,(1,1)), reachable(psm1,block,(1,2)), reachable(psm1,block,(1,3)), reachable(psm1,block,(1,4)), reachable(psm1,block,(1,5)), reachable(psm1,block,(1,6)), reachable(psm1,block,(1,7)), reachable(psm1,block,(1,8)), reachable(psm1,block,(2,1)), reachable(psm1,block,(2,2)), reachable(psm1,block,(2,3)), reachable(psm1,block,(2,4)), reachable(psm1,block,(2,5)), reachable(psm1,block,(2,6)), reachable(psm1,block,(2,7)), reachable(psm1,block,(2,8)), reachable(psm1,block,(3,1)), reachable(psm1,block,(3,2)), reachable(psm1,block,(3,3)), reachable(psm1,block,(3,4)), reachable(psm1,block,(3,5)), reachable(psm1,block,(3,6)), reachable(psm1,block,(3,7)), reachable(psm1,block,(3,8)), reachable(psm1,block,(4,1)), reachable(psm1,block,(4,2)), reachable(psm1,block,(4,3)), reachable(psm1,block,(4,4)), reachable(psm1,block,(4,5)), reachable(psm1,block,(4,6)), reachable(psm1,block,(4,7)), reachable(psm1,block,(4,8)), reachable(psm2,block,(5,1)), reachable(psm2,block,(5,2)), reachable(psm2,block,(5,3)), reachable(psm2,block,(5,4)), reachable(psm2,block,(5,5)), reachable(psm2,block,(5,6)), reachable(psm2,block,(5,7)), reachable(psm2,block,(5,8)), reachable(psm2,block,(6,1)), reachable(psm2,block,(6,2)), reachable(psm2,block,(6,3)), reachable(psm2,block,(6,4)), reachable(psm2,block,(6,5)), reachable(psm2,block,(6,6)), reachable(psm2,block,(6,7)), reachable(psm2,block,(6,8)), reachable(psm2,block,(7,1)), reachable(psm2,block,(7,2)), reachable(psm2,block,(7,3)), reachable(psm2,block,(7,4)), reachable(psm2,block,(7,5)), reachable(psm2,block,(7,6)), reachable(psm2,block,(7,7)), reachable(psm2,block,(7,8)), reachable(psm2,block,(8,1)), reachable(psm2,block,(8,2)), reachable(psm2,block,(8,3)), reachable(psm2,block,(8,4)), reachable(psm2,block,(8,5)), reachable(psm2,block,(8,6)), reachable(psm2,block,(8,7)), reachable(psm2,block,(8,8)), fixed((5,3)), fixed((5,6)), fixed((3,5)), fixed((5,2)), above_tumor((7,6)), |reach(psm1,block,(1,8),1), grasp(psm1,block,(1,8),2), pull(psm1,block,(1,8),3), 
3.02922511101|reachable(psm1,block,(1,1)), reachable(psm1,block,(1,2)), reachable(psm1,block,(1,3)), reachable(psm1,block,(1,4)), reachable(psm1,block,(1,5)), reachable(psm1,block,(1,6)), reachable(psm1,block,(1,7)), reachable(psm1,block,(1,8)), reachable(psm1,block,(2,1)), reachable(psm1,block,(2,2)), reachable(psm1,block,(2,3)), reachable(psm1,block,(2,4)), reachable(psm1,block,(2,5)), reachable(psm1,block,(2,6)), reachable(psm1,block,(2,7)), reachable(psm1,block,(2,8)), reachable(psm1,block,(3,1)), reachable(psm1,block,(3,2)), reachable(psm1,block,(3,3)), reachable(psm1,block,(3,4)), reachable(psm1,block,(3,5)), reachable(psm1,block,(3,6)), reachable(psm1,block,(3,7)), reachable(psm1,block,(3,8)), reachable(psm1,block,(4,1)), reachable(psm1,block,(4,2)), reachable(psm1,block,(4,3)), reachable(psm1,block,(4,4)), reachable(psm1,block,(4,5)), reachable(psm1,block,(4,6)), reachable(psm1,block,(4,7)), reachable(psm1,block,(4,8)), reachable(psm2,block,(5,1)), reachable(psm2,block,(5,2)), reachable(psm2,block,(5,3)), reachable(psm2,block,(5,4)), reachable(psm2,block,(5,5)), reachable(psm2,block,(5,6)), reachable(psm2,block,(5,7)), reachable(psm2,block,(5,8)), reachable(psm2,block,(6,1)), reachable(psm2,block,(6,2)), reachable(psm2,block,(6,3)), reachable(psm2,block,(6,4)), reachable(psm2,block,(6,5)), reachable(psm2,block,(6,6)), reachable(psm2,block,(6,7)), reachable(psm2,block,(6,8)), reachable(psm2,block,(7,1)), reachable(psm2,block,(7,2)), reachable(psm2,block,(7,3)), reachable(psm2,block,(7,4)), reachable(psm2,block,(7,5)), reachable(psm2,block,(7,6)), reachable(psm2,block,(7,7)), reachable(psm2,block,(7,8)), reachable(psm2,block,(8,1)), reachable(psm2,block,(8,2)), reachable(psm2,block,(8,3)), reachable(psm2,block,(8,4)), reachable(psm2,block,(8,5)), reachable(psm2,block,(8,6)), reachable(psm2,block,(8,7)), reachable(psm2,block,(8,8)), fixed((1,5)), fixed((3,8)), fixed((4,7)), fixed((4,6)), above_tumor((8,3)), |reach(psm2,block,(8,1),1), grasp(psm2,block,(8,1),2), pull(psm2,block,(8,1),3), 
3.00188803673|reachable(psm1,block,(1,1)), reachable(psm1,block,(1,2)), reachable(psm1,block,(1,3)), reachable(psm1,block,(1,4)), reachable(psm1,block,(1,5)), reachable(psm1,block,(1,6)), reachable(psm1,block,(1,7)), reachable(psm1,block,(1,8)), reachable(psm1,block,(2,1)), reachable(psm1,block,(2,2)), reachable(psm1,block,(2,3)), reachable(psm1,block,(2,4)), reachable(psm1,block,(2,5)), reachable(psm1,block,(2,6)), reachable(psm1,block,(2,7)), reachable(psm1,block,(2,8)), reachable(psm1,block,(3,1)), reachable(psm1,block,(3,2)), reachable(psm1,block,(3,3)), reachable(psm1,block,(3,4)), reachable(psm1,block,(3,5)), reachable(psm1,block,(3,6)), reachable(psm1,block,(3,7)), reachable(psm1,block,(3,8)), reachable(psm1,block,(4,1)), reachable(psm1,block,(4,2)), reachable(psm1,block,(4,3)), reachable(psm1,block,(4,4)), reachable(psm1,block,(4,5)), reachable(psm1,block,(4,6)), reachable(psm1,block,(4,7)), reachable(psm1,block,(4,8)), reachable(psm2,block,(5,1)), reachable(psm2,block,(5,2)), reachable(psm2,block,(5,3)), reachable(psm2,block,(5,4)), reachable(psm2,block,(5,5)), reachable(psm2,block,(5,6)), reachable(psm2,block,(5,7)), reachable(psm2,block,(5,8)), reachable(psm2,block,(6,1)), reachable(psm2,block,(6,2)), reachable(psm2,block,(6,3)), reachable(psm2,block,(6,4)), reachable(psm2,block,(6,5)), reachable(psm2,block,(6,6)), reachable(psm2,block,(6,7)), reachable(psm2,block,(6,8)), reachable(psm2,block,(7,1)), reachable(psm2,block,(7,2)), reachable(psm2,block,(7,3)), reachable(psm2,block,(7,4)), reachable(psm2,block,(7,5)), reachable(psm2,block,(7,6)), reachable(psm2,block,(7,7)), reachable(psm2,block,(7,8)), reachable(psm2,block,(8,1)), reachable(psm2,block,(8,2)), reachable(psm2,block,(8,3)), reachable(psm2,block,(8,4)), reachable(psm2,block,(8,5)), reachable(psm2,block,(8,6)), reachable(psm2,block,(8,7)), reachable(psm2,block,(8,8)), fixed((1,5)), fixed((3,1)), fixed((2,7)), fixed((3,8)), above_tumor((7,4)), |reach(psm2,block,(8,8),1), grasp(psm2,block,(8,8),2), pull(psm2,block,(8,8),3), 
3.02484893799|reachable(psm1,block,(1,1)), reachable(psm1,block,(1,2)), reachable(psm1,block,(1,3)), reachable(psm1,block,(1,4)), reachable(psm1,block,(1,5)), reachable(psm1,block,(1,6)), reachable(psm1,block,(1,7)), reachable(psm1,block,(1,8)), reachable(psm1,block,(2,1)), reachable(psm1,block,(2,2)), reachable(psm1,block,(2,3)), reachable(psm1,block,(2,4)), reachable(psm1,block,(2,5)), reachable(psm1,block,(2,6)), reachable(psm1,block,(2,7)), reachable(psm1,block,(2,8)), reachable(psm1,block,(3,1)), reachable(psm1,block,(3,2)), reachable(psm1,block,(3,3)), reachable(psm1,block,(3,4)), reachable(psm1,block,(3,5)), reachable(psm1,block,(3,6)), reachable(psm1,block,(3,7)), reachable(psm1,block,(3,8)), reachable(psm1,block,(4,1)), reachable(psm1,block,(4,2)), reachable(psm1,block,(4,3)), reachable(psm1,block,(4,4)), reachable(psm1,block,(4,5)), reachable(psm1,block,(4,6)), reachable(psm1,block,(4,7)), reachable(psm1,block,(4,8)), reachable(psm2,block,(5,1)), reachable(psm2,block,(5,2)), reachable(psm2,block,(5,3)), reachable(psm2,block,(5,4)), reachable(psm2,block,(5,5)), reachable(psm2,block,(5,6)), reachable(psm2,block,(5,7)), reachable(psm2,block,(5,8)), reachable(psm2,block,(6,1)), reachable(psm2,block,(6,2)), reachable(psm2,block,(6,3)), reachable(psm2,block,(6,4)), reachable(psm2,block,(6,5)), reachable(psm2,block,(6,6)), reachable(psm2,block,(6,7)), reachable(psm2,block,(6,8)), reachable(psm2,block,(7,1)), reachable(psm2,block,(7,2)), reachable(psm2,block,(7,3)), reachable(psm2,block,(7,4)), reachable(psm2,block,(7,5)), reachable(psm2,block,(7,6)), reachable(psm2,block,(7,7)), reachable(psm2,block,(7,8)), reachable(psm2,block,(8,1)), reachable(psm2,block,(8,2)), reachable(psm2,block,(8,3)), reachable(psm2,block,(8,4)), reachable(psm2,block,(8,5)), reachable(psm2,block,(8,6)), reachable(psm2,block,(8,7)), reachable(psm2,block,(8,8)), fixed((6,7)), fixed((4,3)), fixed((5,5)), fixed((3,8)), above_tumor((8,5)), |reach(psm2,block,(8,1),1), grasp(psm2,block,(8,1),2), pull(psm2,block,(8,1),3), 
3.01526594162|reachable(psm1,block,(1,1)), reachable(psm1,block,(1,2)), reachable(psm1,block,(1,3)), reachable(psm1,block,(1,4)), reachable(psm1,block,(1,5)), reachable(psm1,block,(1,6)), reachable(psm1,block,(1,7)), reachable(psm1,block,(1,8)), reachable(psm1,block,(2,1)), reachable(psm1,block,(2,2)), reachable(psm1,block,(2,3)), reachable(psm1,block,(2,4)), reachable(psm1,block,(2,5)), reachable(psm1,block,(2,6)), reachable(psm1,block,(2,7)), reachable(psm1,block,(2,8)), reachable(psm1,block,(3,1)), reachable(psm1,block,(3,2)), reachable(psm1,block,(3,3)), reachable(psm1,block,(3,4)), reachable(psm1,block,(3,5)), reachable(psm1,block,(3,6)), reachable(psm1,block,(3,7)), reachable(psm1,block,(3,8)), reachable(psm1,block,(4,1)), reachable(psm1,block,(4,2)), reachable(psm1,block,(4,3)), reachable(psm1,block,(4,4)), reachable(psm1,block,(4,5)), reachable(psm1,block,(4,6)), reachable(psm1,block,(4,7)), reachable(psm1,block,(4,8)), reachable(psm2,block,(5,1)), reachable(psm2,block,(5,2)), reachable(psm2,block,(5,3)), reachable(psm2,block,(5,4)), reachable(psm2,block,(5,5)), reachable(psm2,block,(5,6)), reachable(psm2,block,(5,7)), reachable(psm2,block,(5,8)), reachable(psm2,block,(6,1)), reachable(psm2,block,(6,2)), reachable(psm2,block,(6,3)), reachable(psm2,block,(6,4)), reachable(psm2,block,(6,5)), reachable(psm2,block,(6,6)), reachable(psm2,block,(6,7)), reachable(psm2,block,(6,8)), reachable(psm2,block,(7,1)), reachable(psm2,block,(7,2)), reachable(psm2,block,(7,3)), reachable(psm2,block,(7,4)), reachable(psm2,block,(7,5)), reachable(psm2,block,(7,6)), reachable(psm2,block,(7,7)), reachable(psm2,block,(7,8)), reachable(psm2,block,(8,1)), reachable(psm2,block,(8,2)), reachable(psm2,block,(8,3)), reachable(psm2,block,(8,4)), reachable(psm2,block,(8,5)), reachable(psm2,block,(8,6)), reachable(psm2,block,(8,7)), reachable(psm2,block,(8,8)), fixed((1,3)), fixed((3,6)), fixed((2,5)), fixed((5,4)), above_tumor((8,8)), |reach(psm2,block,(8,8),1), grasp(psm2,block,(8,8),2), pull(psm2,block,(8,8),3), 
3.10240983963|reachable(psm1,block,(1,1)), reachable(psm1,block,(1,2)), reachable(psm1,block,(1,3)), reachable(psm1,block,(1,4)), reachable(psm1,block,(1,5)), reachable(psm1,block,(1,6)), reachable(psm1,block,(1,7)), reachable(psm1,block,(1,8)), reachable(psm1,block,(2,1)), reachable(psm1,block,(2,2)), reachable(psm1,block,(2,3)), reachable(psm1,block,(2,4)), reachable(psm1,block,(2,5)), reachable(psm1,block,(2,6)), reachable(psm1,block,(2,7)), reachable(psm1,block,(2,8)), reachable(psm1,block,(3,1)), reachable(psm1,block,(3,2)), reachable(psm1,block,(3,3)), reachable(psm1,block,(3,4)), reachable(psm1,block,(3,5)), reachable(psm1,block,(3,6)), reachable(psm1,block,(3,7)), reachable(psm1,block,(3,8)), reachable(psm1,block,(4,1)), reachable(psm1,block,(4,2)), reachable(psm1,block,(4,3)), reachable(psm1,block,(4,4)), reachable(psm1,block,(4,5)), reachable(psm1,block,(4,6)), reachable(psm1,block,(4,7)), reachable(psm1,block,(4,8)), reachable(psm2,block,(5,1)), reachable(psm2,block,(5,2)), reachable(psm2,block,(5,3)), reachable(psm2,block,(5,4)), reachable(psm2,block,(5,5)), reachable(psm2,block,(5,6)), reachable(psm2,block,(5,7)), reachable(psm2,block,(5,8)), reachable(psm2,block,(6,1)), reachable(psm2,block,(6,2)), reachable(psm2,block,(6,3)), reachable(psm2,block,(6,4)), reachable(psm2,block,(6,5)), reachable(psm2,block,(6,6)), reachable(psm2,block,(6,7)), reachable(psm2,block,(6,8)), reachable(psm2,block,(7,1)), reachable(psm2,block,(7,2)), reachable(psm2,block,(7,3)), reachable(psm2,block,(7,4)), reachable(psm2,block,(7,5)), reachable(psm2,block,(7,6)), reachable(psm2,block,(7,7)), reachable(psm2,block,(7,8)), reachable(psm2,block,(8,1)), reachable(psm2,block,(8,2)), reachable(psm2,block,(8,3)), reachable(psm2,block,(8,4)), reachable(psm2,block,(8,5)), reachable(psm2,block,(8,6)), reachable(psm2,block,(8,7)), reachable(psm2,block,(8,8)), fixed((6,7)), fixed((4,6)), fixed((3,6)), fixed((2,5)), above_tumor((8,2)), |reach(psm2,block,(8,1),1), grasp(psm2,block,(8,1),2), pull(psm2,block,(8,1),3), 
3.04928708076|reachable(psm1,block,(1,1)), reachable(psm1,block,(1,2)), reachable(psm1,block,(1,3)), reachable(psm1,block,(1,4)), reachable(psm1,block,(1,5)), reachable(psm1,block,(1,6)), reachable(psm1,block,(1,7)), reachable(psm1,block,(1,8)), reachable(psm1,block,(2,1)), reachable(psm1,block,(2,2)), reachable(psm1,block,(2,3)), reachable(psm1,block,(2,4)), reachable(psm1,block,(2,5)), reachable(psm1,block,(2,6)), reachable(psm1,block,(2,7)), reachable(psm1,block,(2,8)), reachable(psm1,block,(3,1)), reachable(psm1,block,(3,2)), reachable(psm1,block,(3,3)), reachable(psm1,block,(3,4)), reachable(psm1,block,(3,5)), reachable(psm1,block,(3,6)), reachable(psm1,block,(3,7)), reachable(psm1,block,(3,8)), reachable(psm1,block,(4,1)), reachable(psm1,block,(4,2)), reachable(psm1,block,(4,3)), reachable(psm1,block,(4,4)), reachable(psm1,block,(4,5)), reachable(psm1,block,(4,6)), reachable(psm1,block,(4,7)), reachable(psm1,block,(4,8)), reachable(psm2,block,(5,1)), reachable(psm2,block,(5,2)), reachable(psm2,block,(5,3)), reachable(psm2,block,(5,4)), reachable(psm2,block,(5,5)), reachable(psm2,block,(5,6)), reachable(psm2,block,(5,7)), reachable(psm2,block,(5,8)), reachable(psm2,block,(6,1)), reachable(psm2,block,(6,2)), reachable(psm2,block,(6,3)), reachable(psm2,block,(6,4)), reachable(psm2,block,(6,5)), reachable(psm2,block,(6,6)), reachable(psm2,block,(6,7)), reachable(psm2,block,(6,8)), reachable(psm2,block,(7,1)), reachable(psm2,block,(7,2)), reachable(psm2,block,(7,3)), reachable(psm2,block,(7,4)), reachable(psm2,block,(7,5)), reachable(psm2,block,(7,6)), reachable(psm2,block,(7,7)), reachable(psm2,block,(7,8)), reachable(psm2,block,(8,1)), reachable(psm2,block,(8,2)), reachable(psm2,block,(8,3)), reachable(psm2,block,(8,4)), reachable(psm2,block,(8,5)), reachable(psm2,block,(8,6)), reachable(psm2,block,(8,7)), reachable(psm2,block,(8,8)), fixed((6,7)), fixed((6,5)), fixed((3,5)), fixed((6,4)), above_tumor((8,7)), |reach(psm2,block,(8,1),1), grasp(psm2,block,(8,1),2), pull(psm2,block,(8,1),3), 
3.05359697342|reachable(psm1,block,(1,1)), reachable(psm1,block,(1,2)), reachable(psm1,block,(1,3)), reachable(psm1,block,(1,4)), reachable(psm1,block,(1,5)), reachable(psm1,block,(1,6)), reachable(psm1,block,(1,7)), reachable(psm1,block,(1,8)), reachable(psm1,block,(2,1)), reachable(psm1,block,(2,2)), reachable(psm1,block,(2,3)), reachable(psm1,block,(2,4)), reachable(psm1,block,(2,5)), reachable(psm1,block,(2,6)), reachable(psm1,block,(2,7)), reachable(psm1,block,(2,8)), reachable(psm1,block,(3,1)), reachable(psm1,block,(3,2)), reachable(psm1,block,(3,3)), reachable(psm1,block,(3,4)), reachable(psm1,block,(3,5)), reachable(psm1,block,(3,6)), reachable(psm1,block,(3,7)), reachable(psm1,block,(3,8)), reachable(psm1,block,(4,1)), reachable(psm1,block,(4,2)), reachable(psm1,block,(4,3)), reachable(psm1,block,(4,4)), reachable(psm1,block,(4,5)), reachable(psm1,block,(4,6)), reachable(psm1,block,(4,7)), reachable(psm1,block,(4,8)), reachable(psm2,block,(5,1)), reachable(psm2,block,(5,2)), reachable(psm2,block,(5,3)), reachable(psm2,block,(5,4)), reachable(psm2,block,(5,5)), reachable(psm2,block,(5,6)), reachable(psm2,block,(5,7)), reachable(psm2,block,(5,8)), reachable(psm2,block,(6,1)), reachable(psm2,block,(6,2)), reachable(psm2,block,(6,3)), reachable(psm2,block,(6,4)), reachable(psm2,block,(6,5)), reachable(psm2,block,(6,6)), reachable(psm2,block,(6,7)), reachable(psm2,block,(6,8)), reachable(psm2,block,(7,1)), reachable(psm2,block,(7,2)), reachable(psm2,block,(7,3)), reachable(psm2,block,(7,4)), reachable(psm2,block,(7,5)), reachable(psm2,block,(7,6)), reachable(psm2,block,(7,7)), reachable(psm2,block,(7,8)), reachable(psm2,block,(8,1)), reachable(psm2,block,(8,2)), reachable(psm2,block,(8,3)), reachable(psm2,block,(8,4)), reachable(psm2,block,(8,5)), reachable(psm2,block,(8,6)), reachable(psm2,block,(8,7)), reachable(psm2,block,(8,8)), fixed((6,2)), fixed((5,4)), fixed((2,5)), fixed((4,3)), above_tumor((8,7)), |reach(psm2,block,(8,8),1), grasp(psm2,block,(8,8),2), pull(psm2,block,(8,8),3), 
3.00817394257|reachable(psm1,block,(1,1)), reachable(psm1,block,(1,2)), reachable(psm1,block,(1,3)), reachable(psm1,block,(1,4)), reachable(psm1,block,(1,5)), reachable(psm1,block,(1,6)), reachable(psm1,block,(1,7)), reachable(psm1,block,(1,8)), reachable(psm1,block,(2,1)), reachable(psm1,block,(2,2)), reachable(psm1,block,(2,3)), reachable(psm1,block,(2,4)), reachable(psm1,block,(2,5)), reachable(psm1,block,(2,6)), reachable(psm1,block,(2,7)), reachable(psm1,block,(2,8)), reachable(psm1,block,(3,1)), reachable(psm1,block,(3,2)), reachable(psm1,block,(3,3)), reachable(psm1,block,(3,4)), reachable(psm1,block,(3,5)), reachable(psm1,block,(3,6)), reachable(psm1,block,(3,7)), reachable(psm1,block,(3,8)), reachable(psm1,block,(4,1)), reachable(psm1,block,(4,2)), reachable(psm1,block,(4,3)), reachable(psm1,block,(4,4)), reachable(psm1,block,(4,5)), reachable(psm1,block,(4,6)), reachable(psm1,block,(4,7)), reachable(psm1,block,(4,8)), reachable(psm2,block,(5,1)), reachable(psm2,block,(5,2)), reachable(psm2,block,(5,3)), reachable(psm2,block,(5,4)), reachable(psm2,block,(5,5)), reachable(psm2,block,(5,6)), reachable(psm2,block,(5,7)), reachable(psm2,block,(5,8)), reachable(psm2,block,(6,1)), reachable(psm2,block,(6,2)), reachable(psm2,block,(6,3)), reachable(psm2,block,(6,4)), reachable(psm2,block,(6,5)), reachable(psm2,block,(6,6)), reachable(psm2,block,(6,7)), reachable(psm2,block,(6,8)), reachable(psm2,block,(7,1)), reachable(psm2,block,(7,2)), reachable(psm2,block,(7,3)), reachable(psm2,block,(7,4)), reachable(psm2,block,(7,5)), reachable(psm2,block,(7,6)), reachable(psm2,block,(7,7)), reachable(psm2,block,(7,8)), reachable(psm2,block,(8,1)), reachable(psm2,block,(8,2)), reachable(psm2,block,(8,3)), reachable(psm2,block,(8,4)), reachable(psm2,block,(8,5)), reachable(psm2,block,(8,6)), reachable(psm2,block,(8,7)), reachable(psm2,block,(8,8)), fixed((5,8)), fixed((2,4)), fixed((3,4)), fixed((2,6)), above_tumor((8,1)), |reach(psm2,block,(8,1),1), grasp(psm2,block,(8,1),2), pull(psm2,block,(8,1),3), 
3.13182497025|reachable(psm1,block,(1,1)), reachable(psm1,block,(1,2)), reachable(psm1,block,(1,3)), reachable(psm1,block,(1,4)), reachable(psm1,block,(1,5)), reachable(psm1,block,(1,6)), reachable(psm1,block,(1,7)), reachable(psm1,block,(1,8)), reachable(psm1,block,(2,1)), reachable(psm1,block,(2,2)), reachable(psm1,block,(2,3)), reachable(psm1,block,(2,4)), reachable(psm1,block,(2,5)), reachable(psm1,block,(2,6)), reachable(psm1,block,(2,7)), reachable(psm1,block,(2,8)), reachable(psm1,block,(3,1)), reachable(psm1,block,(3,2)), reachable(psm1,block,(3,3)), reachable(psm1,block,(3,4)), reachable(psm1,block,(3,5)), reachable(psm1,block,(3,6)), reachable(psm1,block,(3,7)), reachable(psm1,block,(3,8)), reachable(psm1,block,(4,1)), reachable(psm1,block,(4,2)), reachable(psm1,block,(4,3)), reachable(psm1,block,(4,4)), reachable(psm1,block,(4,5)), reachable(psm1,block,(4,6)), reachable(psm1,block,(4,7)), reachable(psm1,block,(4,8)), reachable(psm2,block,(5,1)), reachable(psm2,block,(5,2)), reachable(psm2,block,(5,3)), reachable(psm2,block,(5,4)), reachable(psm2,block,(5,5)), reachable(psm2,block,(5,6)), reachable(psm2,block,(5,7)), reachable(psm2,block,(5,8)), reachable(psm2,block,(6,1)), reachable(psm2,block,(6,2)), reachable(psm2,block,(6,3)), reachable(psm2,block,(6,4)), reachable(psm2,block,(6,5)), reachable(psm2,block,(6,6)), reachable(psm2,block,(6,7)), reachable(psm2,block,(6,8)), reachable(psm2,block,(7,1)), reachable(psm2,block,(7,2)), reachable(psm2,block,(7,3)), reachable(psm2,block,(7,4)), reachable(psm2,block,(7,5)), reachable(psm2,block,(7,6)), reachable(psm2,block,(7,7)), reachable(psm2,block,(7,8)), reachable(psm2,block,(8,1)), reachable(psm2,block,(8,2)), reachable(psm2,block,(8,3)), reachable(psm2,block,(8,4)), reachable(psm2,block,(8,5)), reachable(psm2,block,(8,6)), reachable(psm2,block,(8,7)), reachable(psm2,block,(8,8)), fixed((3,5)), fixed((4,3)), fixed((3,4)), fixed((3,3)), above_tumor((7,2)), |reach(psm2,block,(8,1),1), grasp(psm2,block,(8,1),2), pull(psm2,block,(8,1),3), 
3.02812814713|reachable(psm1,block,(1,1)), reachable(psm1,block,(1,2)), reachable(psm1,block,(1,3)), reachable(psm1,block,(1,4)), reachable(psm1,block,(1,5)), reachable(psm1,block,(1,6)), reachable(psm1,block,(1,7)), reachable(psm1,block,(1,8)), reachable(psm1,block,(2,1)), reachable(psm1,block,(2,2)), reachable(psm1,block,(2,3)), reachable(psm1,block,(2,4)), reachable(psm1,block,(2,5)), reachable(psm1,block,(2,6)), reachable(psm1,block,(2,7)), reachable(psm1,block,(2,8)), reachable(psm1,block,(3,1)), reachable(psm1,block,(3,2)), reachable(psm1,block,(3,3)), reachable(psm1,block,(3,4)), reachable(psm1,block,(3,5)), reachable(psm1,block,(3,6)), reachable(psm1,block,(3,7)), reachable(psm1,block,(3,8)), reachable(psm1,block,(4,1)), reachable(psm1,block,(4,2)), reachable(psm1,block,(4,3)), reachable(psm1,block,(4,4)), reachable(psm1,block,(4,5)), reachable(psm1,block,(4,6)), reachable(psm1,block,(4,7)), reachable(psm1,block,(4,8)), reachable(psm2,block,(5,1)), reachable(psm2,block,(5,2)), reachable(psm2,block,(5,3)), reachable(psm2,block,(5,4)), reachable(psm2,block,(5,5)), reachable(psm2,block,(5,6)), reachable(psm2,block,(5,7)), reachable(psm2,block,(5,8)), reachable(psm2,block,(6,1)), reachable(psm2,block,(6,2)), reachable(psm2,block,(6,3)), reachable(psm2,block,(6,4)), reachable(psm2,block,(6,5)), reachable(psm2,block,(6,6)), reachable(psm2,block,(6,7)), reachable(psm2,block,(6,8)), reachable(psm2,block,(7,1)), reachable(psm2,block,(7,2)), reachable(psm2,block,(7,3)), reachable(psm2,block,(7,4)), reachable(psm2,block,(7,5)), reachable(psm2,block,(7,6)), reachable(psm2,block,(7,7)), reachable(psm2,block,(7,8)), reachable(psm2,block,(8,1)), reachable(psm2,block,(8,2)), reachable(psm2,block,(8,3)), reachable(psm2,block,(8,4)), reachable(psm2,block,(8,5)), reachable(psm2,block,(8,6)), reachable(psm2,block,(8,7)), reachable(psm2,block,(8,8)), fixed((1,4)), fixed((3,5)), fixed((6,4)), fixed((2,2)), above_tumor((8,1)), |reach(psm2,block,(8,1),1), grasp(psm2,block,(8,1),2), pull(psm2,block,(8,1),3), 
3.08068990707|reachable(psm1,block,(1,1)), reachable(psm1,block,(1,2)), reachable(psm1,block,(1,3)), reachable(psm1,block,(1,4)), reachable(psm1,block,(1,5)), reachable(psm1,block,(1,6)), reachable(psm1,block,(1,7)), reachable(psm1,block,(1,8)), reachable(psm1,block,(2,1)), reachable(psm1,block,(2,2)), reachable(psm1,block,(2,3)), reachable(psm1,block,(2,4)), reachable(psm1,block,(2,5)), reachable(psm1,block,(2,6)), reachable(psm1,block,(2,7)), reachable(psm1,block,(2,8)), reachable(psm1,block,(3,1)), reachable(psm1,block,(3,2)), reachable(psm1,block,(3,3)), reachable(psm1,block,(3,4)), reachable(psm1,block,(3,5)), reachable(psm1,block,(3,6)), reachable(psm1,block,(3,7)), reachable(psm1,block,(3,8)), reachable(psm1,block,(4,1)), reachable(psm1,block,(4,2)), reachable(psm1,block,(4,3)), reachable(psm1,block,(4,4)), reachable(psm1,block,(4,5)), reachable(psm1,block,(4,6)), reachable(psm1,block,(4,7)), reachable(psm1,block,(4,8)), reachable(psm2,block,(5,1)), reachable(psm2,block,(5,2)), reachable(psm2,block,(5,3)), reachable(psm2,block,(5,4)), reachable(psm2,block,(5,5)), reachable(psm2,block,(5,6)), reachable(psm2,block,(5,7)), reachable(psm2,block,(5,8)), reachable(psm2,block,(6,1)), reachable(psm2,block,(6,2)), reachable(psm2,block,(6,3)), reachable(psm2,block,(6,4)), reachable(psm2,block,(6,5)), reachable(psm2,block,(6,6)), reachable(psm2,block,(6,7)), reachable(psm2,block,(6,8)), reachable(psm2,block,(7,1)), reachable(psm2,block,(7,2)), reachable(psm2,block,(7,3)), reachable(psm2,block,(7,4)), reachable(psm2,block,(7,5)), reachable(psm2,block,(7,6)), reachable(psm2,block,(7,7)), reachable(psm2,block,(7,8)), reachable(psm2,block,(8,1)), reachable(psm2,block,(8,2)), reachable(psm2,block,(8,3)), reachable(psm2,block,(8,4)), reachable(psm2,block,(8,5)), reachable(psm2,block,(8,6)), reachable(psm2,block,(8,7)), reachable(psm2,block,(8,8)), fixed((4,1)), fixed((3,5)), fixed((4,5)), fixed((1,8)), above_tumor((8,1)), |reach(psm2,block,(8,1),1), grasp(psm2,block,(8,1),2), pull(psm2,block,(8,1),3), 
3.11580395699|reachable(psm1,block,(1,1)), reachable(psm1,block,(1,2)), reachable(psm1,block,(1,3)), reachable(psm1,block,(1,4)), reachable(psm1,block,(1,5)), reachable(psm1,block,(1,6)), reachable(psm1,block,(1,7)), reachable(psm1,block,(1,8)), reachable(psm1,block,(2,1)), reachable(psm1,block,(2,2)), reachable(psm1,block,(2,3)), reachable(psm1,block,(2,4)), reachable(psm1,block,(2,5)), reachable(psm1,block,(2,6)), reachable(psm1,block,(2,7)), reachable(psm1,block,(2,8)), reachable(psm1,block,(3,1)), reachable(psm1,block,(3,2)), reachable(psm1,block,(3,3)), reachable(psm1,block,(3,4)), reachable(psm1,block,(3,5)), reachable(psm1,block,(3,6)), reachable(psm1,block,(3,7)), reachable(psm1,block,(3,8)), reachable(psm1,block,(4,1)), reachable(psm1,block,(4,2)), reachable(psm1,block,(4,3)), reachable(psm1,block,(4,4)), reachable(psm1,block,(4,5)), reachable(psm1,block,(4,6)), reachable(psm1,block,(4,7)), reachable(psm1,block,(4,8)), reachable(psm2,block,(5,1)), reachable(psm2,block,(5,2)), reachable(psm2,block,(5,3)), reachable(psm2,block,(5,4)), reachable(psm2,block,(5,5)), reachable(psm2,block,(5,6)), reachable(psm2,block,(5,7)), reachable(psm2,block,(5,8)), reachable(psm2,block,(6,1)), reachable(psm2,block,(6,2)), reachable(psm2,block,(6,3)), reachable(psm2,block,(6,4)), reachable(psm2,block,(6,5)), reachable(psm2,block,(6,6)), reachable(psm2,block,(6,7)), reachable(psm2,block,(6,8)), reachable(psm2,block,(7,1)), reachable(psm2,block,(7,2)), reachable(psm2,block,(7,3)), reachable(psm2,block,(7,4)), reachable(psm2,block,(7,5)), reachable(psm2,block,(7,6)), reachable(psm2,block,(7,7)), reachable(psm2,block,(7,8)), reachable(psm2,block,(8,1)), reachable(psm2,block,(8,2)), reachable(psm2,block,(8,3)), reachable(psm2,block,(8,4)), reachable(psm2,block,(8,5)), reachable(psm2,block,(8,6)), reachable(psm2,block,(8,7)), reachable(psm2,block,(8,8)), fixed((5,3)), fixed((1,8)), fixed((3,8)), fixed((2,5)), above_tumor((7,6)), |reach(psm2,block,(8,1),1), grasp(psm2,block,(8,1),2), pull(psm2,block,(8,1),3), 
3.08138298988|reachable(psm1,block,(1,1)), reachable(psm1,block,(1,2)), reachable(psm1,block,(1,3)), reachable(psm1,block,(1,4)), reachable(psm1,block,(1,5)), reachable(psm1,block,(1,6)), reachable(psm1,block,(1,7)), reachable(psm1,block,(1,8)), reachable(psm1,block,(2,1)), reachable(psm1,block,(2,2)), reachable(psm1,block,(2,3)), reachable(psm1,block,(2,4)), reachable(psm1,block,(2,5)), reachable(psm1,block,(2,6)), reachable(psm1,block,(2,7)), reachable(psm1,block,(2,8)), reachable(psm1,block,(3,1)), reachable(psm1,block,(3,2)), reachable(psm1,block,(3,3)), reachable(psm1,block,(3,4)), reachable(psm1,block,(3,5)), reachable(psm1,block,(3,6)), reachable(psm1,block,(3,7)), reachable(psm1,block,(3,8)), reachable(psm1,block,(4,1)), reachable(psm1,block,(4,2)), reachable(psm1,block,(4,3)), reachable(psm1,block,(4,4)), reachable(psm1,block,(4,5)), reachable(psm1,block,(4,6)), reachable(psm1,block,(4,7)), reachable(psm1,block,(4,8)), reachable(psm2,block,(5,1)), reachable(psm2,block,(5,2)), reachable(psm2,block,(5,3)), reachable(psm2,block,(5,4)), reachable(psm2,block,(5,5)), reachable(psm2,block,(5,6)), reachable(psm2,block,(5,7)), reachable(psm2,block,(5,8)), reachable(psm2,block,(6,1)), reachable(psm2,block,(6,2)), reachable(psm2,block,(6,3)), reachable(psm2,block,(6,4)), reachable(psm2,block,(6,5)), reachable(psm2,block,(6,6)), reachable(psm2,block,(6,7)), reachable(psm2,block,(6,8)), reachable(psm2,block,(7,1)), reachable(psm2,block,(7,2)), reachable(psm2,block,(7,3)), reachable(psm2,block,(7,4)), reachable(psm2,block,(7,5)), reachable(psm2,block,(7,6)), reachable(psm2,block,(7,7)), reachable(psm2,block,(7,8)), reachable(psm2,block,(8,1)), reachable(psm2,block,(8,2)), reachable(psm2,block,(8,3)), reachable(psm2,block,(8,4)), reachable(psm2,block,(8,5)), reachable(psm2,block,(8,6)), reachable(psm2,block,(8,7)), reachable(psm2,block,(8,8)), fixed((6,8)), fixed((3,4)), fixed((2,3)), fixed((5,1)), above_tumor((7,8)), |reach(psm2,block,(8,8),1), grasp(psm2,block,(8,8),2), pull(psm2,block,(8,8),3), 
3.0406999588|reachable(psm1,block,(1,1)), reachable(psm1,block,(1,2)), reachable(psm1,block,(1,3)), reachable(psm1,block,(1,4)), reachable(psm1,block,(1,5)), reachable(psm1,block,(1,6)), reachable(psm1,block,(1,7)), reachable(psm1,block,(1,8)), reachable(psm1,block,(2,1)), reachable(psm1,block,(2,2)), reachable(psm1,block,(2,3)), reachable(psm1,block,(2,4)), reachable(psm1,block,(2,5)), reachable(psm1,block,(2,6)), reachable(psm1,block,(2,7)), reachable(psm1,block,(2,8)), reachable(psm1,block,(3,1)), reachable(psm1,block,(3,2)), reachable(psm1,block,(3,3)), reachable(psm1,block,(3,4)), reachable(psm1,block,(3,5)), reachable(psm1,block,(3,6)), reachable(psm1,block,(3,7)), reachable(psm1,block,(3,8)), reachable(psm1,block,(4,1)), reachable(psm1,block,(4,2)), reachable(psm1,block,(4,3)), reachable(psm1,block,(4,4)), reachable(psm1,block,(4,5)), reachable(psm1,block,(4,6)), reachable(psm1,block,(4,7)), reachable(psm1,block,(4,8)), reachable(psm2,block,(5,1)), reachable(psm2,block,(5,2)), reachable(psm2,block,(5,3)), reachable(psm2,block,(5,4)), reachable(psm2,block,(5,5)), reachable(psm2,block,(5,6)), reachable(psm2,block,(5,7)), reachable(psm2,block,(5,8)), reachable(psm2,block,(6,1)), reachable(psm2,block,(6,2)), reachable(psm2,block,(6,3)), reachable(psm2,block,(6,4)), reachable(psm2,block,(6,5)), reachable(psm2,block,(6,6)), reachable(psm2,block,(6,7)), reachable(psm2,block,(6,8)), reachable(psm2,block,(7,1)), reachable(psm2,block,(7,2)), reachable(psm2,block,(7,3)), reachable(psm2,block,(7,4)), reachable(psm2,block,(7,5)), reachable(psm2,block,(7,6)), reachable(psm2,block,(7,7)), reachable(psm2,block,(7,8)), reachable(psm2,block,(8,1)), reachable(psm2,block,(8,2)), reachable(psm2,block,(8,3)), reachable(psm2,block,(8,4)), reachable(psm2,block,(8,5)), reachable(psm2,block,(8,6)), reachable(psm2,block,(8,7)), reachable(psm2,block,(8,8)), fixed((2,3)), fixed((7,1)), fixed((6,6)), fixed((5,1)), above_tumor((8,7)), |reach(psm2,block,(8,8),1), grasp(psm2,block,(8,8),2), pull(psm2,block,(8,8),3), 
