2.89459109306|reachable(psm1,block,(1,1)), reachable(psm1,block,(1,2)), reachable(psm1,block,(1,3)), reachable(psm1,block,(1,4)), reachable(psm1,block,(1,5)), reachable(psm1,block,(1,6)), reachable(psm1,block,(1,7)), reachable(psm1,block,(1,8)), reachable(psm1,block,(2,1)), reachable(psm1,block,(2,2)), reachable(psm1,block,(2,3)), reachable(psm1,block,(2,4)), reachable(psm1,block,(2,5)), reachable(psm1,block,(2,6)), reachable(psm1,block,(2,7)), reachable(psm1,block,(2,8)), reachable(psm1,block,(3,1)), reachable(psm1,block,(3,2)), reachable(psm1,block,(3,3)), reachable(psm1,block,(3,4)), reachable(psm1,block,(3,5)), reachable(psm1,block,(3,6)), reachable(psm1,block,(3,7)), reachable(psm1,block,(3,8)), reachable(psm1,block,(4,1)), reachable(psm1,block,(4,2)), reachable(psm1,block,(4,3)), reachable(psm1,block,(4,4)), reachable(psm1,block,(4,5)), reachable(psm1,block,(4,6)), reachable(psm1,block,(4,7)), reachable(psm1,block,(4,8)), reachable(psm2,block,(5,1)), reachable(psm2,block,(5,2)), reachable(psm2,block,(5,3)), reachable(psm2,block,(5,4)), reachable(psm2,block,(5,5)), reachable(psm2,block,(5,6)), reachable(psm2,block,(5,7)), reachable(psm2,block,(5,8)), reachable(psm2,block,(6,1)), reachable(psm2,block,(6,2)), reachable(psm2,block,(6,3)), reachable(psm2,block,(6,4)), reachable(psm2,block,(6,5)), reachable(psm2,block,(6,6)), reachable(psm2,block,(6,7)), reachable(psm2,block,(6,8)), reachable(psm2,block,(7,1)), reachable(psm2,block,(7,2)), reachable(psm2,block,(7,3)), reachable(psm2,block,(7,4)), reachable(psm2,block,(7,5)), reachable(psm2,block,(7,6)), reachable(psm2,block,(7,7)), reachable(psm2,block,(7,8)), reachable(psm2,block,(8,1)), reachable(psm2,block,(8,2)), reachable(psm2,block,(8,3)), reachable(psm2,block,(8,4)), reachable(psm2,block,(8,5)), reachable(psm2,block,(8,6)), reachable(psm2,block,(8,7)), reachable(psm2,block,(8,8)), fixed((5,2)), fixed((6,4)), fixed((5,4)), fixed((1,8)), fixed((2,1)), fixed((3,5)), fixed((2,3)), fixed((5,3)), fixed((1,4)), fixed((2,2)), fixed((1,3)), fixed((2,6)), fixed((1,1)), fixed((3,6)), fixed((4,5)), fixed((6,1)), fixed((5,8)), fixed((5,5)), fixed((3,1)), fixed((6,2)), fixed((2,4)), fixed((3,3)), fixed((2,7)), fixed((3,8)), fixed((1,2)), fixed((4,4)), fixed((4,1)), fixed((5,6)), fixed((1,6)), fixed((6,3)), fixed((2,5)), fixed((3,2)), fixed((4,8)), fixed((6,5)), above_tumor((7,3)), |reach(psm2,block,(8,8),1), grasp(psm2,block,(8,8),2), pull(psm2,block,(8,8),3), 
2.86133313179|reachable(psm1,block,(1,1)), reachable(psm1,block,(1,2)), reachable(psm1,block,(1,3)), reachable(psm1,block,(1,4)), reachable(psm1,block,(1,5)), reachable(psm1,block,(1,6)), reachable(psm1,block,(1,7)), reachable(psm1,block,(1,8)), reachable(psm1,block,(2,1)), reachable(psm1,block,(2,2)), reachable(psm1,block,(2,3)), reachable(psm1,block,(2,4)), reachable(psm1,block,(2,5)), reachable(psm1,block,(2,6)), reachable(psm1,block,(2,7)), reachable(psm1,block,(2,8)), reachable(psm1,block,(3,1)), reachable(psm1,block,(3,2)), reachable(psm1,block,(3,3)), reachable(psm1,block,(3,4)), reachable(psm1,block,(3,5)), reachable(psm1,block,(3,6)), reachable(psm1,block,(3,7)), reachable(psm1,block,(3,8)), reachable(psm1,block,(4,1)), reachable(psm1,block,(4,2)), reachable(psm1,block,(4,3)), reachable(psm1,block,(4,4)), reachable(psm1,block,(4,5)), reachable(psm1,block,(4,6)), reachable(psm1,block,(4,7)), reachable(psm1,block,(4,8)), reachable(psm2,block,(5,1)), reachable(psm2,block,(5,2)), reachable(psm2,block,(5,3)), reachable(psm2,block,(5,4)), reachable(psm2,block,(5,5)), reachable(psm2,block,(5,6)), reachable(psm2,block,(5,7)), reachable(psm2,block,(5,8)), reachable(psm2,block,(6,1)), reachable(psm2,block,(6,2)), reachable(psm2,block,(6,3)), reachable(psm2,block,(6,4)), reachable(psm2,block,(6,5)), reachable(psm2,block,(6,6)), reachable(psm2,block,(6,7)), reachable(psm2,block,(6,8)), reachable(psm2,block,(7,1)), reachable(psm2,block,(7,2)), reachable(psm2,block,(7,3)), reachable(psm2,block,(7,4)), reachable(psm2,block,(7,5)), reachable(psm2,block,(7,6)), reachable(psm2,block,(7,7)), reachable(psm2,block,(7,8)), reachable(psm2,block,(8,1)), reachable(psm2,block,(8,2)), reachable(psm2,block,(8,3)), reachable(psm2,block,(8,4)), reachable(psm2,block,(8,5)), reachable(psm2,block,(8,6)), reachable(psm2,block,(8,7)), reachable(psm2,block,(8,8)), fixed((3,4)), fixed((4,8)), fixed((5,8)), fixed((7,1)), fixed((5,3)), fixed((2,7)), fixed((4,7)), fixed((1,7)), fixed((1,4)), fixed((6,5)), fixed((3,3)), fixed((1,8)), fixed((1,1)), fixed((5,4)), fixed((2,2)), fixed((5,5)), fixed((3,1)), fixed((5,6)), fixed((5,1)), fixed((1,5)), fixed((6,6)), fixed((6,2)), fixed((6,4)), fixed((3,7)), fixed((6,8)), fixed((2,8)), fixed((2,6)), fixed((5,2)), fixed((4,5)), fixed((1,2)), fixed((3,5)), fixed((1,6)), fixed((6,3)), fixed((6,7)), above_tumor((7,3)), |reach(psm2,block,(8,1),1), grasp(psm2,block,(8,1),2), pull(psm2,block,(8,1),3), 
2.87134003639|reachable(psm1,block,(1,1)), reachable(psm1,block,(1,2)), reachable(psm1,block,(1,3)), reachable(psm1,block,(1,4)), reachable(psm1,block,(1,5)), reachable(psm1,block,(1,6)), reachable(psm1,block,(1,7)), reachable(psm1,block,(1,8)), reachable(psm1,block,(2,1)), reachable(psm1,block,(2,2)), reachable(psm1,block,(2,3)), reachable(psm1,block,(2,4)), reachable(psm1,block,(2,5)), reachable(psm1,block,(2,6)), reachable(psm1,block,(2,7)), reachable(psm1,block,(2,8)), reachable(psm1,block,(3,1)), reachable(psm1,block,(3,2)), reachable(psm1,block,(3,3)), reachable(psm1,block,(3,4)), reachable(psm1,block,(3,5)), reachable(psm1,block,(3,6)), reachable(psm1,block,(3,7)), reachable(psm1,block,(3,8)), reachable(psm1,block,(4,1)), reachable(psm1,block,(4,2)), reachable(psm1,block,(4,3)), reachable(psm1,block,(4,4)), reachable(psm1,block,(4,5)), reachable(psm1,block,(4,6)), reachable(psm1,block,(4,7)), reachable(psm1,block,(4,8)), reachable(psm2,block,(5,1)), reachable(psm2,block,(5,2)), reachable(psm2,block,(5,3)), reachable(psm2,block,(5,4)), reachable(psm2,block,(5,5)), reachable(psm2,block,(5,6)), reachable(psm2,block,(5,7)), reachable(psm2,block,(5,8)), reachable(psm2,block,(6,1)), reachable(psm2,block,(6,2)), reachable(psm2,block,(6,3)), reachable(psm2,block,(6,4)), reachable(psm2,block,(6,5)), reachable(psm2,block,(6,6)), reachable(psm2,block,(6,7)), reachable(psm2,block,(6,8)), reachable(psm2,block,(7,1)), reachable(psm2,block,(7,2)), reachable(psm2,block,(7,3)), reachable(psm2,block,(7,4)), reachable(psm2,block,(7,5)), reachable(psm2,block,(7,6)), reachable(psm2,block,(7,7)), reachable(psm2,block,(7,8)), reachable(psm2,block,(8,1)), reachable(psm2,block,(8,2)), reachable(psm2,block,(8,3)), reachable(psm2,block,(8,4)), reachable(psm2,block,(8,5)), reachable(psm2,block,(8,6)), reachable(psm2,block,(8,7)), reachable(psm2,block,(8,8)), fixed((2,7)), fixed((2,1)), fixed((5,8)), fixed((3,5)), fixed((4,1)), fixed((5,4)), fixed((6,7)), fixed((6,2)), fixed((3,1)), fixed((4,2)), fixed((5,7)), fixed((1,1)), fixed((1,2)), fixed((2,4)), fixed((4,5)), fixed((6,3)), fixed((6,5)), fixed((2,8)), fixed((2,3)), fixed((4,4)), fixed((1,5)), fixed((1,7)), fixed((6,8)), fixed((7,1)), fixed((4,6)), fixed((1,4)), fixed((1,6)), fixed((4,8)), fixed((3,2)), fixed((3,4)), fixed((4,3)), fixed((6,6)), fixed((2,2)), fixed((1,3)), above_tumor((8,1)), |reach(psm2,block,(8,8),1), grasp(psm2,block,(8,8),2), pull(psm2,block,(8,8),3), 
2.84831380844|reachable(psm1,block,(1,1)), reachable(psm1,block,(1,2)), reachable(psm1,block,(1,3)), reachable(psm1,block,(1,4)), reachable(psm1,block,(1,5)), reachable(psm1,block,(1,6)), reachable(psm1,block,(1,7)), reachable(psm1,block,(1,8)), reachable(psm1,block,(2,1)), reachable(psm1,block,(2,2)), reachable(psm1,block,(2,3)), reachable(psm1,block,(2,4)), reachable(psm1,block,(2,5)), reachable(psm1,block,(2,6)), reachable(psm1,block,(2,7)), reachable(psm1,block,(2,8)), reachable(psm1,block,(3,1)), reachable(psm1,block,(3,2)), reachable(psm1,block,(3,3)), reachable(psm1,block,(3,4)), reachable(psm1,block,(3,5)), reachable(psm1,block,(3,6)), reachable(psm1,block,(3,7)), reachable(psm1,block,(3,8)), reachable(psm1,block,(4,1)), reachable(psm1,block,(4,2)), reachable(psm1,block,(4,3)), reachable(psm1,block,(4,4)), reachable(psm1,block,(4,5)), reachable(psm1,block,(4,6)), reachable(psm1,block,(4,7)), reachable(psm1,block,(4,8)), reachable(psm2,block,(5,1)), reachable(psm2,block,(5,2)), reachable(psm2,block,(5,3)), reachable(psm2,block,(5,4)), reachable(psm2,block,(5,5)), reachable(psm2,block,(5,6)), reachable(psm2,block,(5,7)), reachable(psm2,block,(5,8)), reachable(psm2,block,(6,1)), reachable(psm2,block,(6,2)), reachable(psm2,block,(6,3)), reachable(psm2,block,(6,4)), reachable(psm2,block,(6,5)), reachable(psm2,block,(6,6)), reachable(psm2,block,(6,7)), reachable(psm2,block,(6,8)), reachable(psm2,block,(7,1)), reachable(psm2,block,(7,2)), reachable(psm2,block,(7,3)), reachable(psm2,block,(7,4)), reachable(psm2,block,(7,5)), reachable(psm2,block,(7,6)), reachable(psm2,block,(7,7)), reachable(psm2,block,(7,8)), reachable(psm2,block,(8,1)), reachable(psm2,block,(8,2)), reachable(psm2,block,(8,3)), reachable(psm2,block,(8,4)), reachable(psm2,block,(8,5)), reachable(psm2,block,(8,6)), reachable(psm2,block,(8,7)), reachable(psm2,block,(8,8)), fixed((5,6)), fixed((5,7)), fixed((6,2)), fixed((4,3)), fixed((3,1)), fixed((5,3)), fixed((2,2)), fixed((1,1)), fixed((5,8)), fixed((2,5)), fixed((2,1)), fixed((2,8)), fixed((4,6)), fixed((3,7)), fixed((2,4)), fixed((4,1)), fixed((6,5)), fixed((4,8)), fixed((1,8)), fixed((7,1)), fixed((6,4)), fixed((4,4)), fixed((3,4)), fixed((2,6)), fixed((5,5)), fixed((3,2)), fixed((4,5)), fixed((1,6)), fixed((3,5)), fixed((1,7)), fixed((5,1)), fixed((1,3)), fixed((3,3)), fixed((3,6)), above_tumor((8,7)), |reach(psm2,block,(8,8),1), grasp(psm2,block,(8,8),2), pull(psm2,block,(8,8),3), 
2.85868787766|reachable(psm1,block,(1,1)), reachable(psm1,block,(1,2)), reachable(psm1,block,(1,3)), reachable(psm1,block,(1,4)), reachable(psm1,block,(1,5)), reachable(psm1,block,(1,6)), reachable(psm1,block,(1,7)), reachable(psm1,block,(1,8)), reachable(psm1,block,(2,1)), reachable(psm1,block,(2,2)), reachable(psm1,block,(2,3)), reachable(psm1,block,(2,4)), reachable(psm1,block,(2,5)), reachable(psm1,block,(2,6)), reachable(psm1,block,(2,7)), reachable(psm1,block,(2,8)), reachable(psm1,block,(3,1)), reachable(psm1,block,(3,2)), reachable(psm1,block,(3,3)), reachable(psm1,block,(3,4)), reachable(psm1,block,(3,5)), reachable(psm1,block,(3,6)), reachable(psm1,block,(3,7)), reachable(psm1,block,(3,8)), reachable(psm1,block,(4,1)), reachable(psm1,block,(4,2)), reachable(psm1,block,(4,3)), reachable(psm1,block,(4,4)), reachable(psm1,block,(4,5)), reachable(psm1,block,(4,6)), reachable(psm1,block,(4,7)), reachable(psm1,block,(4,8)), reachable(psm2,block,(5,1)), reachable(psm2,block,(5,2)), reachable(psm2,block,(5,3)), reachable(psm2,block,(5,4)), reachable(psm2,block,(5,5)), reachable(psm2,block,(5,6)), reachable(psm2,block,(5,7)), reachable(psm2,block,(5,8)), reachable(psm2,block,(6,1)), reachable(psm2,block,(6,2)), reachable(psm2,block,(6,3)), reachable(psm2,block,(6,4)), reachable(psm2,block,(6,5)), reachable(psm2,block,(6,6)), reachable(psm2,block,(6,7)), reachable(psm2,block,(6,8)), reachable(psm2,block,(7,1)), reachable(psm2,block,(7,2)), reachable(psm2,block,(7,3)), reachable(psm2,block,(7,4)), reachable(psm2,block,(7,5)), reachable(psm2,block,(7,6)), reachable(psm2,block,(7,7)), reachable(psm2,block,(7,8)), reachable(psm2,block,(8,1)), reachable(psm2,block,(8,2)), reachable(psm2,block,(8,3)), reachable(psm2,block,(8,4)), reachable(psm2,block,(8,5)), reachable(psm2,block,(8,6)), reachable(psm2,block,(8,7)), reachable(psm2,block,(8,8)), fixed((2,6)), fixed((6,8)), fixed((2,5)), fixed((1,4)), fixed((3,5)), fixed((2,8)), fixed((2,2)), fixed((5,7)), fixed((6,5)), fixed((6,6)), fixed((7,1)), fixed((2,3)), fixed((4,1)), fixed((5,6)), fixed((4,5)), fixed((3,2)), fixed((6,4)), fixed((1,1)), fixed((3,3)), fixed((2,1)), fixed((4,4)), fixed((5,4)), fixed((4,7)), fixed((4,8)), fixed((2,4)), fixed((4,2)), fixed((5,3)), fixed((1,3)), fixed((1,2)), fixed((3,4)), fixed((4,3)), fixed((2,7)), fixed((3,8)), fixed((6,1)), above_tumor((8,8)), |reach(psm2,block,(8,8),1), grasp(psm2,block,(8,8),2), pull(psm2,block,(8,8),3), 
2.85552000999|reachable(psm1,block,(1,1)), reachable(psm1,block,(1,2)), reachable(psm1,block,(1,3)), reachable(psm1,block,(1,4)), reachable(psm1,block,(1,5)), reachable(psm1,block,(1,6)), reachable(psm1,block,(1,7)), reachable(psm1,block,(1,8)), reachable(psm1,block,(2,1)), reachable(psm1,block,(2,2)), reachable(psm1,block,(2,3)), reachable(psm1,block,(2,4)), reachable(psm1,block,(2,5)), reachable(psm1,block,(2,6)), reachable(psm1,block,(2,7)), reachable(psm1,block,(2,8)), reachable(psm1,block,(3,1)), reachable(psm1,block,(3,2)), reachable(psm1,block,(3,3)), reachable(psm1,block,(3,4)), reachable(psm1,block,(3,5)), reachable(psm1,block,(3,6)), reachable(psm1,block,(3,7)), reachable(psm1,block,(3,8)), reachable(psm1,block,(4,1)), reachable(psm1,block,(4,2)), reachable(psm1,block,(4,3)), reachable(psm1,block,(4,4)), reachable(psm1,block,(4,5)), reachable(psm1,block,(4,6)), reachable(psm1,block,(4,7)), reachable(psm1,block,(4,8)), reachable(psm2,block,(5,1)), reachable(psm2,block,(5,2)), reachable(psm2,block,(5,3)), reachable(psm2,block,(5,4)), reachable(psm2,block,(5,5)), reachable(psm2,block,(5,6)), reachable(psm2,block,(5,7)), reachable(psm2,block,(5,8)), reachable(psm2,block,(6,1)), reachable(psm2,block,(6,2)), reachable(psm2,block,(6,3)), reachable(psm2,block,(6,4)), reachable(psm2,block,(6,5)), reachable(psm2,block,(6,6)), reachable(psm2,block,(6,7)), reachable(psm2,block,(6,8)), reachable(psm2,block,(7,1)), reachable(psm2,block,(7,2)), reachable(psm2,block,(7,3)), reachable(psm2,block,(7,4)), reachable(psm2,block,(7,5)), reachable(psm2,block,(7,6)), reachable(psm2,block,(7,7)), reachable(psm2,block,(7,8)), reachable(psm2,block,(8,1)), reachable(psm2,block,(8,2)), reachable(psm2,block,(8,3)), reachable(psm2,block,(8,4)), reachable(psm2,block,(8,5)), reachable(psm2,block,(8,6)), reachable(psm2,block,(8,7)), reachable(psm2,block,(8,8)), fixed((2,2)), fixed((6,4)), fixed((7,1)), fixed((4,3)), fixed((5,5)), fixed((3,6)), fixed((3,8)), fixed((1,7)), fixed((2,8)), fixed((1,2)), fixed((5,6)), fixed((2,3)), fixed((1,6)), fixed((4,6)), fixed((2,7)), fixed((4,2)), fixed((4,1)), fixed((4,8)), fixed((5,8)), fixed((3,5)), fixed((3,7)), fixed((2,1)), fixed((5,4)), fixed((1,5)), fixed((5,2)), fixed((2,4)), fixed((6,7)), fixed((3,4)), fixed((3,1)), fixed((6,3)), fixed((6,1)), fixed((4,4)), fixed((6,2)), fixed((4,7)), above_tumor((8,1)), |reach(psm2,block,(8,1),1), grasp(psm2,block,(8,1),2), pull(psm2,block,(8,1),3), 
2.89988803864|reachable(psm1,block,(1,1)), reachable(psm1,block,(1,2)), reachable(psm1,block,(1,3)), reachable(psm1,block,(1,4)), reachable(psm1,block,(1,5)), reachable(psm1,block,(1,6)), reachable(psm1,block,(1,7)), reachable(psm1,block,(1,8)), reachable(psm1,block,(2,1)), reachable(psm1,block,(2,2)), reachable(psm1,block,(2,3)), reachable(psm1,block,(2,4)), reachable(psm1,block,(2,5)), reachable(psm1,block,(2,6)), reachable(psm1,block,(2,7)), reachable(psm1,block,(2,8)), reachable(psm1,block,(3,1)), reachable(psm1,block,(3,2)), reachable(psm1,block,(3,3)), reachable(psm1,block,(3,4)), reachable(psm1,block,(3,5)), reachable(psm1,block,(3,6)), reachable(psm1,block,(3,7)), reachable(psm1,block,(3,8)), reachable(psm1,block,(4,1)), reachable(psm1,block,(4,2)), reachable(psm1,block,(4,3)), reachable(psm1,block,(4,4)), reachable(psm1,block,(4,5)), reachable(psm1,block,(4,6)), reachable(psm1,block,(4,7)), reachable(psm1,block,(4,8)), reachable(psm2,block,(5,1)), reachable(psm2,block,(5,2)), reachable(psm2,block,(5,3)), reachable(psm2,block,(5,4)), reachable(psm2,block,(5,5)), reachable(psm2,block,(5,6)), reachable(psm2,block,(5,7)), reachable(psm2,block,(5,8)), reachable(psm2,block,(6,1)), reachable(psm2,block,(6,2)), reachable(psm2,block,(6,3)), reachable(psm2,block,(6,4)), reachable(psm2,block,(6,5)), reachable(psm2,block,(6,6)), reachable(psm2,block,(6,7)), reachable(psm2,block,(6,8)), reachable(psm2,block,(7,1)), reachable(psm2,block,(7,2)), reachable(psm2,block,(7,3)), reachable(psm2,block,(7,4)), reachable(psm2,block,(7,5)), reachable(psm2,block,(7,6)), reachable(psm2,block,(7,7)), reachable(psm2,block,(7,8)), reachable(psm2,block,(8,1)), reachable(psm2,block,(8,2)), reachable(psm2,block,(8,3)), reachable(psm2,block,(8,4)), reachable(psm2,block,(8,5)), reachable(psm2,block,(8,6)), reachable(psm2,block,(8,7)), reachable(psm2,block,(8,8)), fixed((4,3)), fixed((5,1)), fixed((2,7)), fixed((1,2)), fixed((6,4)), fixed((3,1)), fixed((1,6)), fixed((6,5)), fixed((3,8)), fixed((6,3)), fixed((1,1)), fixed((2,1)), fixed((6,6)), fixed((4,4)), fixed((2,6)), fixed((2,4)), fixed((4,1)), fixed((1,3)), fixed((1,4)), fixed((3,4)), fixed((3,3)), fixed((4,6)), fixed((5,7)), fixed((6,2)), fixed((5,8)), fixed((7,1)), fixed((4,7)), fixed((1,7)), fixed((1,5)), fixed((5,4)), fixed((5,5)), fixed((3,7)), fixed((4,5)), fixed((2,2)), above_tumor((8,8)), |reach(psm2,block,(8,8),1), grasp(psm2,block,(8,8),2), pull(psm2,block,(8,8),3), 
2.94121408463|reachable(psm1,block,(1,1)), reachable(psm1,block,(1,2)), reachable(psm1,block,(1,3)), reachable(psm1,block,(1,4)), reachable(psm1,block,(1,5)), reachable(psm1,block,(1,6)), reachable(psm1,block,(1,7)), reachable(psm1,block,(1,8)), reachable(psm1,block,(2,1)), reachable(psm1,block,(2,2)), reachable(psm1,block,(2,3)), reachable(psm1,block,(2,4)), reachable(psm1,block,(2,5)), reachable(psm1,block,(2,6)), reachable(psm1,block,(2,7)), reachable(psm1,block,(2,8)), reachable(psm1,block,(3,1)), reachable(psm1,block,(3,2)), reachable(psm1,block,(3,3)), reachable(psm1,block,(3,4)), reachable(psm1,block,(3,5)), reachable(psm1,block,(3,6)), reachable(psm1,block,(3,7)), reachable(psm1,block,(3,8)), reachable(psm1,block,(4,1)), reachable(psm1,block,(4,2)), reachable(psm1,block,(4,3)), reachable(psm1,block,(4,4)), reachable(psm1,block,(4,5)), reachable(psm1,block,(4,6)), reachable(psm1,block,(4,7)), reachable(psm1,block,(4,8)), reachable(psm2,block,(5,1)), reachable(psm2,block,(5,2)), reachable(psm2,block,(5,3)), reachable(psm2,block,(5,4)), reachable(psm2,block,(5,5)), reachable(psm2,block,(5,6)), reachable(psm2,block,(5,7)), reachable(psm2,block,(5,8)), reachable(psm2,block,(6,1)), reachable(psm2,block,(6,2)), reachable(psm2,block,(6,3)), reachable(psm2,block,(6,4)), reachable(psm2,block,(6,5)), reachable(psm2,block,(6,6)), reachable(psm2,block,(6,7)), reachable(psm2,block,(6,8)), reachable(psm2,block,(7,1)), reachable(psm2,block,(7,2)), reachable(psm2,block,(7,3)), reachable(psm2,block,(7,4)), reachable(psm2,block,(7,5)), reachable(psm2,block,(7,6)), reachable(psm2,block,(7,7)), reachable(psm2,block,(7,8)), reachable(psm2,block,(8,1)), reachable(psm2,block,(8,2)), reachable(psm2,block,(8,3)), reachable(psm2,block,(8,4)), reachable(psm2,block,(8,5)), reachable(psm2,block,(8,6)), reachable(psm2,block,(8,7)), reachable(psm2,block,(8,8)), fixed((6,4)), fixed((3,4)), fixed((1,6)), fixed((1,1)), fixed((5,7)), fixed((5,4)), fixed((7,1)), fixed((3,7)), fixed((3,5)), fixed((3,3)), fixed((4,4)), fixed((5,5)), fixed((2,7)), fixed((4,7)), fixed((4,3)), fixed((1,3)), fixed((6,6)), fixed((3,1)), fixed((4,5)), fixed((2,6)), fixed((6,5)), fixed((6,3)), fixed((1,5)), fixed((5,6)), fixed((2,1)), fixed((6,2)), fixed((5,2)), fixed((3,6)), fixed((3,8)), fixed((4,8)), fixed((2,5)), fixed((4,2)), fixed((5,1)), fixed((4,6)), above_tumor((8,2)), |reach(psm2,block,(8,8),1), grasp(psm2,block,(8,8),2), pull(psm2,block,(8,8),3), 
2.86738705635|reachable(psm1,block,(1,1)), reachable(psm1,block,(1,2)), reachable(psm1,block,(1,3)), reachable(psm1,block,(1,4)), reachable(psm1,block,(1,5)), reachable(psm1,block,(1,6)), reachable(psm1,block,(1,7)), reachable(psm1,block,(1,8)), reachable(psm1,block,(2,1)), reachable(psm1,block,(2,2)), reachable(psm1,block,(2,3)), reachable(psm1,block,(2,4)), reachable(psm1,block,(2,5)), reachable(psm1,block,(2,6)), reachable(psm1,block,(2,7)), reachable(psm1,block,(2,8)), reachable(psm1,block,(3,1)), reachable(psm1,block,(3,2)), reachable(psm1,block,(3,3)), reachable(psm1,block,(3,4)), reachable(psm1,block,(3,5)), reachable(psm1,block,(3,6)), reachable(psm1,block,(3,7)), reachable(psm1,block,(3,8)), reachable(psm1,block,(4,1)), reachable(psm1,block,(4,2)), reachable(psm1,block,(4,3)), reachable(psm1,block,(4,4)), reachable(psm1,block,(4,5)), reachable(psm1,block,(4,6)), reachable(psm1,block,(4,7)), reachable(psm1,block,(4,8)), reachable(psm2,block,(5,1)), reachable(psm2,block,(5,2)), reachable(psm2,block,(5,3)), reachable(psm2,block,(5,4)), reachable(psm2,block,(5,5)), reachable(psm2,block,(5,6)), reachable(psm2,block,(5,7)), reachable(psm2,block,(5,8)), reachable(psm2,block,(6,1)), reachable(psm2,block,(6,2)), reachable(psm2,block,(6,3)), reachable(psm2,block,(6,4)), reachable(psm2,block,(6,5)), reachable(psm2,block,(6,6)), reachable(psm2,block,(6,7)), reachable(psm2,block,(6,8)), reachable(psm2,block,(7,1)), reachable(psm2,block,(7,2)), reachable(psm2,block,(7,3)), reachable(psm2,block,(7,4)), reachable(psm2,block,(7,5)), reachable(psm2,block,(7,6)), reachable(psm2,block,(7,7)), reachable(psm2,block,(7,8)), reachable(psm2,block,(8,1)), reachable(psm2,block,(8,2)), reachable(psm2,block,(8,3)), reachable(psm2,block,(8,4)), reachable(psm2,block,(8,5)), reachable(psm2,block,(8,6)), reachable(psm2,block,(8,7)), reachable(psm2,block,(8,8)), fixed((1,2)), fixed((3,2)), fixed((3,1)), fixed((2,1)), fixed((4,5)), fixed((4,1)), fixed((2,8)), fixed((5,2)), fixed((1,1)), fixed((2,5)), fixed((3,6)), fixed((2,6)), fixed((2,3)), fixed((3,7)), fixed((1,3)), fixed((5,3)), fixed((5,4)), fixed((5,5)), fixed((4,6)), fixed((4,8)), fixed((3,8)), fixed((6,4)), fixed((2,7)), fixed((7,1)), fixed((6,3)), fixed((3,3)), fixed((1,6)), fixed((1,4)), fixed((2,4)), fixed((4,2)), fixed((4,7)), fixed((6,2)), fixed((6,7)), fixed((3,4)), above_tumor((7,6)), |reach(psm2,block,(8,8),1), grasp(psm2,block,(8,8),2), pull(psm2,block,(8,8),3), 
2.89137506485|reachable(psm1,block,(1,1)), reachable(psm1,block,(1,2)), reachable(psm1,block,(1,3)), reachable(psm1,block,(1,4)), reachable(psm1,block,(1,5)), reachable(psm1,block,(1,6)), reachable(psm1,block,(1,7)), reachable(psm1,block,(1,8)), reachable(psm1,block,(2,1)), reachable(psm1,block,(2,2)), reachable(psm1,block,(2,3)), reachable(psm1,block,(2,4)), reachable(psm1,block,(2,5)), reachable(psm1,block,(2,6)), reachable(psm1,block,(2,7)), reachable(psm1,block,(2,8)), reachable(psm1,block,(3,1)), reachable(psm1,block,(3,2)), reachable(psm1,block,(3,3)), reachable(psm1,block,(3,4)), reachable(psm1,block,(3,5)), reachable(psm1,block,(3,6)), reachable(psm1,block,(3,7)), reachable(psm1,block,(3,8)), reachable(psm1,block,(4,1)), reachable(psm1,block,(4,2)), reachable(psm1,block,(4,3)), reachable(psm1,block,(4,4)), reachable(psm1,block,(4,5)), reachable(psm1,block,(4,6)), reachable(psm1,block,(4,7)), reachable(psm1,block,(4,8)), reachable(psm2,block,(5,1)), reachable(psm2,block,(5,2)), reachable(psm2,block,(5,3)), reachable(psm2,block,(5,4)), reachable(psm2,block,(5,5)), reachable(psm2,block,(5,6)), reachable(psm2,block,(5,7)), reachable(psm2,block,(5,8)), reachable(psm2,block,(6,1)), reachable(psm2,block,(6,2)), reachable(psm2,block,(6,3)), reachable(psm2,block,(6,4)), reachable(psm2,block,(6,5)), reachable(psm2,block,(6,6)), reachable(psm2,block,(6,7)), reachable(psm2,block,(6,8)), reachable(psm2,block,(7,1)), reachable(psm2,block,(7,2)), reachable(psm2,block,(7,3)), reachable(psm2,block,(7,4)), reachable(psm2,block,(7,5)), reachable(psm2,block,(7,6)), reachable(psm2,block,(7,7)), reachable(psm2,block,(7,8)), reachable(psm2,block,(8,1)), reachable(psm2,block,(8,2)), reachable(psm2,block,(8,3)), reachable(psm2,block,(8,4)), reachable(psm2,block,(8,5)), reachable(psm2,block,(8,6)), reachable(psm2,block,(8,7)), reachable(psm2,block,(8,8)), fixed((5,8)), fixed((2,1)), fixed((4,4)), fixed((6,3)), fixed((6,5)), fixed((6,6)), fixed((1,1)), fixed((3,5)), fixed((3,6)), fixed((2,5)), fixed((3,4)), fixed((4,7)), fixed((1,3)), fixed((5,3)), fixed((1,7)), fixed((4,5)), fixed((2,4)), fixed((4,8)), fixed((4,6)), fixed((5,6)), fixed((1,5)), fixed((2,2)), fixed((6,7)), fixed((1,8)), fixed((4,3)), fixed((2,8)), fixed((7,1)), fixed((5,5)), fixed((2,3)), fixed((1,4)), fixed((5,7)), fixed((3,2)), fixed((1,2)), fixed((2,6)), above_tumor((7,5)), |reach(psm2,block,(8,8),1), grasp(psm2,block,(8,8),2), pull(psm2,block,(8,8),3), 
2.85937190056|reachable(psm1,block,(1,1)), reachable(psm1,block,(1,2)), reachable(psm1,block,(1,3)), reachable(psm1,block,(1,4)), reachable(psm1,block,(1,5)), reachable(psm1,block,(1,6)), reachable(psm1,block,(1,7)), reachable(psm1,block,(1,8)), reachable(psm1,block,(2,1)), reachable(psm1,block,(2,2)), reachable(psm1,block,(2,3)), reachable(psm1,block,(2,4)), reachable(psm1,block,(2,5)), reachable(psm1,block,(2,6)), reachable(psm1,block,(2,7)), reachable(psm1,block,(2,8)), reachable(psm1,block,(3,1)), reachable(psm1,block,(3,2)), reachable(psm1,block,(3,3)), reachable(psm1,block,(3,4)), reachable(psm1,block,(3,5)), reachable(psm1,block,(3,6)), reachable(psm1,block,(3,7)), reachable(psm1,block,(3,8)), reachable(psm1,block,(4,1)), reachable(psm1,block,(4,2)), reachable(psm1,block,(4,3)), reachable(psm1,block,(4,4)), reachable(psm1,block,(4,5)), reachable(psm1,block,(4,6)), reachable(psm1,block,(4,7)), reachable(psm1,block,(4,8)), reachable(psm2,block,(5,1)), reachable(psm2,block,(5,2)), reachable(psm2,block,(5,3)), reachable(psm2,block,(5,4)), reachable(psm2,block,(5,5)), reachable(psm2,block,(5,6)), reachable(psm2,block,(5,7)), reachable(psm2,block,(5,8)), reachable(psm2,block,(6,1)), reachable(psm2,block,(6,2)), reachable(psm2,block,(6,3)), reachable(psm2,block,(6,4)), reachable(psm2,block,(6,5)), reachable(psm2,block,(6,6)), reachable(psm2,block,(6,7)), reachable(psm2,block,(6,8)), reachable(psm2,block,(7,1)), reachable(psm2,block,(7,2)), reachable(psm2,block,(7,3)), reachable(psm2,block,(7,4)), reachable(psm2,block,(7,5)), reachable(psm2,block,(7,6)), reachable(psm2,block,(7,7)), reachable(psm2,block,(7,8)), reachable(psm2,block,(8,1)), reachable(psm2,block,(8,2)), reachable(psm2,block,(8,3)), reachable(psm2,block,(8,4)), reachable(psm2,block,(8,5)), reachable(psm2,block,(8,6)), reachable(psm2,block,(8,7)), reachable(psm2,block,(8,8)), fixed((4,5)), fixed((7,1)), fixed((4,1)), fixed((1,5)), fixed((3,1)), fixed((4,6)), fixed((1,4)), fixed((1,1)), fixed((4,7)), fixed((6,7)), fixed((6,5)), fixed((5,3)), fixed((6,6)), fixed((2,3)), fixed((6,3)), fixed((1,3)), fixed((3,4)), fixed((3,6)), fixed((5,8)), fixed((1,2)), fixed((3,7)), fixed((3,8)), fixed((5,4)), fixed((5,6)), fixed((5,5)), fixed((4,2)), fixed((1,6)), fixed((5,2)), fixed((4,3)), fixed((3,2)), fixed((5,7)), fixed((4,4)), fixed((6,2)), fixed((6,8)), above_tumor((7,8)), |reach(psm2,block,(8,8),1), grasp(psm2,block,(8,8),2), pull(psm2,block,(8,8),3), 
2.88859319687|reachable(psm1,block,(1,1)), reachable(psm1,block,(1,2)), reachable(psm1,block,(1,3)), reachable(psm1,block,(1,4)), reachable(psm1,block,(1,5)), reachable(psm1,block,(1,6)), reachable(psm1,block,(1,7)), reachable(psm1,block,(1,8)), reachable(psm1,block,(2,1)), reachable(psm1,block,(2,2)), reachable(psm1,block,(2,3)), reachable(psm1,block,(2,4)), reachable(psm1,block,(2,5)), reachable(psm1,block,(2,6)), reachable(psm1,block,(2,7)), reachable(psm1,block,(2,8)), reachable(psm1,block,(3,1)), reachable(psm1,block,(3,2)), reachable(psm1,block,(3,3)), reachable(psm1,block,(3,4)), reachable(psm1,block,(3,5)), reachable(psm1,block,(3,6)), reachable(psm1,block,(3,7)), reachable(psm1,block,(3,8)), reachable(psm1,block,(4,1)), reachable(psm1,block,(4,2)), reachable(psm1,block,(4,3)), reachable(psm1,block,(4,4)), reachable(psm1,block,(4,5)), reachable(psm1,block,(4,6)), reachable(psm1,block,(4,7)), reachable(psm1,block,(4,8)), reachable(psm2,block,(5,1)), reachable(psm2,block,(5,2)), reachable(psm2,block,(5,3)), reachable(psm2,block,(5,4)), reachable(psm2,block,(5,5)), reachable(psm2,block,(5,6)), reachable(psm2,block,(5,7)), reachable(psm2,block,(5,8)), reachable(psm2,block,(6,1)), reachable(psm2,block,(6,2)), reachable(psm2,block,(6,3)), reachable(psm2,block,(6,4)), reachable(psm2,block,(6,5)), reachable(psm2,block,(6,6)), reachable(psm2,block,(6,7)), reachable(psm2,block,(6,8)), reachable(psm2,block,(7,1)), reachable(psm2,block,(7,2)), reachable(psm2,block,(7,3)), reachable(psm2,block,(7,4)), reachable(psm2,block,(7,5)), reachable(psm2,block,(7,6)), reachable(psm2,block,(7,7)), reachable(psm2,block,(7,8)), reachable(psm2,block,(8,1)), reachable(psm2,block,(8,2)), reachable(psm2,block,(8,3)), reachable(psm2,block,(8,4)), reachable(psm2,block,(8,5)), reachable(psm2,block,(8,6)), reachable(psm2,block,(8,7)), reachable(psm2,block,(8,8)), fixed((4,4)), fixed((1,8)), fixed((2,8)), fixed((6,4)), fixed((3,4)), fixed((5,3)), fixed((5,7)), fixed((4,1)), fixed((5,8)), fixed((4,2)), fixed((6,7)), fixed((1,1)), fixed((1,3)), fixed((4,7)), fixed((2,3)), fixed((1,2)), fixed((3,8)), fixed((3,2)), fixed((5,5)), fixed((6,8)), fixed((1,5)), fixed((6,2)), fixed((4,3)), fixed((1,6)), fixed((6,1)), fixed((2,6)), fixed((2,7)), fixed((5,6)), fixed((5,4)), fixed((6,3)), fixed((4,8)), fixed((1,7)), fixed((5,1)), fixed((6,6)), above_tumor((7,7)), |reach(psm2,block,(8,8),1), grasp(psm2,block,(8,8),2), pull(psm2,block,(8,8),3), 
2.8817460537|reachable(psm1,block,(1,1)), reachable(psm1,block,(1,2)), reachable(psm1,block,(1,3)), reachable(psm1,block,(1,4)), reachable(psm1,block,(1,5)), reachable(psm1,block,(1,6)), reachable(psm1,block,(1,7)), reachable(psm1,block,(1,8)), reachable(psm1,block,(2,1)), reachable(psm1,block,(2,2)), reachable(psm1,block,(2,3)), reachable(psm1,block,(2,4)), reachable(psm1,block,(2,5)), reachable(psm1,block,(2,6)), reachable(psm1,block,(2,7)), reachable(psm1,block,(2,8)), reachable(psm1,block,(3,1)), reachable(psm1,block,(3,2)), reachable(psm1,block,(3,3)), reachable(psm1,block,(3,4)), reachable(psm1,block,(3,5)), reachable(psm1,block,(3,6)), reachable(psm1,block,(3,7)), reachable(psm1,block,(3,8)), reachable(psm1,block,(4,1)), reachable(psm1,block,(4,2)), reachable(psm1,block,(4,3)), reachable(psm1,block,(4,4)), reachable(psm1,block,(4,5)), reachable(psm1,block,(4,6)), reachable(psm1,block,(4,7)), reachable(psm1,block,(4,8)), reachable(psm2,block,(5,1)), reachable(psm2,block,(5,2)), reachable(psm2,block,(5,3)), reachable(psm2,block,(5,4)), reachable(psm2,block,(5,5)), reachable(psm2,block,(5,6)), reachable(psm2,block,(5,7)), reachable(psm2,block,(5,8)), reachable(psm2,block,(6,1)), reachable(psm2,block,(6,2)), reachable(psm2,block,(6,3)), reachable(psm2,block,(6,4)), reachable(psm2,block,(6,5)), reachable(psm2,block,(6,6)), reachable(psm2,block,(6,7)), reachable(psm2,block,(6,8)), reachable(psm2,block,(7,1)), reachable(psm2,block,(7,2)), reachable(psm2,block,(7,3)), reachable(psm2,block,(7,4)), reachable(psm2,block,(7,5)), reachable(psm2,block,(7,6)), reachable(psm2,block,(7,7)), reachable(psm2,block,(7,8)), reachable(psm2,block,(8,1)), reachable(psm2,block,(8,2)), reachable(psm2,block,(8,3)), reachable(psm2,block,(8,4)), reachable(psm2,block,(8,5)), reachable(psm2,block,(8,6)), reachable(psm2,block,(8,7)), reachable(psm2,block,(8,8)), fixed((4,8)), fixed((5,5)), fixed((5,7)), fixed((6,3)), fixed((1,6)), fixed((1,4)), fixed((2,4)), fixed((2,6)), fixed((2,8)), fixed((5,8)), fixed((4,5)), fixed((2,3)), fixed((7,1)), fixed((1,1)), fixed((6,6)), fixed((3,4)), fixed((2,1)), fixed((3,1)), fixed((3,2)), fixed((1,2)), fixed((1,8)), fixed((5,6)), fixed((5,4)), fixed((5,1)), fixed((4,6)), fixed((3,7)), fixed((3,8)), fixed((1,5)), fixed((1,3)), fixed((3,6)), fixed((4,3)), fixed((6,8)), fixed((1,7)), fixed((4,4)), above_tumor((8,7)), |reach(psm2,block,(8,8),1), grasp(psm2,block,(8,8),2), pull(psm2,block,(8,8),3), 
2.88442492485|reachable(psm1,block,(1,1)), reachable(psm1,block,(1,2)), reachable(psm1,block,(1,3)), reachable(psm1,block,(1,4)), reachable(psm1,block,(1,5)), reachable(psm1,block,(1,6)), reachable(psm1,block,(1,7)), reachable(psm1,block,(1,8)), reachable(psm1,block,(2,1)), reachable(psm1,block,(2,2)), reachable(psm1,block,(2,3)), reachable(psm1,block,(2,4)), reachable(psm1,block,(2,5)), reachable(psm1,block,(2,6)), reachable(psm1,block,(2,7)), reachable(psm1,block,(2,8)), reachable(psm1,block,(3,1)), reachable(psm1,block,(3,2)), reachable(psm1,block,(3,3)), reachable(psm1,block,(3,4)), reachable(psm1,block,(3,5)), reachable(psm1,block,(3,6)), reachable(psm1,block,(3,7)), reachable(psm1,block,(3,8)), reachable(psm1,block,(4,1)), reachable(psm1,block,(4,2)), reachable(psm1,block,(4,3)), reachable(psm1,block,(4,4)), reachable(psm1,block,(4,5)), reachable(psm1,block,(4,6)), reachable(psm1,block,(4,7)), reachable(psm1,block,(4,8)), reachable(psm2,block,(5,1)), reachable(psm2,block,(5,2)), reachable(psm2,block,(5,3)), reachable(psm2,block,(5,4)), reachable(psm2,block,(5,5)), reachable(psm2,block,(5,6)), reachable(psm2,block,(5,7)), reachable(psm2,block,(5,8)), reachable(psm2,block,(6,1)), reachable(psm2,block,(6,2)), reachable(psm2,block,(6,3)), reachable(psm2,block,(6,4)), reachable(psm2,block,(6,5)), reachable(psm2,block,(6,6)), reachable(psm2,block,(6,7)), reachable(psm2,block,(6,8)), reachable(psm2,block,(7,1)), reachable(psm2,block,(7,2)), reachable(psm2,block,(7,3)), reachable(psm2,block,(7,4)), reachable(psm2,block,(7,5)), reachable(psm2,block,(7,6)), reachable(psm2,block,(7,7)), reachable(psm2,block,(7,8)), reachable(psm2,block,(8,1)), reachable(psm2,block,(8,2)), reachable(psm2,block,(8,3)), reachable(psm2,block,(8,4)), reachable(psm2,block,(8,5)), reachable(psm2,block,(8,6)), reachable(psm2,block,(8,7)), reachable(psm2,block,(8,8)), fixed((1,2)), fixed((4,7)), fixed((3,3)), fixed((5,5)), fixed((4,4)), fixed((1,4)), fixed((6,2)), fixed((6,8)), fixed((6,7)), fixed((3,7)), fixed((2,1)), fixed((6,6)), fixed((2,6)), fixed((1,1)), fixed((2,4)), fixed((3,5)), fixed((4,5)), fixed((4,3)), fixed((5,7)), fixed((1,7)), fixed((3,6)), fixed((3,1)), fixed((2,5)), fixed((7,1)), fixed((5,1)), fixed((1,5)), fixed((5,3)), fixed((5,8)), fixed((2,7)), fixed((4,2)), fixed((3,4)), fixed((5,6)), fixed((3,8)), fixed((2,3)), above_tumor((8,6)), |reach(psm2,block,(8,8),1), grasp(psm2,block,(8,8),2), pull(psm2,block,(8,8),3), 
2.90278816223|reachable(psm1,block,(1,1)), reachable(psm1,block,(1,2)), reachable(psm1,block,(1,3)), reachable(psm1,block,(1,4)), reachable(psm1,block,(1,5)), reachable(psm1,block,(1,6)), reachable(psm1,block,(1,7)), reachable(psm1,block,(1,8)), reachable(psm1,block,(2,1)), reachable(psm1,block,(2,2)), reachable(psm1,block,(2,3)), reachable(psm1,block,(2,4)), reachable(psm1,block,(2,5)), reachable(psm1,block,(2,6)), reachable(psm1,block,(2,7)), reachable(psm1,block,(2,8)), reachable(psm1,block,(3,1)), reachable(psm1,block,(3,2)), reachable(psm1,block,(3,3)), reachable(psm1,block,(3,4)), reachable(psm1,block,(3,5)), reachable(psm1,block,(3,6)), reachable(psm1,block,(3,7)), reachable(psm1,block,(3,8)), reachable(psm1,block,(4,1)), reachable(psm1,block,(4,2)), reachable(psm1,block,(4,3)), reachable(psm1,block,(4,4)), reachable(psm1,block,(4,5)), reachable(psm1,block,(4,6)), reachable(psm1,block,(4,7)), reachable(psm1,block,(4,8)), reachable(psm2,block,(5,1)), reachable(psm2,block,(5,2)), reachable(psm2,block,(5,3)), reachable(psm2,block,(5,4)), reachable(psm2,block,(5,5)), reachable(psm2,block,(5,6)), reachable(psm2,block,(5,7)), reachable(psm2,block,(5,8)), reachable(psm2,block,(6,1)), reachable(psm2,block,(6,2)), reachable(psm2,block,(6,3)), reachable(psm2,block,(6,4)), reachable(psm2,block,(6,5)), reachable(psm2,block,(6,6)), reachable(psm2,block,(6,7)), reachable(psm2,block,(6,8)), reachable(psm2,block,(7,1)), reachable(psm2,block,(7,2)), reachable(psm2,block,(7,3)), reachable(psm2,block,(7,4)), reachable(psm2,block,(7,5)), reachable(psm2,block,(7,6)), reachable(psm2,block,(7,7)), reachable(psm2,block,(7,8)), reachable(psm2,block,(8,1)), reachable(psm2,block,(8,2)), reachable(psm2,block,(8,3)), reachable(psm2,block,(8,4)), reachable(psm2,block,(8,5)), reachable(psm2,block,(8,6)), reachable(psm2,block,(8,7)), reachable(psm2,block,(8,8)), fixed((4,7)), fixed((2,6)), fixed((1,5)), fixed((4,5)), fixed((5,1)), fixed((2,3)), fixed((1,4)), fixed((2,8)), fixed((6,2)), fixed((5,8)), fixed((3,8)), fixed((1,7)), fixed((6,8)), fixed((3,2)), fixed((3,3)), fixed((1,3)), fixed((6,5)), fixed((2,5)), fixed((3,6)), fixed((5,3)), fixed((5,4)), fixed((3,5)), fixed((2,2)), fixed((6,6)), fixed((7,1)), fixed((6,7)), fixed((5,5)), fixed((2,1)), fixed((1,6)), fixed((3,4)), fixed((5,6)), fixed((5,2)), fixed((5,7)), fixed((4,4)), above_tumor((7,4)), |reach(psm2,block,(8,8),1), grasp(psm2,block,(8,8),2), pull(psm2,block,(8,8),3), 
2.86830997467|reachable(psm1,block,(1,1)), reachable(psm1,block,(1,2)), reachable(psm1,block,(1,3)), reachable(psm1,block,(1,4)), reachable(psm1,block,(1,5)), reachable(psm1,block,(1,6)), reachable(psm1,block,(1,7)), reachable(psm1,block,(1,8)), reachable(psm1,block,(2,1)), reachable(psm1,block,(2,2)), reachable(psm1,block,(2,3)), reachable(psm1,block,(2,4)), reachable(psm1,block,(2,5)), reachable(psm1,block,(2,6)), reachable(psm1,block,(2,7)), reachable(psm1,block,(2,8)), reachable(psm1,block,(3,1)), reachable(psm1,block,(3,2)), reachable(psm1,block,(3,3)), reachable(psm1,block,(3,4)), reachable(psm1,block,(3,5)), reachable(psm1,block,(3,6)), reachable(psm1,block,(3,7)), reachable(psm1,block,(3,8)), reachable(psm1,block,(4,1)), reachable(psm1,block,(4,2)), reachable(psm1,block,(4,3)), reachable(psm1,block,(4,4)), reachable(psm1,block,(4,5)), reachable(psm1,block,(4,6)), reachable(psm1,block,(4,7)), reachable(psm1,block,(4,8)), reachable(psm2,block,(5,1)), reachable(psm2,block,(5,2)), reachable(psm2,block,(5,3)), reachable(psm2,block,(5,4)), reachable(psm2,block,(5,5)), reachable(psm2,block,(5,6)), reachable(psm2,block,(5,7)), reachable(psm2,block,(5,8)), reachable(psm2,block,(6,1)), reachable(psm2,block,(6,2)), reachable(psm2,block,(6,3)), reachable(psm2,block,(6,4)), reachable(psm2,block,(6,5)), reachable(psm2,block,(6,6)), reachable(psm2,block,(6,7)), reachable(psm2,block,(6,8)), reachable(psm2,block,(7,1)), reachable(psm2,block,(7,2)), reachable(psm2,block,(7,3)), reachable(psm2,block,(7,4)), reachable(psm2,block,(7,5)), reachable(psm2,block,(7,6)), reachable(psm2,block,(7,7)), reachable(psm2,block,(7,8)), reachable(psm2,block,(8,1)), reachable(psm2,block,(8,2)), reachable(psm2,block,(8,3)), reachable(psm2,block,(8,4)), reachable(psm2,block,(8,5)), reachable(psm2,block,(8,6)), reachable(psm2,block,(8,7)), reachable(psm2,block,(8,8)), fixed((3,3)), fixed((4,7)), fixed((5,3)), fixed((5,5)), fixed((3,8)), fixed((6,2)), fixed((1,5)), fixed((1,4)), fixed((1,3)), fixed((3,4)), fixed((1,6)), fixed((4,8)), fixed((3,5)), fixed((2,3)), fixed((6,3)), fixed((2,6)), fixed((4,2)), fixed((2,2)), fixed((5,1)), fixed((6,6)), fixed((6,8)), fixed((2,8)), fixed((3,1)), fixed((2,7)), fixed((6,1)), fixed((4,6)), fixed((2,4)), fixed((4,4)), fixed((4,5)), fixed((5,7)), fixed((1,7)), fixed((6,5)), fixed((1,2)), fixed((1,1)), above_tumor((7,6)), |reach(psm2,block,(8,8),1), grasp(psm2,block,(8,8),2), pull(psm2,block,(8,8),3), 
2.88831114769|reachable(psm1,block,(1,1)), reachable(psm1,block,(1,2)), reachable(psm1,block,(1,3)), reachable(psm1,block,(1,4)), reachable(psm1,block,(1,5)), reachable(psm1,block,(1,6)), reachable(psm1,block,(1,7)), reachable(psm1,block,(1,8)), reachable(psm1,block,(2,1)), reachable(psm1,block,(2,2)), reachable(psm1,block,(2,3)), reachable(psm1,block,(2,4)), reachable(psm1,block,(2,5)), reachable(psm1,block,(2,6)), reachable(psm1,block,(2,7)), reachable(psm1,block,(2,8)), reachable(psm1,block,(3,1)), reachable(psm1,block,(3,2)), reachable(psm1,block,(3,3)), reachable(psm1,block,(3,4)), reachable(psm1,block,(3,5)), reachable(psm1,block,(3,6)), reachable(psm1,block,(3,7)), reachable(psm1,block,(3,8)), reachable(psm1,block,(4,1)), reachable(psm1,block,(4,2)), reachable(psm1,block,(4,3)), reachable(psm1,block,(4,4)), reachable(psm1,block,(4,5)), reachable(psm1,block,(4,6)), reachable(psm1,block,(4,7)), reachable(psm1,block,(4,8)), reachable(psm2,block,(5,1)), reachable(psm2,block,(5,2)), reachable(psm2,block,(5,3)), reachable(psm2,block,(5,4)), reachable(psm2,block,(5,5)), reachable(psm2,block,(5,6)), reachable(psm2,block,(5,7)), reachable(psm2,block,(5,8)), reachable(psm2,block,(6,1)), reachable(psm2,block,(6,2)), reachable(psm2,block,(6,3)), reachable(psm2,block,(6,4)), reachable(psm2,block,(6,5)), reachable(psm2,block,(6,6)), reachable(psm2,block,(6,7)), reachable(psm2,block,(6,8)), reachable(psm2,block,(7,1)), reachable(psm2,block,(7,2)), reachable(psm2,block,(7,3)), reachable(psm2,block,(7,4)), reachable(psm2,block,(7,5)), reachable(psm2,block,(7,6)), reachable(psm2,block,(7,7)), reachable(psm2,block,(7,8)), reachable(psm2,block,(8,1)), reachable(psm2,block,(8,2)), reachable(psm2,block,(8,3)), reachable(psm2,block,(8,4)), reachable(psm2,block,(8,5)), reachable(psm2,block,(8,6)), reachable(psm2,block,(8,7)), reachable(psm2,block,(8,8)), fixed((2,2)), fixed((4,5)), fixed((3,1)), fixed((6,7)), fixed((7,1)), fixed((3,4)), fixed((1,5)), fixed((5,2)), fixed((6,3)), fixed((4,2)), fixed((6,5)), fixed((3,2)), fixed((3,8)), fixed((1,1)), fixed((2,8)), fixed((2,4)), fixed((2,6)), fixed((2,3)), fixed((5,4)), fixed((2,7)), fixed((5,7)), fixed((2,1)), fixed((1,3)), fixed((5,1)), fixed((4,3)), fixed((4,1)), fixed((1,8)), fixed((3,3)), fixed((6,2)), fixed((3,6)), fixed((6,8)), fixed((5,5)), fixed((1,7)), fixed((4,4)), above_tumor((7,6)), |reach(psm2,block,(8,8),1), grasp(psm2,block,(8,8),2), pull(psm2,block,(8,8),3), 
2.88447904587|reachable(psm1,block,(1,1)), reachable(psm1,block,(1,2)), reachable(psm1,block,(1,3)), reachable(psm1,block,(1,4)), reachable(psm1,block,(1,5)), reachable(psm1,block,(1,6)), reachable(psm1,block,(1,7)), reachable(psm1,block,(1,8)), reachable(psm1,block,(2,1)), reachable(psm1,block,(2,2)), reachable(psm1,block,(2,3)), reachable(psm1,block,(2,4)), reachable(psm1,block,(2,5)), reachable(psm1,block,(2,6)), reachable(psm1,block,(2,7)), reachable(psm1,block,(2,8)), reachable(psm1,block,(3,1)), reachable(psm1,block,(3,2)), reachable(psm1,block,(3,3)), reachable(psm1,block,(3,4)), reachable(psm1,block,(3,5)), reachable(psm1,block,(3,6)), reachable(psm1,block,(3,7)), reachable(psm1,block,(3,8)), reachable(psm1,block,(4,1)), reachable(psm1,block,(4,2)), reachable(psm1,block,(4,3)), reachable(psm1,block,(4,4)), reachable(psm1,block,(4,5)), reachable(psm1,block,(4,6)), reachable(psm1,block,(4,7)), reachable(psm1,block,(4,8)), reachable(psm2,block,(5,1)), reachable(psm2,block,(5,2)), reachable(psm2,block,(5,3)), reachable(psm2,block,(5,4)), reachable(psm2,block,(5,5)), reachable(psm2,block,(5,6)), reachable(psm2,block,(5,7)), reachable(psm2,block,(5,8)), reachable(psm2,block,(6,1)), reachable(psm2,block,(6,2)), reachable(psm2,block,(6,3)), reachable(psm2,block,(6,4)), reachable(psm2,block,(6,5)), reachable(psm2,block,(6,6)), reachable(psm2,block,(6,7)), reachable(psm2,block,(6,8)), reachable(psm2,block,(7,1)), reachable(psm2,block,(7,2)), reachable(psm2,block,(7,3)), reachable(psm2,block,(7,4)), reachable(psm2,block,(7,5)), reachable(psm2,block,(7,6)), reachable(psm2,block,(7,7)), reachable(psm2,block,(7,8)), reachable(psm2,block,(8,1)), reachable(psm2,block,(8,2)), reachable(psm2,block,(8,3)), reachable(psm2,block,(8,4)), reachable(psm2,block,(8,5)), reachable(psm2,block,(8,6)), reachable(psm2,block,(8,7)), reachable(psm2,block,(8,8)), fixed((1,8)), fixed((1,2)), fixed((2,5)), fixed((5,3)), fixed((1,4)), fixed((1,1)), fixed((1,5)), fixed((4,4)), fixed((2,4)), fixed((4,2)), fixed((1,7)), fixed((6,2)), fixed((3,4)), fixed((1,6)), fixed((6,8)), fixed((7,1)), fixed((4,1)), fixed((2,1)), fixed((4,5)), fixed((5,8)), fixed((5,5)), fixed((5,2)), fixed((6,7)), fixed((6,4)), fixed((2,8)), fixed((6,6)), fixed((5,7)), fixed((3,7)), fixed((2,2)), fixed((3,3)), fixed((6,1)), fixed((5,6)), fixed((4,8)), fixed((3,1)), above_tumor((8,8)), |reach(psm2,block,(8,8),1), grasp(psm2,block,(8,8),2), pull(psm2,block,(8,8),3), 
2.89644885063|reachable(psm1,block,(1,1)), reachable(psm1,block,(1,2)), reachable(psm1,block,(1,3)), reachable(psm1,block,(1,4)), reachable(psm1,block,(1,5)), reachable(psm1,block,(1,6)), reachable(psm1,block,(1,7)), reachable(psm1,block,(1,8)), reachable(psm1,block,(2,1)), reachable(psm1,block,(2,2)), reachable(psm1,block,(2,3)), reachable(psm1,block,(2,4)), reachable(psm1,block,(2,5)), reachable(psm1,block,(2,6)), reachable(psm1,block,(2,7)), reachable(psm1,block,(2,8)), reachable(psm1,block,(3,1)), reachable(psm1,block,(3,2)), reachable(psm1,block,(3,3)), reachable(psm1,block,(3,4)), reachable(psm1,block,(3,5)), reachable(psm1,block,(3,6)), reachable(psm1,block,(3,7)), reachable(psm1,block,(3,8)), reachable(psm1,block,(4,1)), reachable(psm1,block,(4,2)), reachable(psm1,block,(4,3)), reachable(psm1,block,(4,4)), reachable(psm1,block,(4,5)), reachable(psm1,block,(4,6)), reachable(psm1,block,(4,7)), reachable(psm1,block,(4,8)), reachable(psm2,block,(5,1)), reachable(psm2,block,(5,2)), reachable(psm2,block,(5,3)), reachable(psm2,block,(5,4)), reachable(psm2,block,(5,5)), reachable(psm2,block,(5,6)), reachable(psm2,block,(5,7)), reachable(psm2,block,(5,8)), reachable(psm2,block,(6,1)), reachable(psm2,block,(6,2)), reachable(psm2,block,(6,3)), reachable(psm2,block,(6,4)), reachable(psm2,block,(6,5)), reachable(psm2,block,(6,6)), reachable(psm2,block,(6,7)), reachable(psm2,block,(6,8)), reachable(psm2,block,(7,1)), reachable(psm2,block,(7,2)), reachable(psm2,block,(7,3)), reachable(psm2,block,(7,4)), reachable(psm2,block,(7,5)), reachable(psm2,block,(7,6)), reachable(psm2,block,(7,7)), reachable(psm2,block,(7,8)), reachable(psm2,block,(8,1)), reachable(psm2,block,(8,2)), reachable(psm2,block,(8,3)), reachable(psm2,block,(8,4)), reachable(psm2,block,(8,5)), reachable(psm2,block,(8,6)), reachable(psm2,block,(8,7)), reachable(psm2,block,(8,8)), fixed((6,5)), fixed((1,4)), fixed((4,1)), fixed((4,2)), fixed((2,7)), fixed((3,3)), fixed((5,8)), fixed((6,8)), fixed((4,6)), fixed((2,5)), fixed((3,5)), fixed((5,6)), fixed((1,5)), fixed((2,1)), fixed((5,7)), fixed((1,8)), fixed((1,6)), fixed((4,8)), fixed((5,5)), fixed((7,1)), fixed((2,3)), fixed((6,6)), fixed((4,4)), fixed((5,3)), fixed((2,2)), fixed((3,8)), fixed((2,4)), fixed((2,8)), fixed((6,3)), fixed((6,1)), fixed((4,5)), fixed((2,6)), fixed((3,2)), fixed((1,7)), above_tumor((7,3)), |reach(psm2,block,(8,1),1), grasp(psm2,block,(8,1),2), pull(psm2,block,(8,1),3), 
2.89726495743|reachable(psm1,block,(1,1)), reachable(psm1,block,(1,2)), reachable(psm1,block,(1,3)), reachable(psm1,block,(1,4)), reachable(psm1,block,(1,5)), reachable(psm1,block,(1,6)), reachable(psm1,block,(1,7)), reachable(psm1,block,(1,8)), reachable(psm1,block,(2,1)), reachable(psm1,block,(2,2)), reachable(psm1,block,(2,3)), reachable(psm1,block,(2,4)), reachable(psm1,block,(2,5)), reachable(psm1,block,(2,6)), reachable(psm1,block,(2,7)), reachable(psm1,block,(2,8)), reachable(psm1,block,(3,1)), reachable(psm1,block,(3,2)), reachable(psm1,block,(3,3)), reachable(psm1,block,(3,4)), reachable(psm1,block,(3,5)), reachable(psm1,block,(3,6)), reachable(psm1,block,(3,7)), reachable(psm1,block,(3,8)), reachable(psm1,block,(4,1)), reachable(psm1,block,(4,2)), reachable(psm1,block,(4,3)), reachable(psm1,block,(4,4)), reachable(psm1,block,(4,5)), reachable(psm1,block,(4,6)), reachable(psm1,block,(4,7)), reachable(psm1,block,(4,8)), reachable(psm2,block,(5,1)), reachable(psm2,block,(5,2)), reachable(psm2,block,(5,3)), reachable(psm2,block,(5,4)), reachable(psm2,block,(5,5)), reachable(psm2,block,(5,6)), reachable(psm2,block,(5,7)), reachable(psm2,block,(5,8)), reachable(psm2,block,(6,1)), reachable(psm2,block,(6,2)), reachable(psm2,block,(6,3)), reachable(psm2,block,(6,4)), reachable(psm2,block,(6,5)), reachable(psm2,block,(6,6)), reachable(psm2,block,(6,7)), reachable(psm2,block,(6,8)), reachable(psm2,block,(7,1)), reachable(psm2,block,(7,2)), reachable(psm2,block,(7,3)), reachable(psm2,block,(7,4)), reachable(psm2,block,(7,5)), reachable(psm2,block,(7,6)), reachable(psm2,block,(7,7)), reachable(psm2,block,(7,8)), reachable(psm2,block,(8,1)), reachable(psm2,block,(8,2)), reachable(psm2,block,(8,3)), reachable(psm2,block,(8,4)), reachable(psm2,block,(8,5)), reachable(psm2,block,(8,6)), reachable(psm2,block,(8,7)), reachable(psm2,block,(8,8)), fixed((6,5)), fixed((3,5)), fixed((7,1)), fixed((1,7)), fixed((2,1)), fixed((4,2)), fixed((5,1)), fixed((2,2)), fixed((4,4)), fixed((1,3)), fixed((3,6)), fixed((6,7)), fixed((3,2)), fixed((6,1)), fixed((2,3)), fixed((5,2)), fixed((4,7)), fixed((3,4)), fixed((6,8)), fixed((5,4)), fixed((5,5)), fixed((4,1)), fixed((4,3)), fixed((3,1)), fixed((6,6)), fixed((4,6)), fixed((3,3)), fixed((3,8)), fixed((5,8)), fixed((2,8)), fixed((1,4)), fixed((6,2)), fixed((3,7)), fixed((1,6)), above_tumor((7,7)), |reach(psm2,block,(8,8),1), grasp(psm2,block,(8,8),2), pull(psm2,block,(8,8),3), 
2.86008095741|reachable(psm1,block,(1,1)), reachable(psm1,block,(1,2)), reachable(psm1,block,(1,3)), reachable(psm1,block,(1,4)), reachable(psm1,block,(1,5)), reachable(psm1,block,(1,6)), reachable(psm1,block,(1,7)), reachable(psm1,block,(1,8)), reachable(psm1,block,(2,1)), reachable(psm1,block,(2,2)), reachable(psm1,block,(2,3)), reachable(psm1,block,(2,4)), reachable(psm1,block,(2,5)), reachable(psm1,block,(2,6)), reachable(psm1,block,(2,7)), reachable(psm1,block,(2,8)), reachable(psm1,block,(3,1)), reachable(psm1,block,(3,2)), reachable(psm1,block,(3,3)), reachable(psm1,block,(3,4)), reachable(psm1,block,(3,5)), reachable(psm1,block,(3,6)), reachable(psm1,block,(3,7)), reachable(psm1,block,(3,8)), reachable(psm1,block,(4,1)), reachable(psm1,block,(4,2)), reachable(psm1,block,(4,3)), reachable(psm1,block,(4,4)), reachable(psm1,block,(4,5)), reachable(psm1,block,(4,6)), reachable(psm1,block,(4,7)), reachable(psm1,block,(4,8)), reachable(psm2,block,(5,1)), reachable(psm2,block,(5,2)), reachable(psm2,block,(5,3)), reachable(psm2,block,(5,4)), reachable(psm2,block,(5,5)), reachable(psm2,block,(5,6)), reachable(psm2,block,(5,7)), reachable(psm2,block,(5,8)), reachable(psm2,block,(6,1)), reachable(psm2,block,(6,2)), reachable(psm2,block,(6,3)), reachable(psm2,block,(6,4)), reachable(psm2,block,(6,5)), reachable(psm2,block,(6,6)), reachable(psm2,block,(6,7)), reachable(psm2,block,(6,8)), reachable(psm2,block,(7,1)), reachable(psm2,block,(7,2)), reachable(psm2,block,(7,3)), reachable(psm2,block,(7,4)), reachable(psm2,block,(7,5)), reachable(psm2,block,(7,6)), reachable(psm2,block,(7,7)), reachable(psm2,block,(7,8)), reachable(psm2,block,(8,1)), reachable(psm2,block,(8,2)), reachable(psm2,block,(8,3)), reachable(psm2,block,(8,4)), reachable(psm2,block,(8,5)), reachable(psm2,block,(8,6)), reachable(psm2,block,(8,7)), reachable(psm2,block,(8,8)), fixed((3,4)), fixed((3,3)), fixed((2,2)), fixed((4,4)), fixed((5,4)), fixed((1,1)), fixed((1,7)), fixed((5,5)), fixed((4,3)), fixed((4,7)), fixed((6,4)), fixed((4,5)), fixed((6,2)), fixed((1,3)), fixed((2,8)), fixed((5,7)), fixed((3,7)), fixed((3,8)), fixed((3,2)), fixed((1,2)), fixed((2,5)), fixed((7,1)), fixed((6,5)), fixed((2,3)), fixed((5,1)), fixed((3,6)), fixed((1,8)), fixed((5,6)), fixed((5,2)), fixed((4,6)), fixed((1,6)), fixed((2,4)), fixed((2,1)), fixed((6,3)), above_tumor((8,6)), |reach(psm2,block,(8,1),1), grasp(psm2,block,(8,1),2), pull(psm2,block,(8,1),3), 
2.94766998291|reachable(psm1,block,(1,1)), reachable(psm1,block,(1,2)), reachable(psm1,block,(1,3)), reachable(psm1,block,(1,4)), reachable(psm1,block,(1,5)), reachable(psm1,block,(1,6)), reachable(psm1,block,(1,7)), reachable(psm1,block,(1,8)), reachable(psm1,block,(2,1)), reachable(psm1,block,(2,2)), reachable(psm1,block,(2,3)), reachable(psm1,block,(2,4)), reachable(psm1,block,(2,5)), reachable(psm1,block,(2,6)), reachable(psm1,block,(2,7)), reachable(psm1,block,(2,8)), reachable(psm1,block,(3,1)), reachable(psm1,block,(3,2)), reachable(psm1,block,(3,3)), reachable(psm1,block,(3,4)), reachable(psm1,block,(3,5)), reachable(psm1,block,(3,6)), reachable(psm1,block,(3,7)), reachable(psm1,block,(3,8)), reachable(psm1,block,(4,1)), reachable(psm1,block,(4,2)), reachable(psm1,block,(4,3)), reachable(psm1,block,(4,4)), reachable(psm1,block,(4,5)), reachable(psm1,block,(4,6)), reachable(psm1,block,(4,7)), reachable(psm1,block,(4,8)), reachable(psm2,block,(5,1)), reachable(psm2,block,(5,2)), reachable(psm2,block,(5,3)), reachable(psm2,block,(5,4)), reachable(psm2,block,(5,5)), reachable(psm2,block,(5,6)), reachable(psm2,block,(5,7)), reachable(psm2,block,(5,8)), reachable(psm2,block,(6,1)), reachable(psm2,block,(6,2)), reachable(psm2,block,(6,3)), reachable(psm2,block,(6,4)), reachable(psm2,block,(6,5)), reachable(psm2,block,(6,6)), reachable(psm2,block,(6,7)), reachable(psm2,block,(6,8)), reachable(psm2,block,(7,1)), reachable(psm2,block,(7,2)), reachable(psm2,block,(7,3)), reachable(psm2,block,(7,4)), reachable(psm2,block,(7,5)), reachable(psm2,block,(7,6)), reachable(psm2,block,(7,7)), reachable(psm2,block,(7,8)), reachable(psm2,block,(8,1)), reachable(psm2,block,(8,2)), reachable(psm2,block,(8,3)), reachable(psm2,block,(8,4)), reachable(psm2,block,(8,5)), reachable(psm2,block,(8,6)), reachable(psm2,block,(8,7)), reachable(psm2,block,(8,8)), fixed((4,5)), fixed((1,4)), fixed((6,3)), fixed((4,1)), fixed((3,1)), fixed((5,7)), fixed((3,8)), fixed((4,2)), fixed((4,6)), fixed((5,2)), fixed((3,4)), fixed((1,2)), fixed((5,5)), fixed((3,7)), fixed((1,6)), fixed((7,1)), fixed((2,5)), fixed((2,2)), fixed((4,4)), fixed((4,8)), fixed((5,3)), fixed((3,6)), fixed((1,8)), fixed((5,8)), fixed((6,2)), fixed((3,3)), fixed((2,6)), fixed((2,7)), fixed((5,6)), fixed((1,7)), fixed((1,5)), fixed((1,1)), fixed((6,6)), fixed((3,2)), above_tumor((8,4)), |reach(psm2,block,(8,1),1), grasp(psm2,block,(8,1),2), pull(psm2,block,(8,1),3), 
2.90363907814|reachable(psm1,block,(1,1)), reachable(psm1,block,(1,2)), reachable(psm1,block,(1,3)), reachable(psm1,block,(1,4)), reachable(psm1,block,(1,5)), reachable(psm1,block,(1,6)), reachable(psm1,block,(1,7)), reachable(psm1,block,(1,8)), reachable(psm1,block,(2,1)), reachable(psm1,block,(2,2)), reachable(psm1,block,(2,3)), reachable(psm1,block,(2,4)), reachable(psm1,block,(2,5)), reachable(psm1,block,(2,6)), reachable(psm1,block,(2,7)), reachable(psm1,block,(2,8)), reachable(psm1,block,(3,1)), reachable(psm1,block,(3,2)), reachable(psm1,block,(3,3)), reachable(psm1,block,(3,4)), reachable(psm1,block,(3,5)), reachable(psm1,block,(3,6)), reachable(psm1,block,(3,7)), reachable(psm1,block,(3,8)), reachable(psm1,block,(4,1)), reachable(psm1,block,(4,2)), reachable(psm1,block,(4,3)), reachable(psm1,block,(4,4)), reachable(psm1,block,(4,5)), reachable(psm1,block,(4,6)), reachable(psm1,block,(4,7)), reachable(psm1,block,(4,8)), reachable(psm2,block,(5,1)), reachable(psm2,block,(5,2)), reachable(psm2,block,(5,3)), reachable(psm2,block,(5,4)), reachable(psm2,block,(5,5)), reachable(psm2,block,(5,6)), reachable(psm2,block,(5,7)), reachable(psm2,block,(5,8)), reachable(psm2,block,(6,1)), reachable(psm2,block,(6,2)), reachable(psm2,block,(6,3)), reachable(psm2,block,(6,4)), reachable(psm2,block,(6,5)), reachable(psm2,block,(6,6)), reachable(psm2,block,(6,7)), reachable(psm2,block,(6,8)), reachable(psm2,block,(7,1)), reachable(psm2,block,(7,2)), reachable(psm2,block,(7,3)), reachable(psm2,block,(7,4)), reachable(psm2,block,(7,5)), reachable(psm2,block,(7,6)), reachable(psm2,block,(7,7)), reachable(psm2,block,(7,8)), reachable(psm2,block,(8,1)), reachable(psm2,block,(8,2)), reachable(psm2,block,(8,3)), reachable(psm2,block,(8,4)), reachable(psm2,block,(8,5)), reachable(psm2,block,(8,6)), reachable(psm2,block,(8,7)), reachable(psm2,block,(8,8)), fixed((1,5)), fixed((4,6)), fixed((6,6)), fixed((6,2)), fixed((6,5)), fixed((3,5)), fixed((5,4)), fixed((4,4)), fixed((5,2)), fixed((3,1)), fixed((2,4)), fixed((2,2)), fixed((1,7)), fixed((3,7)), fixed((3,2)), fixed((1,2)), fixed((3,8)), fixed((6,4)), fixed((4,3)), fixed((2,5)), fixed((6,7)), fixed((2,3)), fixed((4,5)), fixed((4,8)), fixed((4,7)), fixed((6,8)), fixed((6,3)), fixed((3,4)), fixed((5,5)), fixed((1,8)), fixed((5,1)), fixed((1,6)), fixed((2,8)), fixed((1,4)), above_tumor((7,4)), |reach(psm2,block,(8,1),1), grasp(psm2,block,(8,1),2), pull(psm2,block,(8,1),3), 
2.88243508339|reachable(psm1,block,(1,1)), reachable(psm1,block,(1,2)), reachable(psm1,block,(1,3)), reachable(psm1,block,(1,4)), reachable(psm1,block,(1,5)), reachable(psm1,block,(1,6)), reachable(psm1,block,(1,7)), reachable(psm1,block,(1,8)), reachable(psm1,block,(2,1)), reachable(psm1,block,(2,2)), reachable(psm1,block,(2,3)), reachable(psm1,block,(2,4)), reachable(psm1,block,(2,5)), reachable(psm1,block,(2,6)), reachable(psm1,block,(2,7)), reachable(psm1,block,(2,8)), reachable(psm1,block,(3,1)), reachable(psm1,block,(3,2)), reachable(psm1,block,(3,3)), reachable(psm1,block,(3,4)), reachable(psm1,block,(3,5)), reachable(psm1,block,(3,6)), reachable(psm1,block,(3,7)), reachable(psm1,block,(3,8)), reachable(psm1,block,(4,1)), reachable(psm1,block,(4,2)), reachable(psm1,block,(4,3)), reachable(psm1,block,(4,4)), reachable(psm1,block,(4,5)), reachable(psm1,block,(4,6)), reachable(psm1,block,(4,7)), reachable(psm1,block,(4,8)), reachable(psm2,block,(5,1)), reachable(psm2,block,(5,2)), reachable(psm2,block,(5,3)), reachable(psm2,block,(5,4)), reachable(psm2,block,(5,5)), reachable(psm2,block,(5,6)), reachable(psm2,block,(5,7)), reachable(psm2,block,(5,8)), reachable(psm2,block,(6,1)), reachable(psm2,block,(6,2)), reachable(psm2,block,(6,3)), reachable(psm2,block,(6,4)), reachable(psm2,block,(6,5)), reachable(psm2,block,(6,6)), reachable(psm2,block,(6,7)), reachable(psm2,block,(6,8)), reachable(psm2,block,(7,1)), reachable(psm2,block,(7,2)), reachable(psm2,block,(7,3)), reachable(psm2,block,(7,4)), reachable(psm2,block,(7,5)), reachable(psm2,block,(7,6)), reachable(psm2,block,(7,7)), reachable(psm2,block,(7,8)), reachable(psm2,block,(8,1)), reachable(psm2,block,(8,2)), reachable(psm2,block,(8,3)), reachable(psm2,block,(8,4)), reachable(psm2,block,(8,5)), reachable(psm2,block,(8,6)), reachable(psm2,block,(8,7)), reachable(psm2,block,(8,8)), fixed((3,3)), fixed((2,8)), fixed((2,3)), fixed((1,8)), fixed((5,5)), fixed((5,2)), fixed((2,5)), fixed((3,1)), fixed((1,2)), fixed((4,6)), fixed((1,3)), fixed((1,5)), fixed((3,4)), fixed((5,3)), fixed((4,8)), fixed((4,7)), fixed((4,5)), fixed((6,6)), fixed((4,2)), fixed((2,2)), fixed((3,7)), fixed((6,4)), fixed((5,8)), fixed((6,5)), fixed((4,4)), fixed((1,4)), fixed((2,4)), fixed((3,8)), fixed((2,1)), fixed((6,2)), fixed((1,7)), fixed((5,1)), fixed((1,1)), fixed((1,6)), above_tumor((8,2)), |reach(psm2,block,(8,1),1), grasp(psm2,block,(8,1),2), pull(psm2,block,(8,1),3), 
2.86986517906|reachable(psm1,block,(1,1)), reachable(psm1,block,(1,2)), reachable(psm1,block,(1,3)), reachable(psm1,block,(1,4)), reachable(psm1,block,(1,5)), reachable(psm1,block,(1,6)), reachable(psm1,block,(1,7)), reachable(psm1,block,(1,8)), reachable(psm1,block,(2,1)), reachable(psm1,block,(2,2)), reachable(psm1,block,(2,3)), reachable(psm1,block,(2,4)), reachable(psm1,block,(2,5)), reachable(psm1,block,(2,6)), reachable(psm1,block,(2,7)), reachable(psm1,block,(2,8)), reachable(psm1,block,(3,1)), reachable(psm1,block,(3,2)), reachable(psm1,block,(3,3)), reachable(psm1,block,(3,4)), reachable(psm1,block,(3,5)), reachable(psm1,block,(3,6)), reachable(psm1,block,(3,7)), reachable(psm1,block,(3,8)), reachable(psm1,block,(4,1)), reachable(psm1,block,(4,2)), reachable(psm1,block,(4,3)), reachable(psm1,block,(4,4)), reachable(psm1,block,(4,5)), reachable(psm1,block,(4,6)), reachable(psm1,block,(4,7)), reachable(psm1,block,(4,8)), reachable(psm2,block,(5,1)), reachable(psm2,block,(5,2)), reachable(psm2,block,(5,3)), reachable(psm2,block,(5,4)), reachable(psm2,block,(5,5)), reachable(psm2,block,(5,6)), reachable(psm2,block,(5,7)), reachable(psm2,block,(5,8)), reachable(psm2,block,(6,1)), reachable(psm2,block,(6,2)), reachable(psm2,block,(6,3)), reachable(psm2,block,(6,4)), reachable(psm2,block,(6,5)), reachable(psm2,block,(6,6)), reachable(psm2,block,(6,7)), reachable(psm2,block,(6,8)), reachable(psm2,block,(7,1)), reachable(psm2,block,(7,2)), reachable(psm2,block,(7,3)), reachable(psm2,block,(7,4)), reachable(psm2,block,(7,5)), reachable(psm2,block,(7,6)), reachable(psm2,block,(7,7)), reachable(psm2,block,(7,8)), reachable(psm2,block,(8,1)), reachable(psm2,block,(8,2)), reachable(psm2,block,(8,3)), reachable(psm2,block,(8,4)), reachable(psm2,block,(8,5)), reachable(psm2,block,(8,6)), reachable(psm2,block,(8,7)), reachable(psm2,block,(8,8)), fixed((3,5)), fixed((5,1)), fixed((2,4)), fixed((6,6)), fixed((1,8)), fixed((1,4)), fixed((4,5)), fixed((4,4)), fixed((5,5)), fixed((6,4)), fixed((1,3)), fixed((1,1)), fixed((3,6)), fixed((5,8)), fixed((1,5)), fixed((6,7)), fixed((4,2)), fixed((3,2)), fixed((1,7)), fixed((6,3)), fixed((2,8)), fixed((2,7)), fixed((6,2)), fixed((4,7)), fixed((5,6)), fixed((4,3)), fixed((6,8)), fixed((1,6)), fixed((5,2)), fixed((2,3)), fixed((5,4)), fixed((2,2)), fixed((4,8)), fixed((2,1)), above_tumor((7,8)), |reach(psm2,block,(8,8),1), grasp(psm2,block,(8,8),2), pull(psm2,block,(8,8),3), 
