0.240998983383|reachable(psm1,block,(1,1)), reachable(psm1,block,(1,2)), reachable(psm1,block,(1,3)), reachable(psm1,block,(1,4)), reachable(psm1,block,(1,5)), reachable(psm1,block,(2,1)), reachable(psm1,block,(2,2)), reachable(psm1,block,(2,3)), reachable(psm1,block,(2,4)), reachable(psm1,block,(2,5)), reachable(psm1,block,(3,1)), reachable(psm1,block,(3,2)), reachable(psm1,block,(3,3)), reachable(psm2,block,(3,4)), reachable(psm2,block,(3,5)), reachable(psm2,block,(4,1)), reachable(psm2,block,(4,2)), reachable(psm2,block,(4,3)), reachable(psm2,block,(4,4)), reachable(psm2,block,(4,5)), reachable(psm2,block,(5,1)), reachable(psm2,block,(5,2)), reachable(psm2,block,(5,3)), reachable(psm2,block,(5,4)), reachable(psm2,block,(5,5)), fixed((3,5)), fixed((3,2)), fixed((3,4)), fixed((3,1)), above_tumor((4,4)), |reach(psm2,block,(5,5),1), grasp(psm2,block,(5,5),2), pull(psm2,block,(5,5),3), 
0.306185007095|reachable(psm1,block,(1,1)), reachable(psm1,block,(1,2)), reachable(psm1,block,(1,3)), reachable(psm1,block,(1,4)), reachable(psm1,block,(1,5)), reachable(psm1,block,(2,1)), reachable(psm1,block,(2,2)), reachable(psm1,block,(2,3)), reachable(psm1,block,(2,4)), reachable(psm1,block,(2,5)), reachable(psm1,block,(3,1)), reachable(psm1,block,(3,2)), reachable(psm1,block,(3,3)), reachable(psm2,block,(3,4)), reachable(psm2,block,(3,5)), reachable(psm2,block,(4,1)), reachable(psm2,block,(4,2)), reachable(psm2,block,(4,3)), reachable(psm2,block,(4,4)), reachable(psm2,block,(4,5)), reachable(psm2,block,(5,1)), reachable(psm2,block,(5,2)), reachable(psm2,block,(5,3)), reachable(psm2,block,(5,4)), reachable(psm2,block,(5,5)), fixed((2,3)), fixed((3,5)), fixed((4,1)), fixed((1,4)), above_tumor((4,3)), |reach(psm2,block,(5,2),1), grasp(psm2,block,(5,2),2), pull(psm2,block,(5,2),3), 
0.2524330616|reachable(psm1,block,(1,1)), reachable(psm1,block,(1,2)), reachable(psm1,block,(1,3)), reachable(psm1,block,(1,4)), reachable(psm1,block,(1,5)), reachable(psm1,block,(2,1)), reachable(psm1,block,(2,2)), reachable(psm1,block,(2,3)), reachable(psm1,block,(2,4)), reachable(psm1,block,(2,5)), reachable(psm1,block,(3,1)), reachable(psm1,block,(3,2)), reachable(psm1,block,(3,3)), reachable(psm2,block,(3,4)), reachable(psm2,block,(3,5)), reachable(psm2,block,(4,1)), reachable(psm2,block,(4,2)), reachable(psm2,block,(4,3)), reachable(psm2,block,(4,4)), reachable(psm2,block,(4,5)), reachable(psm2,block,(5,1)), reachable(psm2,block,(5,2)), reachable(psm2,block,(5,3)), reachable(psm2,block,(5,4)), reachable(psm2,block,(5,5)), fixed((2,1)), fixed((4,1)), fixed((2,4)), fixed((1,4)), above_tumor((4,4)), |reach(psm2,block,(5,5),1), grasp(psm2,block,(5,5),2), pull(psm2,block,(5,5),3), 
0.250862121582|reachable(psm1,block,(1,1)), reachable(psm1,block,(1,2)), reachable(psm1,block,(1,3)), reachable(psm1,block,(1,4)), reachable(psm1,block,(1,5)), reachable(psm1,block,(2,1)), reachable(psm1,block,(2,2)), reachable(psm1,block,(2,3)), reachable(psm1,block,(2,4)), reachable(psm1,block,(2,5)), reachable(psm1,block,(3,1)), reachable(psm1,block,(3,2)), reachable(psm1,block,(3,3)), reachable(psm2,block,(3,4)), reachable(psm2,block,(3,5)), reachable(psm2,block,(4,1)), reachable(psm2,block,(4,2)), reachable(psm2,block,(4,3)), reachable(psm2,block,(4,4)), reachable(psm2,block,(4,5)), reachable(psm2,block,(5,1)), reachable(psm2,block,(5,2)), reachable(psm2,block,(5,3)), reachable(psm2,block,(5,4)), reachable(psm2,block,(5,5)), fixed((1,2)), fixed((1,5)), fixed((2,2)), fixed((1,1)), above_tumor((5,4)), |reach(psm2,block,(5,5),1), grasp(psm2,block,(5,5),2), pull(psm2,block,(5,5),3), 
0.250887870789|reachable(psm1,block,(1,1)), reachable(psm1,block,(1,2)), reachable(psm1,block,(1,3)), reachable(psm1,block,(1,4)), reachable(psm1,block,(1,5)), reachable(psm1,block,(2,1)), reachable(psm1,block,(2,2)), reachable(psm1,block,(2,3)), reachable(psm1,block,(2,4)), reachable(psm1,block,(2,5)), reachable(psm1,block,(3,1)), reachable(psm1,block,(3,2)), reachable(psm1,block,(3,3)), reachable(psm2,block,(3,4)), reachable(psm2,block,(3,5)), reachable(psm2,block,(4,1)), reachable(psm2,block,(4,2)), reachable(psm2,block,(4,3)), reachable(psm2,block,(4,4)), reachable(psm2,block,(4,5)), reachable(psm2,block,(5,1)), reachable(psm2,block,(5,2)), reachable(psm2,block,(5,3)), reachable(psm2,block,(5,4)), reachable(psm2,block,(5,5)), fixed((4,1)), fixed((1,3)), fixed((2,2)), fixed((3,5)), above_tumor((4,4)), |reach(psm2,block,(5,5),1), grasp(psm2,block,(5,5),2), pull(psm2,block,(5,5),3), 
0.246474027634|reachable(psm1,block,(1,1)), reachable(psm1,block,(1,2)), reachable(psm1,block,(1,3)), reachable(psm1,block,(1,4)), reachable(psm1,block,(1,5)), reachable(psm1,block,(2,1)), reachable(psm1,block,(2,2)), reachable(psm1,block,(2,3)), reachable(psm1,block,(2,4)), reachable(psm1,block,(2,5)), reachable(psm1,block,(3,1)), reachable(psm1,block,(3,2)), reachable(psm1,block,(3,3)), reachable(psm2,block,(3,4)), reachable(psm2,block,(3,5)), reachable(psm2,block,(4,1)), reachable(psm2,block,(4,2)), reachable(psm2,block,(4,3)), reachable(psm2,block,(4,4)), reachable(psm2,block,(4,5)), reachable(psm2,block,(5,1)), reachable(psm2,block,(5,2)), reachable(psm2,block,(5,3)), reachable(psm2,block,(5,4)), reachable(psm2,block,(5,5)), fixed((3,4)), fixed((3,2)), fixed((3,1)), fixed((1,1)), above_tumor((5,1)), |reach(psm2,block,(5,5),1), grasp(psm2,block,(5,5),2), pull(psm2,block,(5,5),3), 
0.246403932571|reachable(psm1,block,(1,1)), reachable(psm1,block,(1,2)), reachable(psm1,block,(1,3)), reachable(psm1,block,(1,4)), reachable(psm1,block,(1,5)), reachable(psm1,block,(2,1)), reachable(psm1,block,(2,2)), reachable(psm1,block,(2,3)), reachable(psm1,block,(2,4)), reachable(psm1,block,(2,5)), reachable(psm1,block,(3,1)), reachable(psm1,block,(3,2)), reachable(psm1,block,(3,3)), reachable(psm2,block,(3,4)), reachable(psm2,block,(3,5)), reachable(psm2,block,(4,1)), reachable(psm2,block,(4,2)), reachable(psm2,block,(4,3)), reachable(psm2,block,(4,4)), reachable(psm2,block,(4,5)), reachable(psm2,block,(5,1)), reachable(psm2,block,(5,2)), reachable(psm2,block,(5,3)), reachable(psm2,block,(5,4)), reachable(psm2,block,(5,5)), fixed((1,1)), fixed((3,4)), fixed((2,4)), fixed((1,3)), above_tumor((4,4)), |reach(psm2,block,(5,5),1), grasp(psm2,block,(5,5),2), pull(psm2,block,(5,5),3), 
0.248904943466|reachable(psm1,block,(1,1)), reachable(psm1,block,(1,2)), reachable(psm1,block,(1,3)), reachable(psm1,block,(1,4)), reachable(psm1,block,(1,5)), reachable(psm1,block,(2,1)), reachable(psm1,block,(2,2)), reachable(psm1,block,(2,3)), reachable(psm1,block,(2,4)), reachable(psm1,block,(2,5)), reachable(psm1,block,(3,1)), reachable(psm1,block,(3,2)), reachable(psm1,block,(3,3)), reachable(psm2,block,(3,4)), reachable(psm2,block,(3,5)), reachable(psm2,block,(4,1)), reachable(psm2,block,(4,2)), reachable(psm2,block,(4,3)), reachable(psm2,block,(4,4)), reachable(psm2,block,(4,5)), reachable(psm2,block,(5,1)), reachable(psm2,block,(5,2)), reachable(psm2,block,(5,3)), reachable(psm2,block,(5,4)), reachable(psm2,block,(5,5)), fixed((1,2)), fixed((3,2)), fixed((1,4)), fixed((1,5)), above_tumor((4,2)), |reach(psm2,block,(5,1),1), grasp(psm2,block,(5,1),2), pull(psm2,block,(5,1),3), 
0.243541955948|reachable(psm1,block,(1,1)), reachable(psm1,block,(1,2)), reachable(psm1,block,(1,3)), reachable(psm1,block,(1,4)), reachable(psm1,block,(1,5)), reachable(psm1,block,(2,1)), reachable(psm1,block,(2,2)), reachable(psm1,block,(2,3)), reachable(psm1,block,(2,4)), reachable(psm1,block,(2,5)), reachable(psm1,block,(3,1)), reachable(psm1,block,(3,2)), reachable(psm1,block,(3,3)), reachable(psm2,block,(3,4)), reachable(psm2,block,(3,5)), reachable(psm2,block,(4,1)), reachable(psm2,block,(4,2)), reachable(psm2,block,(4,3)), reachable(psm2,block,(4,4)), reachable(psm2,block,(4,5)), reachable(psm2,block,(5,1)), reachable(psm2,block,(5,2)), reachable(psm2,block,(5,3)), reachable(psm2,block,(5,4)), reachable(psm2,block,(5,5)), fixed((2,3)), fixed((1,5)), fixed((1,4)), fixed((1,1)), above_tumor((4,4)), |reach(psm2,block,(5,1),1), grasp(psm2,block,(5,1),2), pull(psm2,block,(5,1),3), 
0.229271888733|reachable(psm1,block,(1,1)), reachable(psm1,block,(1,2)), reachable(psm1,block,(1,3)), reachable(psm1,block,(1,4)), reachable(psm1,block,(1,5)), reachable(psm1,block,(2,1)), reachable(psm1,block,(2,2)), reachable(psm1,block,(2,3)), reachable(psm1,block,(2,4)), reachable(psm1,block,(2,5)), reachable(psm1,block,(3,1)), reachable(psm1,block,(3,2)), reachable(psm1,block,(3,3)), reachable(psm2,block,(3,4)), reachable(psm2,block,(3,5)), reachable(psm2,block,(4,1)), reachable(psm2,block,(4,2)), reachable(psm2,block,(4,3)), reachable(psm2,block,(4,4)), reachable(psm2,block,(4,5)), reachable(psm2,block,(5,1)), reachable(psm2,block,(5,2)), reachable(psm2,block,(5,3)), reachable(psm2,block,(5,4)), reachable(psm2,block,(5,5)), fixed((1,2)), fixed((2,3)), fixed((1,5)), fixed((3,1)), above_tumor((4,2)), |reach(psm2,block,(5,5),1), grasp(psm2,block,(5,5),2), pull(psm2,block,(5,5),3), 
0.240153074265|reachable(psm1,block,(1,1)), reachable(psm1,block,(1,2)), reachable(psm1,block,(1,3)), reachable(psm1,block,(1,4)), reachable(psm1,block,(1,5)), reachable(psm1,block,(2,1)), reachable(psm1,block,(2,2)), reachable(psm1,block,(2,3)), reachable(psm1,block,(2,4)), reachable(psm1,block,(2,5)), reachable(psm1,block,(3,1)), reachable(psm1,block,(3,2)), reachable(psm1,block,(3,3)), reachable(psm2,block,(3,4)), reachable(psm2,block,(3,5)), reachable(psm2,block,(4,1)), reachable(psm2,block,(4,2)), reachable(psm2,block,(4,3)), reachable(psm2,block,(4,4)), reachable(psm2,block,(4,5)), reachable(psm2,block,(5,1)), reachable(psm2,block,(5,2)), reachable(psm2,block,(5,3)), reachable(psm2,block,(5,4)), reachable(psm2,block,(5,5)), fixed((3,1)), fixed((2,3)), fixed((4,1)), fixed((2,5)), above_tumor((5,5)), |reach(psm2,block,(5,5),1), grasp(psm2,block,(5,5),2), pull(psm2,block,(5,5),3), 
0.232095003128|reachable(psm1,block,(1,1)), reachable(psm1,block,(1,2)), reachable(psm1,block,(1,3)), reachable(psm1,block,(1,4)), reachable(psm1,block,(1,5)), reachable(psm1,block,(2,1)), reachable(psm1,block,(2,2)), reachable(psm1,block,(2,3)), reachable(psm1,block,(2,4)), reachable(psm1,block,(2,5)), reachable(psm1,block,(3,1)), reachable(psm1,block,(3,2)), reachable(psm1,block,(3,3)), reachable(psm2,block,(3,4)), reachable(psm2,block,(3,5)), reachable(psm2,block,(4,1)), reachable(psm2,block,(4,2)), reachable(psm2,block,(4,3)), reachable(psm2,block,(4,4)), reachable(psm2,block,(4,5)), reachable(psm2,block,(5,1)), reachable(psm2,block,(5,2)), reachable(psm2,block,(5,3)), reachable(psm2,block,(5,4)), reachable(psm2,block,(5,5)), fixed((2,1)), fixed((1,3)), fixed((1,1)), fixed((3,2)), above_tumor((4,5)), |reach(psm2,block,(5,5),1), grasp(psm2,block,(5,5),2), pull(psm2,block,(5,5),3), 
0.230246067047|reachable(psm1,block,(1,1)), reachable(psm1,block,(1,2)), reachable(psm1,block,(1,3)), reachable(psm1,block,(1,4)), reachable(psm1,block,(1,5)), reachable(psm1,block,(2,1)), reachable(psm1,block,(2,2)), reachable(psm1,block,(2,3)), reachable(psm1,block,(2,4)), reachable(psm1,block,(2,5)), reachable(psm1,block,(3,1)), reachable(psm1,block,(3,2)), reachable(psm1,block,(3,3)), reachable(psm2,block,(3,4)), reachable(psm2,block,(3,5)), reachable(psm2,block,(4,1)), reachable(psm2,block,(4,2)), reachable(psm2,block,(4,3)), reachable(psm2,block,(4,4)), reachable(psm2,block,(4,5)), reachable(psm2,block,(5,1)), reachable(psm2,block,(5,2)), reachable(psm2,block,(5,3)), reachable(psm2,block,(5,4)), reachable(psm2,block,(5,5)), fixed((3,3)), fixed((2,3)), fixed((3,1)), fixed((1,3)), above_tumor((5,1)), |reach(psm2,block,(5,1),1), grasp(psm2,block,(5,1),2), pull(psm2,block,(5,1),3), 
0.243279933929|reachable(psm1,block,(1,1)), reachable(psm1,block,(1,2)), reachable(psm1,block,(1,3)), reachable(psm1,block,(1,4)), reachable(psm1,block,(1,5)), reachable(psm1,block,(2,1)), reachable(psm1,block,(2,2)), reachable(psm1,block,(2,3)), reachable(psm1,block,(2,4)), reachable(psm1,block,(2,5)), reachable(psm1,block,(3,1)), reachable(psm1,block,(3,2)), reachable(psm1,block,(3,3)), reachable(psm2,block,(3,4)), reachable(psm2,block,(3,5)), reachable(psm2,block,(4,1)), reachable(psm2,block,(4,2)), reachable(psm2,block,(4,3)), reachable(psm2,block,(4,4)), reachable(psm2,block,(4,5)), reachable(psm2,block,(5,1)), reachable(psm2,block,(5,2)), reachable(psm2,block,(5,3)), reachable(psm2,block,(5,4)), reachable(psm2,block,(5,5)), fixed((1,4)), fixed((4,1)), fixed((1,5)), fixed((3,1)), above_tumor((4,5)), |reach(psm2,block,(5,3),1), grasp(psm2,block,(5,3),2), pull(psm2,block,(5,3),3), 
0.226572036743|reachable(psm1,block,(1,1)), reachable(psm1,block,(1,2)), reachable(psm1,block,(1,3)), reachable(psm1,block,(1,4)), reachable(psm1,block,(1,5)), reachable(psm1,block,(2,1)), reachable(psm1,block,(2,2)), reachable(psm1,block,(2,3)), reachable(psm1,block,(2,4)), reachable(psm1,block,(2,5)), reachable(psm1,block,(3,1)), reachable(psm1,block,(3,2)), reachable(psm1,block,(3,3)), reachable(psm2,block,(3,4)), reachable(psm2,block,(3,5)), reachable(psm2,block,(4,1)), reachable(psm2,block,(4,2)), reachable(psm2,block,(4,3)), reachable(psm2,block,(4,4)), reachable(psm2,block,(4,5)), reachable(psm2,block,(5,1)), reachable(psm2,block,(5,2)), reachable(psm2,block,(5,3)), reachable(psm2,block,(5,4)), reachable(psm2,block,(5,5)), fixed((3,3)), fixed((1,5)), fixed((1,3)), fixed((3,4)), above_tumor((5,2)), |reach(psm2,block,(5,1),1), grasp(psm2,block,(5,1),2), pull(psm2,block,(5,1),3), 
0.233997821808|reachable(psm1,block,(1,1)), reachable(psm1,block,(1,2)), reachable(psm1,block,(1,3)), reachable(psm1,block,(1,4)), reachable(psm1,block,(1,5)), reachable(psm1,block,(2,1)), reachable(psm1,block,(2,2)), reachable(psm1,block,(2,3)), reachable(psm1,block,(2,4)), reachable(psm1,block,(2,5)), reachable(psm1,block,(3,1)), reachable(psm1,block,(3,2)), reachable(psm1,block,(3,3)), reachable(psm2,block,(3,4)), reachable(psm2,block,(3,5)), reachable(psm2,block,(4,1)), reachable(psm2,block,(4,2)), reachable(psm2,block,(4,3)), reachable(psm2,block,(4,4)), reachable(psm2,block,(4,5)), reachable(psm2,block,(5,1)), reachable(psm2,block,(5,2)), reachable(psm2,block,(5,3)), reachable(psm2,block,(5,4)), reachable(psm2,block,(5,5)), fixed((2,5)), fixed((1,3)), fixed((3,4)), fixed((2,1)), above_tumor((4,2)), |reach(psm2,block,(5,1),1), grasp(psm2,block,(5,1),2), pull(psm2,block,(5,1),3), 
0.227977991104|reachable(psm1,block,(1,1)), reachable(psm1,block,(1,2)), reachable(psm1,block,(1,3)), reachable(psm1,block,(1,4)), reachable(psm1,block,(1,5)), reachable(psm1,block,(2,1)), reachable(psm1,block,(2,2)), reachable(psm1,block,(2,3)), reachable(psm1,block,(2,4)), reachable(psm1,block,(2,5)), reachable(psm1,block,(3,1)), reachable(psm1,block,(3,2)), reachable(psm1,block,(3,3)), reachable(psm2,block,(3,4)), reachable(psm2,block,(3,5)), reachable(psm2,block,(4,1)), reachable(psm2,block,(4,2)), reachable(psm2,block,(4,3)), reachable(psm2,block,(4,4)), reachable(psm2,block,(4,5)), reachable(psm2,block,(5,1)), reachable(psm2,block,(5,2)), reachable(psm2,block,(5,3)), reachable(psm2,block,(5,4)), reachable(psm2,block,(5,5)), fixed((1,4)), fixed((2,4)), fixed((2,3)), fixed((2,5)), above_tumor((4,2)), |reach(psm2,block,(5,1),1), grasp(psm2,block,(5,1),2), pull(psm2,block,(5,1),3), 
0.238394021988|reachable(psm1,block,(1,1)), reachable(psm1,block,(1,2)), reachable(psm1,block,(1,3)), reachable(psm1,block,(1,4)), reachable(psm1,block,(1,5)), reachable(psm1,block,(2,1)), reachable(psm1,block,(2,2)), reachable(psm1,block,(2,3)), reachable(psm1,block,(2,4)), reachable(psm1,block,(2,5)), reachable(psm1,block,(3,1)), reachable(psm1,block,(3,2)), reachable(psm1,block,(3,3)), reachable(psm2,block,(3,4)), reachable(psm2,block,(3,5)), reachable(psm2,block,(4,1)), reachable(psm2,block,(4,2)), reachable(psm2,block,(4,3)), reachable(psm2,block,(4,4)), reachable(psm2,block,(4,5)), reachable(psm2,block,(5,1)), reachable(psm2,block,(5,2)), reachable(psm2,block,(5,3)), reachable(psm2,block,(5,4)), reachable(psm2,block,(5,5)), fixed((1,4)), fixed((2,5)), fixed((3,1)), fixed((2,2)), above_tumor((4,3)), |reach(psm2,block,(5,5),1), grasp(psm2,block,(5,5),2), pull(psm2,block,(5,5),3), 
0.226057052612|reachable(psm1,block,(1,1)), reachable(psm1,block,(1,2)), reachable(psm1,block,(1,3)), reachable(psm1,block,(1,4)), reachable(psm1,block,(1,5)), reachable(psm1,block,(2,1)), reachable(psm1,block,(2,2)), reachable(psm1,block,(2,3)), reachable(psm1,block,(2,4)), reachable(psm1,block,(2,5)), reachable(psm1,block,(3,1)), reachable(psm1,block,(3,2)), reachable(psm1,block,(3,3)), reachable(psm2,block,(3,4)), reachable(psm2,block,(3,5)), reachable(psm2,block,(4,1)), reachable(psm2,block,(4,2)), reachable(psm2,block,(4,3)), reachable(psm2,block,(4,4)), reachable(psm2,block,(4,5)), reachable(psm2,block,(5,1)), reachable(psm2,block,(5,2)), reachable(psm2,block,(5,3)), reachable(psm2,block,(5,4)), reachable(psm2,block,(5,5)), fixed((2,4)), fixed((1,2)), fixed((3,3)), fixed((4,1)), above_tumor((5,3)), |reach(psm2,block,(5,5),1), grasp(psm2,block,(5,5),2), pull(psm2,block,(5,5),3), 
0.241221904755|reachable(psm1,block,(1,1)), reachable(psm1,block,(1,2)), reachable(psm1,block,(1,3)), reachable(psm1,block,(1,4)), reachable(psm1,block,(1,5)), reachable(psm1,block,(2,1)), reachable(psm1,block,(2,2)), reachable(psm1,block,(2,3)), reachable(psm1,block,(2,4)), reachable(psm1,block,(2,5)), reachable(psm1,block,(3,1)), reachable(psm1,block,(3,2)), reachable(psm1,block,(3,3)), reachable(psm2,block,(3,4)), reachable(psm2,block,(3,5)), reachable(psm2,block,(4,1)), reachable(psm2,block,(4,2)), reachable(psm2,block,(4,3)), reachable(psm2,block,(4,4)), reachable(psm2,block,(4,5)), reachable(psm2,block,(5,1)), reachable(psm2,block,(5,2)), reachable(psm2,block,(5,3)), reachable(psm2,block,(5,4)), reachable(psm2,block,(5,5)), fixed((2,1)), fixed((3,1)), fixed((1,3)), fixed((1,1)), above_tumor((4,2)), |reach(psm2,block,(5,5),1), grasp(psm2,block,(5,5),2), pull(psm2,block,(5,5),3), 
0.263655900955|reachable(psm1,block,(1,1)), reachable(psm1,block,(1,2)), reachable(psm1,block,(1,3)), reachable(psm1,block,(1,4)), reachable(psm1,block,(1,5)), reachable(psm1,block,(2,1)), reachable(psm1,block,(2,2)), reachable(psm1,block,(2,3)), reachable(psm1,block,(2,4)), reachable(psm1,block,(2,5)), reachable(psm1,block,(3,1)), reachable(psm1,block,(3,2)), reachable(psm1,block,(3,3)), reachable(psm2,block,(3,4)), reachable(psm2,block,(3,5)), reachable(psm2,block,(4,1)), reachable(psm2,block,(4,2)), reachable(psm2,block,(4,3)), reachable(psm2,block,(4,4)), reachable(psm2,block,(4,5)), reachable(psm2,block,(5,1)), reachable(psm2,block,(5,2)), reachable(psm2,block,(5,3)), reachable(psm2,block,(5,4)), reachable(psm2,block,(5,5)), fixed((2,1)), fixed((4,1)), fixed((3,4)), fixed((2,3)), above_tumor((4,4)), |reach(psm2,block,(5,5),1), grasp(psm2,block,(5,5),2), pull(psm2,block,(5,5),3), 
0.256372928619|reachable(psm1,block,(1,1)), reachable(psm1,block,(1,2)), reachable(psm1,block,(1,3)), reachable(psm1,block,(1,4)), reachable(psm1,block,(1,5)), reachable(psm1,block,(2,1)), reachable(psm1,block,(2,2)), reachable(psm1,block,(2,3)), reachable(psm1,block,(2,4)), reachable(psm1,block,(2,5)), reachable(psm1,block,(3,1)), reachable(psm1,block,(3,2)), reachable(psm1,block,(3,3)), reachable(psm2,block,(3,4)), reachable(psm2,block,(3,5)), reachable(psm2,block,(4,1)), reachable(psm2,block,(4,2)), reachable(psm2,block,(4,3)), reachable(psm2,block,(4,4)), reachable(psm2,block,(4,5)), reachable(psm2,block,(5,1)), reachable(psm2,block,(5,2)), reachable(psm2,block,(5,3)), reachable(psm2,block,(5,4)), reachable(psm2,block,(5,5)), fixed((2,5)), fixed((3,4)), fixed((2,3)), fixed((2,2)), above_tumor((4,3)), |reach(psm2,block,(5,1),1), grasp(psm2,block,(5,1),2), pull(psm2,block,(5,1),3), 
0.239436864853|reachable(psm1,block,(1,1)), reachable(psm1,block,(1,2)), reachable(psm1,block,(1,3)), reachable(psm1,block,(1,4)), reachable(psm1,block,(1,5)), reachable(psm1,block,(2,1)), reachable(psm1,block,(2,2)), reachable(psm1,block,(2,3)), reachable(psm1,block,(2,4)), reachable(psm1,block,(2,5)), reachable(psm1,block,(3,1)), reachable(psm1,block,(3,2)), reachable(psm1,block,(3,3)), reachable(psm2,block,(3,4)), reachable(psm2,block,(3,5)), reachable(psm2,block,(4,1)), reachable(psm2,block,(4,2)), reachable(psm2,block,(4,3)), reachable(psm2,block,(4,4)), reachable(psm2,block,(4,5)), reachable(psm2,block,(5,1)), reachable(psm2,block,(5,2)), reachable(psm2,block,(5,3)), reachable(psm2,block,(5,4)), reachable(psm2,block,(5,5)), fixed((1,1)), fixed((4,1)), fixed((3,4)), fixed((3,1)), above_tumor((4,2)), |reach(psm2,block,(5,5),1), grasp(psm2,block,(5,5),2), pull(psm2,block,(5,5),3), 
0.215371847153|reachable(psm1,block,(1,1)), reachable(psm1,block,(1,2)), reachable(psm1,block,(1,3)), reachable(psm1,block,(1,4)), reachable(psm1,block,(1,5)), reachable(psm1,block,(2,1)), reachable(psm1,block,(2,2)), reachable(psm1,block,(2,3)), reachable(psm1,block,(2,4)), reachable(psm1,block,(2,5)), reachable(psm1,block,(3,1)), reachable(psm1,block,(3,2)), reachable(psm1,block,(3,3)), reachable(psm2,block,(3,4)), reachable(psm2,block,(3,5)), reachable(psm2,block,(4,1)), reachable(psm2,block,(4,2)), reachable(psm2,block,(4,3)), reachable(psm2,block,(4,4)), reachable(psm2,block,(4,5)), reachable(psm2,block,(5,1)), reachable(psm2,block,(5,2)), reachable(psm2,block,(5,3)), reachable(psm2,block,(5,4)), reachable(psm2,block,(5,5)), fixed((1,4)), fixed((2,1)), fixed((2,2)), fixed((3,3)), above_tumor((5,3)), |reach(psm2,block,(5,5),1), grasp(psm2,block,(5,5),2), pull(psm2,block,(5,5),3), 
0.236228942871|reachable(psm1,block,(1,1)), reachable(psm1,block,(1,2)), reachable(psm1,block,(1,3)), reachable(psm1,block,(1,4)), reachable(psm1,block,(1,5)), reachable(psm1,block,(2,1)), reachable(psm1,block,(2,2)), reachable(psm1,block,(2,3)), reachable(psm1,block,(2,4)), reachable(psm1,block,(2,5)), reachable(psm1,block,(3,1)), reachable(psm1,block,(3,2)), reachable(psm1,block,(3,3)), reachable(psm2,block,(3,4)), reachable(psm2,block,(3,5)), reachable(psm2,block,(4,1)), reachable(psm2,block,(4,2)), reachable(psm2,block,(4,3)), reachable(psm2,block,(4,4)), reachable(psm2,block,(4,5)), reachable(psm2,block,(5,1)), reachable(psm2,block,(5,2)), reachable(psm2,block,(5,3)), reachable(psm2,block,(5,4)), reachable(psm2,block,(5,5)), fixed((3,1)), fixed((1,3)), fixed((1,4)), fixed((1,2)), above_tumor((4,2)), |reach(psm2,block,(5,1),1), grasp(psm2,block,(5,1),2), pull(psm2,block,(5,1),3), 
