0.11624789238|reachable(psm1,block,(1,1)), reachable(psm1,block,(1,2)), reachable(psm1,block,(1,3)), reachable(psm1,block,(1,4)), reachable(psm1,block,(1,5)), reachable(psm1,block,(2,1)), reachable(psm1,block,(2,2)), reachable(psm1,block,(2,3)), reachable(psm1,block,(2,4)), reachable(psm1,block,(2,5)), reachable(psm1,block,(3,1)), reachable(psm1,block,(3,2)), reachable(psm1,block,(3,3)), reachable(psm2,block,(3,4)), reachable(psm2,block,(3,5)), reachable(psm2,block,(4,1)), reachable(psm2,block,(4,2)), reachable(psm2,block,(4,3)), reachable(psm2,block,(4,4)), reachable(psm2,block,(4,5)), reachable(psm2,block,(5,1)), reachable(psm2,block,(5,2)), reachable(psm2,block,(5,3)), reachable(psm2,block,(5,4)), reachable(psm2,block,(5,5)), fixed((4,1)), fixed((1,2)), fixed((3,4)), fixed((1,1)), fixed((1,5)), fixed((3,2)), fixed((2,2)), fixed((3,3)), above_tumor((5,5)), closed_gripper(psm2), max_height(psm2), in_hand(psm2,block,(5,1)), at(psm2,block,(5,1)), |move(psm2,block,(5,5),1), 
0.113790988922|reachable(psm1,block,(1,1)), reachable(psm1,block,(1,2)), reachable(psm1,block,(1,3)), reachable(psm1,block,(1,4)), reachable(psm1,block,(1,5)), reachable(psm1,block,(2,1)), reachable(psm1,block,(2,2)), reachable(psm1,block,(2,3)), reachable(psm1,block,(2,4)), reachable(psm1,block,(2,5)), reachable(psm1,block,(3,1)), reachable(psm1,block,(3,2)), reachable(psm1,block,(3,3)), reachable(psm2,block,(3,4)), reachable(psm2,block,(3,5)), reachable(psm2,block,(4,1)), reachable(psm2,block,(4,2)), reachable(psm2,block,(4,3)), reachable(psm2,block,(4,4)), reachable(psm2,block,(4,5)), reachable(psm2,block,(5,1)), reachable(psm2,block,(5,2)), reachable(psm2,block,(5,3)), reachable(psm2,block,(5,4)), reachable(psm2,block,(5,5)), fixed((2,1)), fixed((3,3)), fixed((3,1)), fixed((2,3)), fixed((1,5)), fixed((2,5)), fixed((3,4)), fixed((4,1)), above_tumor((5,4)), closed_gripper(psm2), max_height(psm2), in_hand(psm2,block,(5,5)), at(psm2,block,(5,5)), |move(psm2,block,(5,4),1), 
0.126691818237|reachable(psm1,block,(1,1)), reachable(psm1,block,(1,2)), reachable(psm1,block,(1,3)), reachable(psm1,block,(1,4)), reachable(psm1,block,(1,5)), reachable(psm1,block,(2,1)), reachable(psm1,block,(2,2)), reachable(psm1,block,(2,3)), reachable(psm1,block,(2,4)), reachable(psm1,block,(2,5)), reachable(psm1,block,(3,1)), reachable(psm1,block,(3,2)), reachable(psm1,block,(3,3)), reachable(psm2,block,(3,4)), reachable(psm2,block,(3,5)), reachable(psm2,block,(4,1)), reachable(psm2,block,(4,2)), reachable(psm2,block,(4,3)), reachable(psm2,block,(4,4)), reachable(psm2,block,(4,5)), reachable(psm2,block,(5,1)), reachable(psm2,block,(5,2)), reachable(psm2,block,(5,3)), reachable(psm2,block,(5,4)), reachable(psm2,block,(5,5)), fixed((3,3)), fixed((2,1)), fixed((3,5)), fixed((1,3)), fixed((2,5)), fixed((4,1)), fixed((3,2)), fixed((2,4)), above_tumor((4,2)), closed_gripper(psm2), max_height(psm2), in_hand(psm2,block,(5,4)), at(psm2,block,(5,4)), |move(psm2,block,(4,2),1), 
0.116550922394|reachable(psm1,block,(1,1)), reachable(psm1,block,(1,2)), reachable(psm1,block,(1,3)), reachable(psm1,block,(1,4)), reachable(psm1,block,(1,5)), reachable(psm1,block,(2,1)), reachable(psm1,block,(2,2)), reachable(psm1,block,(2,3)), reachable(psm1,block,(2,4)), reachable(psm1,block,(2,5)), reachable(psm1,block,(3,1)), reachable(psm1,block,(3,2)), reachable(psm1,block,(3,3)), reachable(psm2,block,(3,4)), reachable(psm2,block,(3,5)), reachable(psm2,block,(4,1)), reachable(psm2,block,(4,2)), reachable(psm2,block,(4,3)), reachable(psm2,block,(4,4)), reachable(psm2,block,(4,5)), reachable(psm2,block,(5,1)), reachable(psm2,block,(5,2)), reachable(psm2,block,(5,3)), reachable(psm2,block,(5,4)), reachable(psm2,block,(5,5)), fixed((2,3)), fixed((3,1)), fixed((2,1)), fixed((3,5)), fixed((1,4)), fixed((2,4)), fixed((3,2)), fixed((1,2)), above_tumor((5,4)), closed_gripper(psm1), max_height(psm1), in_hand(psm1,block,(5,3)), at(psm1,block,(5,3)), |move(psm1,block,(5,4),1), 
0.144314050674|reachable(psm1,block,(1,1)), reachable(psm1,block,(1,2)), reachable(psm1,block,(1,3)), reachable(psm1,block,(1,4)), reachable(psm1,block,(1,5)), reachable(psm1,block,(2,1)), reachable(psm1,block,(2,2)), reachable(psm1,block,(2,3)), reachable(psm1,block,(2,4)), reachable(psm1,block,(2,5)), reachable(psm1,block,(3,1)), reachable(psm1,block,(3,2)), reachable(psm1,block,(3,3)), reachable(psm2,block,(3,4)), reachable(psm2,block,(3,5)), reachable(psm2,block,(4,1)), reachable(psm2,block,(4,2)), reachable(psm2,block,(4,3)), reachable(psm2,block,(4,4)), reachable(psm2,block,(4,5)), reachable(psm2,block,(5,1)), reachable(psm2,block,(5,2)), reachable(psm2,block,(5,3)), reachable(psm2,block,(5,4)), reachable(psm2,block,(5,5)), fixed((3,4)), fixed((1,3)), fixed((3,5)), fixed((4,1)), fixed((2,4)), fixed((2,5)), fixed((2,3)), fixed((3,3)), above_tumor((4,2)), closed_gripper(psm1), max_height(psm1), in_hand(psm1,block,(5,4)), at(psm1,block,(5,4)), |move(psm1,block,(4,2),1), 
0.116003036499|reachable(psm1,block,(1,1)), reachable(psm1,block,(1,2)), reachable(psm1,block,(1,3)), reachable(psm1,block,(1,4)), reachable(psm1,block,(1,5)), reachable(psm1,block,(2,1)), reachable(psm1,block,(2,2)), reachable(psm1,block,(2,3)), reachable(psm1,block,(2,4)), reachable(psm1,block,(2,5)), reachable(psm1,block,(3,1)), reachable(psm1,block,(3,2)), reachable(psm1,block,(3,3)), reachable(psm2,block,(3,4)), reachable(psm2,block,(3,5)), reachable(psm2,block,(4,1)), reachable(psm2,block,(4,2)), reachable(psm2,block,(4,3)), reachable(psm2,block,(4,4)), reachable(psm2,block,(4,5)), reachable(psm2,block,(5,1)), reachable(psm2,block,(5,2)), reachable(psm2,block,(5,3)), reachable(psm2,block,(5,4)), reachable(psm2,block,(5,5)), fixed((1,1)), fixed((3,1)), fixed((2,1)), fixed((1,3)), fixed((1,4)), fixed((2,4)), fixed((4,1)), fixed((3,5)), above_tumor((4,3)), closed_gripper(psm1), max_height(psm1), in_hand(psm1,block,(4,4)), at(psm1,block,(4,4)), |move(psm1,block,(4,3),1), 
0.113121986389|reachable(psm1,block,(1,1)), reachable(psm1,block,(1,2)), reachable(psm1,block,(1,3)), reachable(psm1,block,(1,4)), reachable(psm1,block,(1,5)), reachable(psm1,block,(2,1)), reachable(psm1,block,(2,2)), reachable(psm1,block,(2,3)), reachable(psm1,block,(2,4)), reachable(psm1,block,(2,5)), reachable(psm1,block,(3,1)), reachable(psm1,block,(3,2)), reachable(psm1,block,(3,3)), reachable(psm2,block,(3,4)), reachable(psm2,block,(3,5)), reachable(psm2,block,(4,1)), reachable(psm2,block,(4,2)), reachable(psm2,block,(4,3)), reachable(psm2,block,(4,4)), reachable(psm2,block,(4,5)), reachable(psm2,block,(5,1)), reachable(psm2,block,(5,2)), reachable(psm2,block,(5,3)), reachable(psm2,block,(5,4)), reachable(psm2,block,(5,5)), fixed((2,4)), fixed((2,1)), fixed((1,4)), fixed((3,5)), fixed((3,3)), fixed((3,4)), fixed((1,5)), fixed((2,5)), above_tumor((4,3)), closed_gripper(psm2), max_height(psm2), in_hand(psm2,block,(4,5)), at(psm2,block,(4,5)), |move(psm2,block,(4,3),1), 
0.119930028915|reachable(psm1,block,(1,1)), reachable(psm1,block,(1,2)), reachable(psm1,block,(1,3)), reachable(psm1,block,(1,4)), reachable(psm1,block,(1,5)), reachable(psm1,block,(2,1)), reachable(psm1,block,(2,2)), reachable(psm1,block,(2,3)), reachable(psm1,block,(2,4)), reachable(psm1,block,(2,5)), reachable(psm1,block,(3,1)), reachable(psm1,block,(3,2)), reachable(psm1,block,(3,3)), reachable(psm2,block,(3,4)), reachable(psm2,block,(3,5)), reachable(psm2,block,(4,1)), reachable(psm2,block,(4,2)), reachable(psm2,block,(4,3)), reachable(psm2,block,(4,4)), reachable(psm2,block,(4,5)), reachable(psm2,block,(5,1)), reachable(psm2,block,(5,2)), reachable(psm2,block,(5,3)), reachable(psm2,block,(5,4)), reachable(psm2,block,(5,5)), fixed((1,3)), fixed((3,3)), fixed((2,3)), fixed((3,1)), fixed((1,2)), fixed((1,5)), fixed((2,5)), fixed((2,4)), above_tumor((5,4)), closed_gripper(psm1), max_height(psm1), in_hand(psm1,block,(5,1)), at(psm1,block,(5,1)), |move(psm1,block,(5,4),1), 
0.105092048645|reachable(psm1,block,(1,1)), reachable(psm1,block,(1,2)), reachable(psm1,block,(1,3)), reachable(psm1,block,(1,4)), reachable(psm1,block,(1,5)), reachable(psm1,block,(2,1)), reachable(psm1,block,(2,2)), reachable(psm1,block,(2,3)), reachable(psm1,block,(2,4)), reachable(psm1,block,(2,5)), reachable(psm1,block,(3,1)), reachable(psm1,block,(3,2)), reachable(psm1,block,(3,3)), reachable(psm2,block,(3,4)), reachable(psm2,block,(3,5)), reachable(psm2,block,(4,1)), reachable(psm2,block,(4,2)), reachable(psm2,block,(4,3)), reachable(psm2,block,(4,4)), reachable(psm2,block,(4,5)), reachable(psm2,block,(5,1)), reachable(psm2,block,(5,2)), reachable(psm2,block,(5,3)), reachable(psm2,block,(5,4)), reachable(psm2,block,(5,5)), fixed((3,3)), fixed((3,5)), fixed((3,2)), fixed((1,2)), fixed((3,1)), fixed((2,1)), fixed((1,5)), fixed((2,5)), above_tumor((5,4)), closed_gripper(psm1), max_height(psm1), in_hand(psm1,block,(5,2)), at(psm1,block,(5,2)), |move(psm1,block,(5,4),1), 
0.139574050903|reachable(psm1,block,(1,1)), reachable(psm1,block,(1,2)), reachable(psm1,block,(1,3)), reachable(psm1,block,(1,4)), reachable(psm1,block,(1,5)), reachable(psm1,block,(2,1)), reachable(psm1,block,(2,2)), reachable(psm1,block,(2,3)), reachable(psm1,block,(2,4)), reachable(psm1,block,(2,5)), reachable(psm1,block,(3,1)), reachable(psm1,block,(3,2)), reachable(psm1,block,(3,3)), reachable(psm2,block,(3,4)), reachable(psm2,block,(3,5)), reachable(psm2,block,(4,1)), reachable(psm2,block,(4,2)), reachable(psm2,block,(4,3)), reachable(psm2,block,(4,4)), reachable(psm2,block,(4,5)), reachable(psm2,block,(5,1)), reachable(psm2,block,(5,2)), reachable(psm2,block,(5,3)), reachable(psm2,block,(5,4)), reachable(psm2,block,(5,5)), fixed((2,1)), fixed((3,3)), fixed((3,1)), fixed((2,5)), fixed((3,4)), fixed((2,3)), fixed((4,1)), fixed((1,5)), above_tumor((4,3)), closed_gripper(psm2), max_height(psm2), in_hand(psm2,block,(5,5)), at(psm2,block,(5,5)), |move(psm2,block,(4,3),1), 
0.117811918259|reachable(psm1,block,(1,1)), reachable(psm1,block,(1,2)), reachable(psm1,block,(1,3)), reachable(psm1,block,(1,4)), reachable(psm1,block,(1,5)), reachable(psm1,block,(2,1)), reachable(psm1,block,(2,2)), reachable(psm1,block,(2,3)), reachable(psm1,block,(2,4)), reachable(psm1,block,(2,5)), reachable(psm1,block,(3,1)), reachable(psm1,block,(3,2)), reachable(psm1,block,(3,3)), reachable(psm2,block,(3,4)), reachable(psm2,block,(3,5)), reachable(psm2,block,(4,1)), reachable(psm2,block,(4,2)), reachable(psm2,block,(4,3)), reachable(psm2,block,(4,4)), reachable(psm2,block,(4,5)), reachable(psm2,block,(5,1)), reachable(psm2,block,(5,2)), reachable(psm2,block,(5,3)), reachable(psm2,block,(5,4)), reachable(psm2,block,(5,5)), fixed((2,3)), fixed((2,5)), fixed((1,2)), fixed((3,1)), fixed((3,5)), fixed((2,4)), fixed((2,1)), fixed((1,1)), above_tumor((5,4)), closed_gripper(psm2), max_height(psm2), in_hand(psm2,block,(5,1)), at(psm2,block,(5,1)), |move(psm2,block,(5,4),1), 
0.111300945282|reachable(psm1,block,(1,1)), reachable(psm1,block,(1,2)), reachable(psm1,block,(1,3)), reachable(psm1,block,(1,4)), reachable(psm1,block,(1,5)), reachable(psm1,block,(2,1)), reachable(psm1,block,(2,2)), reachable(psm1,block,(2,3)), reachable(psm1,block,(2,4)), reachable(psm1,block,(2,5)), reachable(psm1,block,(3,1)), reachable(psm1,block,(3,2)), reachable(psm1,block,(3,3)), reachable(psm2,block,(3,4)), reachable(psm2,block,(3,5)), reachable(psm2,block,(4,1)), reachable(psm2,block,(4,2)), reachable(psm2,block,(4,3)), reachable(psm2,block,(4,4)), reachable(psm2,block,(4,5)), reachable(psm2,block,(5,1)), reachable(psm2,block,(5,2)), reachable(psm2,block,(5,3)), reachable(psm2,block,(5,4)), reachable(psm2,block,(5,5)), fixed((3,5)), fixed((3,1)), fixed((1,2)), fixed((3,4)), fixed((4,1)), fixed((1,1)), fixed((1,5)), fixed((3,3)), above_tumor((5,5)), closed_gripper(psm2), max_height(psm2), in_hand(psm2,block,(5,1)), at(psm2,block,(5,1)), |move(psm2,block,(5,5),1), 
0.120073080063|reachable(psm1,block,(1,1)), reachable(psm1,block,(1,2)), reachable(psm1,block,(1,3)), reachable(psm1,block,(1,4)), reachable(psm1,block,(1,5)), reachable(psm1,block,(2,1)), reachable(psm1,block,(2,2)), reachable(psm1,block,(2,3)), reachable(psm1,block,(2,4)), reachable(psm1,block,(2,5)), reachable(psm1,block,(3,1)), reachable(psm1,block,(3,2)), reachable(psm1,block,(3,3)), reachable(psm2,block,(3,4)), reachable(psm2,block,(3,5)), reachable(psm2,block,(4,1)), reachable(psm2,block,(4,2)), reachable(psm2,block,(4,3)), reachable(psm2,block,(4,4)), reachable(psm2,block,(4,5)), reachable(psm2,block,(5,1)), reachable(psm2,block,(5,2)), reachable(psm2,block,(5,3)), reachable(psm2,block,(5,4)), reachable(psm2,block,(5,5)), fixed((3,1)), fixed((2,5)), fixed((2,3)), fixed((1,1)), fixed((3,2)), fixed((4,1)), fixed((1,5)), fixed((1,4)), above_tumor((5,5)), closed_gripper(psm2), max_height(psm2), in_hand(psm2,block,(4,5)), at(psm2,block,(4,5)), |move(psm2,block,(5,5),1), 
0.100810050964|reachable(psm1,block,(1,1)), reachable(psm1,block,(1,2)), reachable(psm1,block,(1,3)), reachable(psm1,block,(1,4)), reachable(psm1,block,(1,5)), reachable(psm1,block,(2,1)), reachable(psm1,block,(2,2)), reachable(psm1,block,(2,3)), reachable(psm1,block,(2,4)), reachable(psm1,block,(2,5)), reachable(psm1,block,(3,1)), reachable(psm1,block,(3,2)), reachable(psm1,block,(3,3)), reachable(psm2,block,(3,4)), reachable(psm2,block,(3,5)), reachable(psm2,block,(4,1)), reachable(psm2,block,(4,2)), reachable(psm2,block,(4,3)), reachable(psm2,block,(4,4)), reachable(psm2,block,(4,5)), reachable(psm2,block,(5,1)), reachable(psm2,block,(5,2)), reachable(psm2,block,(5,3)), reachable(psm2,block,(5,4)), reachable(psm2,block,(5,5)), fixed((3,5)), fixed((1,2)), fixed((2,2)), fixed((3,3)), fixed((2,1)), fixed((1,4)), fixed((1,3)), fixed((2,3)), above_tumor((5,5)), closed_gripper(psm2), max_height(psm2), in_hand(psm2,block,(5,3)), at(psm2,block,(5,3)), |move(psm2,block,(5,5),1), 
0.112506866455|reachable(psm1,block,(1,1)), reachable(psm1,block,(1,2)), reachable(psm1,block,(1,3)), reachable(psm1,block,(1,4)), reachable(psm1,block,(1,5)), reachable(psm1,block,(2,1)), reachable(psm1,block,(2,2)), reachable(psm1,block,(2,3)), reachable(psm1,block,(2,4)), reachable(psm1,block,(2,5)), reachable(psm1,block,(3,1)), reachable(psm1,block,(3,2)), reachable(psm1,block,(3,3)), reachable(psm2,block,(3,4)), reachable(psm2,block,(3,5)), reachable(psm2,block,(4,1)), reachable(psm2,block,(4,2)), reachable(psm2,block,(4,3)), reachable(psm2,block,(4,4)), reachable(psm2,block,(4,5)), reachable(psm2,block,(5,1)), reachable(psm2,block,(5,2)), reachable(psm2,block,(5,3)), reachable(psm2,block,(5,4)), reachable(psm2,block,(5,5)), fixed((4,1)), fixed((1,3)), fixed((2,4)), fixed((2,3)), fixed((3,1)), fixed((3,2)), fixed((1,2)), fixed((1,1)), above_tumor((5,4)), closed_gripper(psm1), max_height(psm1), in_hand(psm1,block,(4,3)), at(psm1,block,(4,3)), |move(psm1,block,(5,4),1), 
0.130578041077|reachable(psm1,block,(1,1)), reachable(psm1,block,(1,2)), reachable(psm1,block,(1,3)), reachable(psm1,block,(1,4)), reachable(psm1,block,(1,5)), reachable(psm1,block,(2,1)), reachable(psm1,block,(2,2)), reachable(psm1,block,(2,3)), reachable(psm1,block,(2,4)), reachable(psm1,block,(2,5)), reachable(psm1,block,(3,1)), reachable(psm1,block,(3,2)), reachable(psm1,block,(3,3)), reachable(psm2,block,(3,4)), reachable(psm2,block,(3,5)), reachable(psm2,block,(4,1)), reachable(psm2,block,(4,2)), reachable(psm2,block,(4,3)), reachable(psm2,block,(4,4)), reachable(psm2,block,(4,5)), reachable(psm2,block,(5,1)), reachable(psm2,block,(5,2)), reachable(psm2,block,(5,3)), reachable(psm2,block,(5,4)), reachable(psm2,block,(5,5)), fixed((3,3)), fixed((1,1)), fixed((2,2)), fixed((2,1)), fixed((4,1)), fixed((1,4)), fixed((3,2)), fixed((1,2)), above_tumor((5,5)), closed_gripper(psm1), max_height(psm1), in_hand(psm1,block,(4,3)), at(psm1,block,(4,3)), |move(psm1,block,(5,5),1), 
0.109324932098|reachable(psm1,block,(1,1)), reachable(psm1,block,(1,2)), reachable(psm1,block,(1,3)), reachable(psm1,block,(1,4)), reachable(psm1,block,(1,5)), reachable(psm1,block,(2,1)), reachable(psm1,block,(2,2)), reachable(psm1,block,(2,3)), reachable(psm1,block,(2,4)), reachable(psm1,block,(2,5)), reachable(psm1,block,(3,1)), reachable(psm1,block,(3,2)), reachable(psm1,block,(3,3)), reachable(psm2,block,(3,4)), reachable(psm2,block,(3,5)), reachable(psm2,block,(4,1)), reachable(psm2,block,(4,2)), reachable(psm2,block,(4,3)), reachable(psm2,block,(4,4)), reachable(psm2,block,(4,5)), reachable(psm2,block,(5,1)), reachable(psm2,block,(5,2)), reachable(psm2,block,(5,3)), reachable(psm2,block,(5,4)), reachable(psm2,block,(5,5)), fixed((1,1)), fixed((3,3)), fixed((2,4)), fixed((2,2)), fixed((1,5)), fixed((4,1)), fixed((3,2)), fixed((3,1)), above_tumor((5,4)), closed_gripper(psm1), max_height(psm1), in_hand(psm1,block,(5,3)), at(psm1,block,(5,3)), |move(psm1,block,(5,4),1), 
0.1166908741|reachable(psm1,block,(1,1)), reachable(psm1,block,(1,2)), reachable(psm1,block,(1,3)), reachable(psm1,block,(1,4)), reachable(psm1,block,(1,5)), reachable(psm1,block,(2,1)), reachable(psm1,block,(2,2)), reachable(psm1,block,(2,3)), reachable(psm1,block,(2,4)), reachable(psm1,block,(2,5)), reachable(psm1,block,(3,1)), reachable(psm1,block,(3,2)), reachable(psm1,block,(3,3)), reachable(psm2,block,(3,4)), reachable(psm2,block,(3,5)), reachable(psm2,block,(4,1)), reachable(psm2,block,(4,2)), reachable(psm2,block,(4,3)), reachable(psm2,block,(4,4)), reachable(psm2,block,(4,5)), reachable(psm2,block,(5,1)), reachable(psm2,block,(5,2)), reachable(psm2,block,(5,3)), reachable(psm2,block,(5,4)), reachable(psm2,block,(5,5)), fixed((2,1)), fixed((3,4)), fixed((3,5)), fixed((1,3)), fixed((1,2)), fixed((2,2)), fixed((3,3)), fixed((4,1)), above_tumor((5,4)), closed_gripper(psm2), max_height(psm2), in_hand(psm2,block,(5,5)), at(psm2,block,(5,5)), |move(psm2,block,(5,4),1), 
0.112884998322|reachable(psm1,block,(1,1)), reachable(psm1,block,(1,2)), reachable(psm1,block,(1,3)), reachable(psm1,block,(1,4)), reachable(psm1,block,(1,5)), reachable(psm1,block,(2,1)), reachable(psm1,block,(2,2)), reachable(psm1,block,(2,3)), reachable(psm1,block,(2,4)), reachable(psm1,block,(2,5)), reachable(psm1,block,(3,1)), reachable(psm1,block,(3,2)), reachable(psm1,block,(3,3)), reachable(psm2,block,(3,4)), reachable(psm2,block,(3,5)), reachable(psm2,block,(4,1)), reachable(psm2,block,(4,2)), reachable(psm2,block,(4,3)), reachable(psm2,block,(4,4)), reachable(psm2,block,(4,5)), reachable(psm2,block,(5,1)), reachable(psm2,block,(5,2)), reachable(psm2,block,(5,3)), reachable(psm2,block,(5,4)), reachable(psm2,block,(5,5)), fixed((2,5)), fixed((2,1)), fixed((3,3)), fixed((2,2)), fixed((4,1)), fixed((1,4)), fixed((1,5)), fixed((3,1)), above_tumor((4,4)), closed_gripper(psm1), max_height(psm1), in_hand(psm1,block,(4,2)), at(psm1,block,(4,2)), |move(psm1,block,(4,4),1), 
0.303781032562|reachable(psm1,block,(1,1)), reachable(psm1,block,(1,2)), reachable(psm1,block,(1,3)), reachable(psm1,block,(1,4)), reachable(psm1,block,(1,5)), reachable(psm1,block,(2,1)), reachable(psm1,block,(2,2)), reachable(psm1,block,(2,3)), reachable(psm1,block,(2,4)), reachable(psm1,block,(2,5)), reachable(psm1,block,(3,1)), reachable(psm1,block,(3,2)), reachable(psm1,block,(3,3)), reachable(psm2,block,(3,4)), reachable(psm2,block,(3,5)), reachable(psm2,block,(4,1)), reachable(psm2,block,(4,2)), reachable(psm2,block,(4,3)), reachable(psm2,block,(4,4)), reachable(psm2,block,(4,5)), reachable(psm2,block,(5,1)), reachable(psm2,block,(5,2)), reachable(psm2,block,(5,3)), reachable(psm2,block,(5,4)), reachable(psm2,block,(5,5)), fixed((3,5)), fixed((2,3)), fixed((4,1)), fixed((3,4)), fixed((1,1)), fixed((2,2)), fixed((3,3)), fixed((1,5)), above_tumor((5,1)), closed_gripper(psm2), max_height(psm2), in_hand(psm2,block,(4,3)), at(psm2,block,(4,3)), |release(psm2,none,none,1), reach(psm2,block,(5,5),2), grasp(psm2,block,(5,5),3), pull(psm2,block,(5,5),4), 
0.110138893127|reachable(psm1,block,(1,1)), reachable(psm1,block,(1,2)), reachable(psm1,block,(1,3)), reachable(psm1,block,(1,4)), reachable(psm1,block,(1,5)), reachable(psm1,block,(2,1)), reachable(psm1,block,(2,2)), reachable(psm1,block,(2,3)), reachable(psm1,block,(2,4)), reachable(psm1,block,(2,5)), reachable(psm1,block,(3,1)), reachable(psm1,block,(3,2)), reachable(psm1,block,(3,3)), reachable(psm2,block,(3,4)), reachable(psm2,block,(3,5)), reachable(psm2,block,(4,1)), reachable(psm2,block,(4,2)), reachable(psm2,block,(4,3)), reachable(psm2,block,(4,4)), reachable(psm2,block,(4,5)), reachable(psm2,block,(5,1)), reachable(psm2,block,(5,2)), reachable(psm2,block,(5,3)), reachable(psm2,block,(5,4)), reachable(psm2,block,(5,5)), fixed((1,1)), fixed((2,5)), fixed((1,2)), fixed((1,4)), fixed((1,5)), fixed((3,1)), fixed((4,1)), fixed((2,3)), above_tumor((5,4)), closed_gripper(psm1), max_height(psm1), in_hand(psm1,block,(4,2)), at(psm1,block,(4,2)), |move(psm1,block,(5,4),1), 
0.115251064301|reachable(psm1,block,(1,1)), reachable(psm1,block,(1,2)), reachable(psm1,block,(1,3)), reachable(psm1,block,(1,4)), reachable(psm1,block,(1,5)), reachable(psm1,block,(2,1)), reachable(psm1,block,(2,2)), reachable(psm1,block,(2,3)), reachable(psm1,block,(2,4)), reachable(psm1,block,(2,5)), reachable(psm1,block,(3,1)), reachable(psm1,block,(3,2)), reachable(psm1,block,(3,3)), reachable(psm2,block,(3,4)), reachable(psm2,block,(3,5)), reachable(psm2,block,(4,1)), reachable(psm2,block,(4,2)), reachable(psm2,block,(4,3)), reachable(psm2,block,(4,4)), reachable(psm2,block,(4,5)), reachable(psm2,block,(5,1)), reachable(psm2,block,(5,2)), reachable(psm2,block,(5,3)), reachable(psm2,block,(5,4)), reachable(psm2,block,(5,5)), fixed((2,2)), fixed((1,1)), fixed((2,3)), fixed((1,3)), fixed((3,5)), fixed((3,4)), fixed((2,5)), fixed((1,4)), above_tumor((5,5)), closed_gripper(psm1), max_height(psm1), in_hand(psm1,block,(4,2)), at(psm1,block,(4,2)), |move(psm1,block,(5,5),1), 
0.0973927974701|reachable(psm1,block,(1,1)), reachable(psm1,block,(1,2)), reachable(psm1,block,(1,3)), reachable(psm1,block,(1,4)), reachable(psm1,block,(1,5)), reachable(psm1,block,(2,1)), reachable(psm1,block,(2,2)), reachable(psm1,block,(2,3)), reachable(psm1,block,(2,4)), reachable(psm1,block,(2,5)), reachable(psm1,block,(3,1)), reachable(psm1,block,(3,2)), reachable(psm1,block,(3,3)), reachable(psm2,block,(3,4)), reachable(psm2,block,(3,5)), reachable(psm2,block,(4,1)), reachable(psm2,block,(4,2)), reachable(psm2,block,(4,3)), reachable(psm2,block,(4,4)), reachable(psm2,block,(4,5)), reachable(psm2,block,(5,1)), reachable(psm2,block,(5,2)), reachable(psm2,block,(5,3)), reachable(psm2,block,(5,4)), reachable(psm2,block,(5,5)), fixed((2,1)), fixed((4,1)), fixed((3,2)), fixed((3,4)), fixed((2,2)), fixed((1,3)), fixed((1,1)), fixed((1,4)), above_tumor((5,2)), closed_gripper(psm1), max_height(psm1), in_hand(psm1,block,(5,4)), at(psm1,block,(5,4)), |move(psm1,block,(5,2),1), 
0.116164207458|reachable(psm1,block,(1,1)), reachable(psm1,block,(1,2)), reachable(psm1,block,(1,3)), reachable(psm1,block,(1,4)), reachable(psm1,block,(1,5)), reachable(psm1,block,(2,1)), reachable(psm1,block,(2,2)), reachable(psm1,block,(2,3)), reachable(psm1,block,(2,4)), reachable(psm1,block,(2,5)), reachable(psm1,block,(3,1)), reachable(psm1,block,(3,2)), reachable(psm1,block,(3,3)), reachable(psm2,block,(3,4)), reachable(psm2,block,(3,5)), reachable(psm2,block,(4,1)), reachable(psm2,block,(4,2)), reachable(psm2,block,(4,3)), reachable(psm2,block,(4,4)), reachable(psm2,block,(4,5)), reachable(psm2,block,(5,1)), reachable(psm2,block,(5,2)), reachable(psm2,block,(5,3)), reachable(psm2,block,(5,4)), reachable(psm2,block,(5,5)), fixed((1,5)), fixed((4,1)), fixed((2,1)), fixed((3,2)), fixed((2,2)), fixed((3,3)), fixed((3,1)), fixed((3,5)), above_tumor((4,4)), closed_gripper(psm2), max_height(psm2), in_hand(psm2,block,(4,5)), at(psm2,block,(4,5)), |move(psm2,block,(4,4),1), 
0.132513999939|reachable(psm1,block,(1,1)), reachable(psm1,block,(1,2)), reachable(psm1,block,(1,3)), reachable(psm1,block,(1,4)), reachable(psm1,block,(1,5)), reachable(psm1,block,(2,1)), reachable(psm1,block,(2,2)), reachable(psm1,block,(2,3)), reachable(psm1,block,(2,4)), reachable(psm1,block,(2,5)), reachable(psm1,block,(3,1)), reachable(psm1,block,(3,2)), reachable(psm1,block,(3,3)), reachable(psm2,block,(3,4)), reachable(psm2,block,(3,5)), reachable(psm2,block,(4,1)), reachable(psm2,block,(4,2)), reachable(psm2,block,(4,3)), reachable(psm2,block,(4,4)), reachable(psm2,block,(4,5)), reachable(psm2,block,(5,1)), reachable(psm2,block,(5,2)), reachable(psm2,block,(5,3)), reachable(psm2,block,(5,4)), reachable(psm2,block,(5,5)), fixed((1,4)), fixed((1,1)), fixed((2,2)), fixed((3,4)), fixed((3,2)), fixed((2,1)), fixed((3,5)), fixed((1,5)), above_tumor((5,2)), closed_gripper(psm2), max_height(psm2), in_hand(psm2,block,(4,5)), at(psm2,block,(4,5)), |move(psm2,block,(5,2),1), 
0.113380908966|reachable(psm1,block,(1,1)), reachable(psm1,block,(1,2)), reachable(psm1,block,(1,3)), reachable(psm1,block,(1,4)), reachable(psm1,block,(1,5)), reachable(psm1,block,(2,1)), reachable(psm1,block,(2,2)), reachable(psm1,block,(2,3)), reachable(psm1,block,(2,4)), reachable(psm1,block,(2,5)), reachable(psm1,block,(3,1)), reachable(psm1,block,(3,2)), reachable(psm1,block,(3,3)), reachable(psm2,block,(3,4)), reachable(psm2,block,(3,5)), reachable(psm2,block,(4,1)), reachable(psm2,block,(4,2)), reachable(psm2,block,(4,3)), reachable(psm2,block,(4,4)), reachable(psm2,block,(4,5)), reachable(psm2,block,(5,1)), reachable(psm2,block,(5,2)), reachable(psm2,block,(5,3)), reachable(psm2,block,(5,4)), reachable(psm2,block,(5,5)), fixed((1,1)), fixed((4,1)), fixed((3,5)), fixed((2,4)), fixed((2,5)), fixed((3,3)), fixed((3,1)), fixed((3,2)), above_tumor((5,4)), closed_gripper(psm2), max_height(psm2), in_hand(psm2,block,(4,3)), at(psm2,block,(4,3)), |move(psm2,block,(5,4),1), 
0.120702981949|reachable(psm1,block,(1,1)), reachable(psm1,block,(1,2)), reachable(psm1,block,(1,3)), reachable(psm1,block,(1,4)), reachable(psm1,block,(1,5)), reachable(psm1,block,(2,1)), reachable(psm1,block,(2,2)), reachable(psm1,block,(2,3)), reachable(psm1,block,(2,4)), reachable(psm1,block,(2,5)), reachable(psm1,block,(3,1)), reachable(psm1,block,(3,2)), reachable(psm1,block,(3,3)), reachable(psm2,block,(3,4)), reachable(psm2,block,(3,5)), reachable(psm2,block,(4,1)), reachable(psm2,block,(4,2)), reachable(psm2,block,(4,3)), reachable(psm2,block,(4,4)), reachable(psm2,block,(4,5)), reachable(psm2,block,(5,1)), reachable(psm2,block,(5,2)), reachable(psm2,block,(5,3)), reachable(psm2,block,(5,4)), reachable(psm2,block,(5,5)), fixed((2,1)), fixed((3,2)), fixed((2,5)), fixed((1,1)), fixed((3,3)), fixed((3,4)), fixed((1,3)), fixed((3,1)), above_tumor((4,3)), closed_gripper(psm2), max_height(psm2), in_hand(psm2,block,(5,4)), at(psm2,block,(5,4)), |move(psm2,block,(4,3),1), 
0.0989711284637|reachable(psm1,block,(1,1)), reachable(psm1,block,(1,2)), reachable(psm1,block,(1,3)), reachable(psm1,block,(1,4)), reachable(psm1,block,(1,5)), reachable(psm1,block,(2,1)), reachable(psm1,block,(2,2)), reachable(psm1,block,(2,3)), reachable(psm1,block,(2,4)), reachable(psm1,block,(2,5)), reachable(psm1,block,(3,1)), reachable(psm1,block,(3,2)), reachable(psm1,block,(3,3)), reachable(psm2,block,(3,4)), reachable(psm2,block,(3,5)), reachable(psm2,block,(4,1)), reachable(psm2,block,(4,2)), reachable(psm2,block,(4,3)), reachable(psm2,block,(4,4)), reachable(psm2,block,(4,5)), reachable(psm2,block,(5,1)), reachable(psm2,block,(5,2)), reachable(psm2,block,(5,3)), reachable(psm2,block,(5,4)), reachable(psm2,block,(5,5)), fixed((2,4)), fixed((2,3)), fixed((4,1)), fixed((1,2)), fixed((3,3)), fixed((1,4)), fixed((3,2)), fixed((3,1)), above_tumor((5,5)), closed_gripper(psm2), max_height(psm2), in_hand(psm2,block,(5,1)), at(psm2,block,(5,1)), |move(psm2,block,(5,5),1), 
0.110181093216|reachable(psm1,block,(1,1)), reachable(psm1,block,(1,2)), reachable(psm1,block,(1,3)), reachable(psm1,block,(1,4)), reachable(psm1,block,(1,5)), reachable(psm1,block,(2,1)), reachable(psm1,block,(2,2)), reachable(psm1,block,(2,3)), reachable(psm1,block,(2,4)), reachable(psm1,block,(2,5)), reachable(psm1,block,(3,1)), reachable(psm1,block,(3,2)), reachable(psm1,block,(3,3)), reachable(psm2,block,(3,4)), reachable(psm2,block,(3,5)), reachable(psm2,block,(4,1)), reachable(psm2,block,(4,2)), reachable(psm2,block,(4,3)), reachable(psm2,block,(4,4)), reachable(psm2,block,(4,5)), reachable(psm2,block,(5,1)), reachable(psm2,block,(5,2)), reachable(psm2,block,(5,3)), reachable(psm2,block,(5,4)), reachable(psm2,block,(5,5)), fixed((1,2)), fixed((1,3)), fixed((1,5)), fixed((1,4)), fixed((2,4)), fixed((2,5)), fixed((2,3)), fixed((3,3)), above_tumor((5,2)), closed_gripper(psm2), max_height(psm2), in_hand(psm2,block,(5,3)), at(psm2,block,(5,3)), |move(psm2,block,(5,2),1), 
0.11168217659|reachable(psm1,block,(1,1)), reachable(psm1,block,(1,2)), reachable(psm1,block,(1,3)), reachable(psm1,block,(1,4)), reachable(psm1,block,(1,5)), reachable(psm1,block,(2,1)), reachable(psm1,block,(2,2)), reachable(psm1,block,(2,3)), reachable(psm1,block,(2,4)), reachable(psm1,block,(2,5)), reachable(psm1,block,(3,1)), reachable(psm1,block,(3,2)), reachable(psm1,block,(3,3)), reachable(psm2,block,(3,4)), reachable(psm2,block,(3,5)), reachable(psm2,block,(4,1)), reachable(psm2,block,(4,2)), reachable(psm2,block,(4,3)), reachable(psm2,block,(4,4)), reachable(psm2,block,(4,5)), reachable(psm2,block,(5,1)), reachable(psm2,block,(5,2)), reachable(psm2,block,(5,3)), reachable(psm2,block,(5,4)), reachable(psm2,block,(5,5)), fixed((2,5)), fixed((2,1)), fixed((2,3)), fixed((3,2)), fixed((3,5)), fixed((3,4)), fixed((1,1)), fixed((3,3)), above_tumor((5,3)), closed_gripper(psm1), max_height(psm1), in_hand(psm1,block,(5,1)), at(psm1,block,(5,1)), |move(psm1,block,(5,3),1), 
0.104078054428|reachable(psm1,block,(1,1)), reachable(psm1,block,(1,2)), reachable(psm1,block,(1,3)), reachable(psm1,block,(1,4)), reachable(psm1,block,(1,5)), reachable(psm1,block,(2,1)), reachable(psm1,block,(2,2)), reachable(psm1,block,(2,3)), reachable(psm1,block,(2,4)), reachable(psm1,block,(2,5)), reachable(psm1,block,(3,1)), reachable(psm1,block,(3,2)), reachable(psm1,block,(3,3)), reachable(psm2,block,(3,4)), reachable(psm2,block,(3,5)), reachable(psm2,block,(4,1)), reachable(psm2,block,(4,2)), reachable(psm2,block,(4,3)), reachable(psm2,block,(4,4)), reachable(psm2,block,(4,5)), reachable(psm2,block,(5,1)), reachable(psm2,block,(5,2)), reachable(psm2,block,(5,3)), reachable(psm2,block,(5,4)), reachable(psm2,block,(5,5)), fixed((3,1)), fixed((1,1)), fixed((2,1)), fixed((2,5)), fixed((3,3)), fixed((3,2)), fixed((2,3)), fixed((1,2)), above_tumor((4,4)), closed_gripper(psm1), max_height(psm1), in_hand(psm1,block,(5,4)), at(psm1,block,(5,4)), |move(psm1,block,(4,4),1), 
0.109139919281|reachable(psm1,block,(1,1)), reachable(psm1,block,(1,2)), reachable(psm1,block,(1,3)), reachable(psm1,block,(1,4)), reachable(psm1,block,(1,5)), reachable(psm1,block,(2,1)), reachable(psm1,block,(2,2)), reachable(psm1,block,(2,3)), reachable(psm1,block,(2,4)), reachable(psm1,block,(2,5)), reachable(psm1,block,(3,1)), reachable(psm1,block,(3,2)), reachable(psm1,block,(3,3)), reachable(psm2,block,(3,4)), reachable(psm2,block,(3,5)), reachable(psm2,block,(4,1)), reachable(psm2,block,(4,2)), reachable(psm2,block,(4,3)), reachable(psm2,block,(4,4)), reachable(psm2,block,(4,5)), reachable(psm2,block,(5,1)), reachable(psm2,block,(5,2)), reachable(psm2,block,(5,3)), reachable(psm2,block,(5,4)), reachable(psm2,block,(5,5)), fixed((4,1)), fixed((2,5)), fixed((2,1)), fixed((1,1)), fixed((3,1)), fixed((2,3)), fixed((1,3)), fixed((1,5)), above_tumor((5,2)), closed_gripper(psm1), max_height(psm1), in_hand(psm1,block,(4,2)), at(psm1,block,(4,2)), |move(psm1,block,(5,2),1), 
0.10182094574|reachable(psm1,block,(1,1)), reachable(psm1,block,(1,2)), reachable(psm1,block,(1,3)), reachable(psm1,block,(1,4)), reachable(psm1,block,(1,5)), reachable(psm1,block,(2,1)), reachable(psm1,block,(2,2)), reachable(psm1,block,(2,3)), reachable(psm1,block,(2,4)), reachable(psm1,block,(2,5)), reachable(psm1,block,(3,1)), reachable(psm1,block,(3,2)), reachable(psm1,block,(3,3)), reachable(psm2,block,(3,4)), reachable(psm2,block,(3,5)), reachable(psm2,block,(4,1)), reachable(psm2,block,(4,2)), reachable(psm2,block,(4,3)), reachable(psm2,block,(4,4)), reachable(psm2,block,(4,5)), reachable(psm2,block,(5,1)), reachable(psm2,block,(5,2)), reachable(psm2,block,(5,3)), reachable(psm2,block,(5,4)), reachable(psm2,block,(5,5)), fixed((1,5)), fixed((2,1)), fixed((4,1)), fixed((2,5)), fixed((3,3)), fixed((3,2)), fixed((1,3)), fixed((3,5)), above_tumor((5,1)), closed_gripper(psm1), max_height(psm1), in_hand(psm1,block,(5,5)), at(psm1,block,(5,5)), |move(psm1,block,(5,1),1), 
0.105116844177|reachable(psm1,block,(1,1)), reachable(psm1,block,(1,2)), reachable(psm1,block,(1,3)), reachable(psm1,block,(1,4)), reachable(psm1,block,(1,5)), reachable(psm1,block,(2,1)), reachable(psm1,block,(2,2)), reachable(psm1,block,(2,3)), reachable(psm1,block,(2,4)), reachable(psm1,block,(2,5)), reachable(psm1,block,(3,1)), reachable(psm1,block,(3,2)), reachable(psm1,block,(3,3)), reachable(psm2,block,(3,4)), reachable(psm2,block,(3,5)), reachable(psm2,block,(4,1)), reachable(psm2,block,(4,2)), reachable(psm2,block,(4,3)), reachable(psm2,block,(4,4)), reachable(psm2,block,(4,5)), reachable(psm2,block,(5,1)), reachable(psm2,block,(5,2)), reachable(psm2,block,(5,3)), reachable(psm2,block,(5,4)), reachable(psm2,block,(5,5)), fixed((2,4)), fixed((2,1)), fixed((3,4)), fixed((3,1)), fixed((2,2)), fixed((1,4)), fixed((3,5)), fixed((1,2)), above_tumor((4,2)), closed_gripper(psm2), max_height(psm2), in_hand(psm2,block,(4,5)), at(psm2,block,(4,5)), |move(psm2,block,(4,2),1), 
0.110171079636|reachable(psm1,block,(1,1)), reachable(psm1,block,(1,2)), reachable(psm1,block,(1,3)), reachable(psm1,block,(1,4)), reachable(psm1,block,(1,5)), reachable(psm1,block,(2,1)), reachable(psm1,block,(2,2)), reachable(psm1,block,(2,3)), reachable(psm1,block,(2,4)), reachable(psm1,block,(2,5)), reachable(psm1,block,(3,1)), reachable(psm1,block,(3,2)), reachable(psm1,block,(3,3)), reachable(psm2,block,(3,4)), reachable(psm2,block,(3,5)), reachable(psm2,block,(4,1)), reachable(psm2,block,(4,2)), reachable(psm2,block,(4,3)), reachable(psm2,block,(4,4)), reachable(psm2,block,(4,5)), reachable(psm2,block,(5,1)), reachable(psm2,block,(5,2)), reachable(psm2,block,(5,3)), reachable(psm2,block,(5,4)), reachable(psm2,block,(5,5)), fixed((3,4)), fixed((1,2)), fixed((2,1)), fixed((3,2)), fixed((1,5)), fixed((3,1)), fixed((2,3)), fixed((3,3)), above_tumor((5,1)), closed_gripper(psm2), max_height(psm2), in_hand(psm2,block,(5,2)), at(psm2,block,(5,2)), |move(psm2,block,(5,1),1), 
0.111061096191|reachable(psm1,block,(1,1)), reachable(psm1,block,(1,2)), reachable(psm1,block,(1,3)), reachable(psm1,block,(1,4)), reachable(psm1,block,(1,5)), reachable(psm1,block,(2,1)), reachable(psm1,block,(2,2)), reachable(psm1,block,(2,3)), reachable(psm1,block,(2,4)), reachable(psm1,block,(2,5)), reachable(psm1,block,(3,1)), reachable(psm1,block,(3,2)), reachable(psm1,block,(3,3)), reachable(psm2,block,(3,4)), reachable(psm2,block,(3,5)), reachable(psm2,block,(4,1)), reachable(psm2,block,(4,2)), reachable(psm2,block,(4,3)), reachable(psm2,block,(4,4)), reachable(psm2,block,(4,5)), reachable(psm2,block,(5,1)), reachable(psm2,block,(5,2)), reachable(psm2,block,(5,3)), reachable(psm2,block,(5,4)), reachable(psm2,block,(5,5)), fixed((4,1)), fixed((2,4)), fixed((2,3)), fixed((1,2)), fixed((3,5)), fixed((3,2)), fixed((3,1)), fixed((2,5)), above_tumor((5,4)), closed_gripper(psm2), max_height(psm2), in_hand(psm2,block,(4,4)), at(psm2,block,(4,4)), |move(psm2,block,(5,4),1), 
0.113708972931|reachable(psm1,block,(1,1)), reachable(psm1,block,(1,2)), reachable(psm1,block,(1,3)), reachable(psm1,block,(1,4)), reachable(psm1,block,(1,5)), reachable(psm1,block,(2,1)), reachable(psm1,block,(2,2)), reachable(psm1,block,(2,3)), reachable(psm1,block,(2,4)), reachable(psm1,block,(2,5)), reachable(psm1,block,(3,1)), reachable(psm1,block,(3,2)), reachable(psm1,block,(3,3)), reachable(psm2,block,(3,4)), reachable(psm2,block,(3,5)), reachable(psm2,block,(4,1)), reachable(psm2,block,(4,2)), reachable(psm2,block,(4,3)), reachable(psm2,block,(4,4)), reachable(psm2,block,(4,5)), reachable(psm2,block,(5,1)), reachable(psm2,block,(5,2)), reachable(psm2,block,(5,3)), reachable(psm2,block,(5,4)), reachable(psm2,block,(5,5)), fixed((2,1)), fixed((1,1)), fixed((2,2)), fixed((3,4)), fixed((4,1)), fixed((2,3)), fixed((2,5)), fixed((1,2)), above_tumor((4,3)), closed_gripper(psm1), max_height(psm1), in_hand(psm1,block,(4,4)), at(psm1,block,(4,4)), |move(psm1,block,(4,3),1), 
0.115443944931|reachable(psm1,block,(1,1)), reachable(psm1,block,(1,2)), reachable(psm1,block,(1,3)), reachable(psm1,block,(1,4)), reachable(psm1,block,(1,5)), reachable(psm1,block,(2,1)), reachable(psm1,block,(2,2)), reachable(psm1,block,(2,3)), reachable(psm1,block,(2,4)), reachable(psm1,block,(2,5)), reachable(psm1,block,(3,1)), reachable(psm1,block,(3,2)), reachable(psm1,block,(3,3)), reachable(psm2,block,(3,4)), reachable(psm2,block,(3,5)), reachable(psm2,block,(4,1)), reachable(psm2,block,(4,2)), reachable(psm2,block,(4,3)), reachable(psm2,block,(4,4)), reachable(psm2,block,(4,5)), reachable(psm2,block,(5,1)), reachable(psm2,block,(5,2)), reachable(psm2,block,(5,3)), reachable(psm2,block,(5,4)), reachable(psm2,block,(5,5)), fixed((2,1)), fixed((1,2)), fixed((2,5)), fixed((1,4)), fixed((1,5)), fixed((2,4)), fixed((3,3)), fixed((2,3)), above_tumor((5,3)), closed_gripper(psm1), max_height(psm1), in_hand(psm1,block,(4,2)), at(psm1,block,(4,2)), |move(psm1,block,(5,3),1), 
0.0998139381409|reachable(psm1,block,(1,1)), reachable(psm1,block,(1,2)), reachable(psm1,block,(1,3)), reachable(psm1,block,(1,4)), reachable(psm1,block,(1,5)), reachable(psm1,block,(2,1)), reachable(psm1,block,(2,2)), reachable(psm1,block,(2,3)), reachable(psm1,block,(2,4)), reachable(psm1,block,(2,5)), reachable(psm1,block,(3,1)), reachable(psm1,block,(3,2)), reachable(psm1,block,(3,3)), reachable(psm2,block,(3,4)), reachable(psm2,block,(3,5)), reachable(psm2,block,(4,1)), reachable(psm2,block,(4,2)), reachable(psm2,block,(4,3)), reachable(psm2,block,(4,4)), reachable(psm2,block,(4,5)), reachable(psm2,block,(5,1)), reachable(psm2,block,(5,2)), reachable(psm2,block,(5,3)), reachable(psm2,block,(5,4)), reachable(psm2,block,(5,5)), fixed((2,2)), fixed((2,1)), fixed((2,3)), fixed((2,4)), fixed((3,2)), fixed((3,1)), fixed((1,5)), fixed((1,1)), above_tumor((5,1)), closed_gripper(psm2), max_height(psm2), in_hand(psm2,block,(4,2)), at(psm2,block,(4,2)), |move(psm2,block,(5,1),1), 
0.114261865616|reachable(psm1,block,(1,1)), reachable(psm1,block,(1,2)), reachable(psm1,block,(1,3)), reachable(psm1,block,(1,4)), reachable(psm1,block,(1,5)), reachable(psm1,block,(2,1)), reachable(psm1,block,(2,2)), reachable(psm1,block,(2,3)), reachable(psm1,block,(2,4)), reachable(psm1,block,(2,5)), reachable(psm1,block,(3,1)), reachable(psm1,block,(3,2)), reachable(psm1,block,(3,3)), reachable(psm2,block,(3,4)), reachable(psm2,block,(3,5)), reachable(psm2,block,(4,1)), reachable(psm2,block,(4,2)), reachable(psm2,block,(4,3)), reachable(psm2,block,(4,4)), reachable(psm2,block,(4,5)), reachable(psm2,block,(5,1)), reachable(psm2,block,(5,2)), reachable(psm2,block,(5,3)), reachable(psm2,block,(5,4)), reachable(psm2,block,(5,5)), fixed((1,5)), fixed((3,5)), fixed((3,4)), fixed((2,5)), fixed((2,3)), fixed((3,3)), fixed((2,4)), fixed((3,1)), above_tumor((5,3)), closed_gripper(psm2), max_height(psm2), in_hand(psm2,block,(5,2)), at(psm2,block,(5,2)), |move(psm2,block,(5,3),1), 
0.108711957932|reachable(psm1,block,(1,1)), reachable(psm1,block,(1,2)), reachable(psm1,block,(1,3)), reachable(psm1,block,(1,4)), reachable(psm1,block,(1,5)), reachable(psm1,block,(2,1)), reachable(psm1,block,(2,2)), reachable(psm1,block,(2,3)), reachable(psm1,block,(2,4)), reachable(psm1,block,(2,5)), reachable(psm1,block,(3,1)), reachable(psm1,block,(3,2)), reachable(psm1,block,(3,3)), reachable(psm2,block,(3,4)), reachable(psm2,block,(3,5)), reachable(psm2,block,(4,1)), reachable(psm2,block,(4,2)), reachable(psm2,block,(4,3)), reachable(psm2,block,(4,4)), reachable(psm2,block,(4,5)), reachable(psm2,block,(5,1)), reachable(psm2,block,(5,2)), reachable(psm2,block,(5,3)), reachable(psm2,block,(5,4)), reachable(psm2,block,(5,5)), fixed((2,4)), fixed((3,1)), fixed((3,2)), fixed((1,3)), fixed((1,1)), fixed((3,3)), fixed((2,3)), fixed((2,5)), above_tumor((4,5)), closed_gripper(psm2), max_height(psm2), in_hand(psm2,block,(5,3)), at(psm2,block,(5,3)), |move(psm2,block,(4,5),1), 
0.108650922775|reachable(psm1,block,(1,1)), reachable(psm1,block,(1,2)), reachable(psm1,block,(1,3)), reachable(psm1,block,(1,4)), reachable(psm1,block,(1,5)), reachable(psm1,block,(2,1)), reachable(psm1,block,(2,2)), reachable(psm1,block,(2,3)), reachable(psm1,block,(2,4)), reachable(psm1,block,(2,5)), reachable(psm1,block,(3,1)), reachable(psm1,block,(3,2)), reachable(psm1,block,(3,3)), reachable(psm2,block,(3,4)), reachable(psm2,block,(3,5)), reachable(psm2,block,(4,1)), reachable(psm2,block,(4,2)), reachable(psm2,block,(4,3)), reachable(psm2,block,(4,4)), reachable(psm2,block,(4,5)), reachable(psm2,block,(5,1)), reachable(psm2,block,(5,2)), reachable(psm2,block,(5,3)), reachable(psm2,block,(5,4)), reachable(psm2,block,(5,5)), fixed((3,2)), fixed((2,3)), fixed((3,3)), fixed((3,1)), fixed((1,5)), fixed((2,5)), fixed((1,3)), fixed((1,4)), above_tumor((4,4)), closed_gripper(psm1), max_height(psm1), in_hand(psm1,block,(4,5)), at(psm1,block,(4,5)), |move(psm1,block,(4,4),1), 
0.119622945786|reachable(psm1,block,(1,1)), reachable(psm1,block,(1,2)), reachable(psm1,block,(1,3)), reachable(psm1,block,(1,4)), reachable(psm1,block,(1,5)), reachable(psm1,block,(2,1)), reachable(psm1,block,(2,2)), reachable(psm1,block,(2,3)), reachable(psm1,block,(2,4)), reachable(psm1,block,(2,5)), reachable(psm1,block,(3,1)), reachable(psm1,block,(3,2)), reachable(psm1,block,(3,3)), reachable(psm2,block,(3,4)), reachable(psm2,block,(3,5)), reachable(psm2,block,(4,1)), reachable(psm2,block,(4,2)), reachable(psm2,block,(4,3)), reachable(psm2,block,(4,4)), reachable(psm2,block,(4,5)), reachable(psm2,block,(5,1)), reachable(psm2,block,(5,2)), reachable(psm2,block,(5,3)), reachable(psm2,block,(5,4)), reachable(psm2,block,(5,5)), fixed((2,5)), fixed((3,2)), fixed((1,4)), fixed((1,5)), fixed((3,3)), fixed((1,2)), fixed((3,1)), fixed((2,1)), above_tumor((5,2)), closed_gripper(psm2), max_height(psm2), in_hand(psm2,block,(4,5)), at(psm2,block,(4,5)), |move(psm2,block,(5,2),1), 
0.0921831130981|reachable(psm1,block,(1,1)), reachable(psm1,block,(1,2)), reachable(psm1,block,(1,3)), reachable(psm1,block,(1,4)), reachable(psm1,block,(1,5)), reachable(psm1,block,(2,1)), reachable(psm1,block,(2,2)), reachable(psm1,block,(2,3)), reachable(psm1,block,(2,4)), reachable(psm1,block,(2,5)), reachable(psm1,block,(3,1)), reachable(psm1,block,(3,2)), reachable(psm1,block,(3,3)), reachable(psm2,block,(3,4)), reachable(psm2,block,(3,5)), reachable(psm2,block,(4,1)), reachable(psm2,block,(4,2)), reachable(psm2,block,(4,3)), reachable(psm2,block,(4,4)), reachable(psm2,block,(4,5)), reachable(psm2,block,(5,1)), reachable(psm2,block,(5,2)), reachable(psm2,block,(5,3)), reachable(psm2,block,(5,4)), reachable(psm2,block,(5,5)), fixed((1,2)), fixed((1,1)), fixed((3,3)), fixed((2,1)), fixed((2,5)), fixed((2,2)), fixed((3,5)), fixed((3,1)), above_tumor((4,2)), closed_gripper(psm2), max_height(psm2), in_hand(psm2,block,(5,4)), at(psm2,block,(5,4)), |move(psm2,block,(4,2),1), 
0.115974903107|reachable(psm1,block,(1,1)), reachable(psm1,block,(1,2)), reachable(psm1,block,(1,3)), reachable(psm1,block,(1,4)), reachable(psm1,block,(1,5)), reachable(psm1,block,(2,1)), reachable(psm1,block,(2,2)), reachable(psm1,block,(2,3)), reachable(psm1,block,(2,4)), reachable(psm1,block,(2,5)), reachable(psm1,block,(3,1)), reachable(psm1,block,(3,2)), reachable(psm1,block,(3,3)), reachable(psm2,block,(3,4)), reachable(psm2,block,(3,5)), reachable(psm2,block,(4,1)), reachable(psm2,block,(4,2)), reachable(psm2,block,(4,3)), reachable(psm2,block,(4,4)), reachable(psm2,block,(4,5)), reachable(psm2,block,(5,1)), reachable(psm2,block,(5,2)), reachable(psm2,block,(5,3)), reachable(psm2,block,(5,4)), reachable(psm2,block,(5,5)), fixed((2,1)), fixed((3,1)), fixed((1,1)), fixed((3,5)), fixed((2,2)), fixed((2,4)), fixed((1,3)), fixed((1,4)), above_tumor((5,5)), closed_gripper(psm1), max_height(psm1), in_hand(psm1,block,(4,3)), at(psm1,block,(4,3)), |move(psm1,block,(5,5),1), 
0.113589048386|reachable(psm1,block,(1,1)), reachable(psm1,block,(1,2)), reachable(psm1,block,(1,3)), reachable(psm1,block,(1,4)), reachable(psm1,block,(1,5)), reachable(psm1,block,(2,1)), reachable(psm1,block,(2,2)), reachable(psm1,block,(2,3)), reachable(psm1,block,(2,4)), reachable(psm1,block,(2,5)), reachable(psm1,block,(3,1)), reachable(psm1,block,(3,2)), reachable(psm1,block,(3,3)), reachable(psm2,block,(3,4)), reachable(psm2,block,(3,5)), reachable(psm2,block,(4,1)), reachable(psm2,block,(4,2)), reachable(psm2,block,(4,3)), reachable(psm2,block,(4,4)), reachable(psm2,block,(4,5)), reachable(psm2,block,(5,1)), reachable(psm2,block,(5,2)), reachable(psm2,block,(5,3)), reachable(psm2,block,(5,4)), reachable(psm2,block,(5,5)), fixed((3,5)), fixed((3,2)), fixed((1,3)), fixed((1,1)), fixed((2,3)), fixed((2,5)), fixed((1,4)), fixed((3,3)), above_tumor((5,1)), closed_gripper(psm1), max_height(psm1), in_hand(psm1,block,(4,4)), at(psm1,block,(4,4)), |move(psm1,block,(5,1),1), 
0.112821817398|reachable(psm1,block,(1,1)), reachable(psm1,block,(1,2)), reachable(psm1,block,(1,3)), reachable(psm1,block,(1,4)), reachable(psm1,block,(1,5)), reachable(psm1,block,(2,1)), reachable(psm1,block,(2,2)), reachable(psm1,block,(2,3)), reachable(psm1,block,(2,4)), reachable(psm1,block,(2,5)), reachable(psm1,block,(3,1)), reachable(psm1,block,(3,2)), reachable(psm1,block,(3,3)), reachable(psm2,block,(3,4)), reachable(psm2,block,(3,5)), reachable(psm2,block,(4,1)), reachable(psm2,block,(4,2)), reachable(psm2,block,(4,3)), reachable(psm2,block,(4,4)), reachable(psm2,block,(4,5)), reachable(psm2,block,(5,1)), reachable(psm2,block,(5,2)), reachable(psm2,block,(5,3)), reachable(psm2,block,(5,4)), reachable(psm2,block,(5,5)), fixed((3,4)), fixed((4,1)), fixed((1,5)), fixed((2,5)), fixed((3,1)), fixed((3,3)), fixed((2,3)), fixed((2,2)), above_tumor((5,4)), closed_gripper(psm1), max_height(psm1), in_hand(psm1,block,(5,5)), at(psm1,block,(5,5)), |move(psm1,block,(5,4),1), 
0.117779016495|reachable(psm1,block,(1,1)), reachable(psm1,block,(1,2)), reachable(psm1,block,(1,3)), reachable(psm1,block,(1,4)), reachable(psm1,block,(1,5)), reachable(psm1,block,(2,1)), reachable(psm1,block,(2,2)), reachable(psm1,block,(2,3)), reachable(psm1,block,(2,4)), reachable(psm1,block,(2,5)), reachable(psm1,block,(3,1)), reachable(psm1,block,(3,2)), reachable(psm1,block,(3,3)), reachable(psm2,block,(3,4)), reachable(psm2,block,(3,5)), reachable(psm2,block,(4,1)), reachable(psm2,block,(4,2)), reachable(psm2,block,(4,3)), reachable(psm2,block,(4,4)), reachable(psm2,block,(4,5)), reachable(psm2,block,(5,1)), reachable(psm2,block,(5,2)), reachable(psm2,block,(5,3)), reachable(psm2,block,(5,4)), reachable(psm2,block,(5,5)), fixed((2,2)), fixed((1,5)), fixed((2,3)), fixed((3,4)), fixed((1,4)), fixed((3,1)), fixed((1,1)), fixed((3,3)), above_tumor((5,4)), closed_gripper(psm1), max_height(psm1), in_hand(psm1,block,(5,2)), at(psm1,block,(5,2)), |move(psm1,block,(5,4),1), 
0.0924079418182|reachable(psm1,block,(1,1)), reachable(psm1,block,(1,2)), reachable(psm1,block,(1,3)), reachable(psm1,block,(1,4)), reachable(psm1,block,(1,5)), reachable(psm1,block,(2,1)), reachable(psm1,block,(2,2)), reachable(psm1,block,(2,3)), reachable(psm1,block,(2,4)), reachable(psm1,block,(2,5)), reachable(psm1,block,(3,1)), reachable(psm1,block,(3,2)), reachable(psm1,block,(3,3)), reachable(psm2,block,(3,4)), reachable(psm2,block,(3,5)), reachable(psm2,block,(4,1)), reachable(psm2,block,(4,2)), reachable(psm2,block,(4,3)), reachable(psm2,block,(4,4)), reachable(psm2,block,(4,5)), reachable(psm2,block,(5,1)), reachable(psm2,block,(5,2)), reachable(psm2,block,(5,3)), reachable(psm2,block,(5,4)), reachable(psm2,block,(5,5)), fixed((2,3)), fixed((1,2)), fixed((3,1)), fixed((3,4)), fixed((2,5)), fixed((2,2)), fixed((3,2)), fixed((1,4)), above_tumor((4,4)), closed_gripper(psm2), max_height(psm2), in_hand(psm2,block,(5,1)), at(psm2,block,(5,1)), |move(psm2,block,(4,4),1), 
0.104279994965|reachable(psm1,block,(1,1)), reachable(psm1,block,(1,2)), reachable(psm1,block,(1,3)), reachable(psm1,block,(1,4)), reachable(psm1,block,(1,5)), reachable(psm1,block,(2,1)), reachable(psm1,block,(2,2)), reachable(psm1,block,(2,3)), reachable(psm1,block,(2,4)), reachable(psm1,block,(2,5)), reachable(psm1,block,(3,1)), reachable(psm1,block,(3,2)), reachable(psm1,block,(3,3)), reachable(psm2,block,(3,4)), reachable(psm2,block,(3,5)), reachable(psm2,block,(4,1)), reachable(psm2,block,(4,2)), reachable(psm2,block,(4,3)), reachable(psm2,block,(4,4)), reachable(psm2,block,(4,5)), reachable(psm2,block,(5,1)), reachable(psm2,block,(5,2)), reachable(psm2,block,(5,3)), reachable(psm2,block,(5,4)), reachable(psm2,block,(5,5)), fixed((3,2)), fixed((2,1)), fixed((3,4)), fixed((2,5)), fixed((1,2)), fixed((1,4)), fixed((3,3)), fixed((4,1)), above_tumor((5,2)), closed_gripper(psm1), max_height(psm1), in_hand(psm1,block,(5,4)), at(psm1,block,(5,4)), |move(psm1,block,(5,2),1), 
0.114051818848|reachable(psm1,block,(1,1)), reachable(psm1,block,(1,2)), reachable(psm1,block,(1,3)), reachable(psm1,block,(1,4)), reachable(psm1,block,(1,5)), reachable(psm1,block,(2,1)), reachable(psm1,block,(2,2)), reachable(psm1,block,(2,3)), reachable(psm1,block,(2,4)), reachable(psm1,block,(2,5)), reachable(psm1,block,(3,1)), reachable(psm1,block,(3,2)), reachable(psm1,block,(3,3)), reachable(psm2,block,(3,4)), reachable(psm2,block,(3,5)), reachable(psm2,block,(4,1)), reachable(psm2,block,(4,2)), reachable(psm2,block,(4,3)), reachable(psm2,block,(4,4)), reachable(psm2,block,(4,5)), reachable(psm2,block,(5,1)), reachable(psm2,block,(5,2)), reachable(psm2,block,(5,3)), reachable(psm2,block,(5,4)), reachable(psm2,block,(5,5)), fixed((2,2)), fixed((3,2)), fixed((2,5)), fixed((3,1)), fixed((4,1)), fixed((2,3)), fixed((1,3)), fixed((1,5)), above_tumor((4,4)), closed_gripper(psm1), max_height(psm1), in_hand(psm1,block,(4,2)), at(psm1,block,(4,2)), |move(psm1,block,(4,4),1), 
0.103750228882|reachable(psm1,block,(1,1)), reachable(psm1,block,(1,2)), reachable(psm1,block,(1,3)), reachable(psm1,block,(1,4)), reachable(psm1,block,(1,5)), reachable(psm1,block,(2,1)), reachable(psm1,block,(2,2)), reachable(psm1,block,(2,3)), reachable(psm1,block,(2,4)), reachable(psm1,block,(2,5)), reachable(psm1,block,(3,1)), reachable(psm1,block,(3,2)), reachable(psm1,block,(3,3)), reachable(psm2,block,(3,4)), reachable(psm2,block,(3,5)), reachable(psm2,block,(4,1)), reachable(psm2,block,(4,2)), reachable(psm2,block,(4,3)), reachable(psm2,block,(4,4)), reachable(psm2,block,(4,5)), reachable(psm2,block,(5,1)), reachable(psm2,block,(5,2)), reachable(psm2,block,(5,3)), reachable(psm2,block,(5,4)), reachable(psm2,block,(5,5)), fixed((2,2)), fixed((1,1)), fixed((3,2)), fixed((2,4)), fixed((1,3)), fixed((2,3)), fixed((4,1)), fixed((1,2)), above_tumor((4,3)), closed_gripper(psm1), max_height(psm1), in_hand(psm1,block,(4,5)), at(psm1,block,(4,5)), |move(psm1,block,(4,3),1), 
0.109401226044|reachable(psm1,block,(1,1)), reachable(psm1,block,(1,2)), reachable(psm1,block,(1,3)), reachable(psm1,block,(1,4)), reachable(psm1,block,(1,5)), reachable(psm1,block,(2,1)), reachable(psm1,block,(2,2)), reachable(psm1,block,(2,3)), reachable(psm1,block,(2,4)), reachable(psm1,block,(2,5)), reachable(psm1,block,(3,1)), reachable(psm1,block,(3,2)), reachable(psm1,block,(3,3)), reachable(psm2,block,(3,4)), reachable(psm2,block,(3,5)), reachable(psm2,block,(4,1)), reachable(psm2,block,(4,2)), reachable(psm2,block,(4,3)), reachable(psm2,block,(4,4)), reachable(psm2,block,(4,5)), reachable(psm2,block,(5,1)), reachable(psm2,block,(5,2)), reachable(psm2,block,(5,3)), reachable(psm2,block,(5,4)), reachable(psm2,block,(5,5)), fixed((1,5)), fixed((2,3)), fixed((2,4)), fixed((2,1)), fixed((3,3)), fixed((2,2)), fixed((3,2)), fixed((1,2)), above_tumor((5,5)), closed_gripper(psm1), max_height(psm1), in_hand(psm1,block,(5,4)), at(psm1,block,(5,4)), |move(psm1,block,(5,5),1), 
0.111788034439|reachable(psm1,block,(1,1)), reachable(psm1,block,(1,2)), reachable(psm1,block,(1,3)), reachable(psm1,block,(1,4)), reachable(psm1,block,(1,5)), reachable(psm1,block,(2,1)), reachable(psm1,block,(2,2)), reachable(psm1,block,(2,3)), reachable(psm1,block,(2,4)), reachable(psm1,block,(2,5)), reachable(psm1,block,(3,1)), reachable(psm1,block,(3,2)), reachable(psm1,block,(3,3)), reachable(psm2,block,(3,4)), reachable(psm2,block,(3,5)), reachable(psm2,block,(4,1)), reachable(psm2,block,(4,2)), reachable(psm2,block,(4,3)), reachable(psm2,block,(4,4)), reachable(psm2,block,(4,5)), reachable(psm2,block,(5,1)), reachable(psm2,block,(5,2)), reachable(psm2,block,(5,3)), reachable(psm2,block,(5,4)), reachable(psm2,block,(5,5)), fixed((1,2)), fixed((1,4)), fixed((2,4)), fixed((3,2)), fixed((2,3)), fixed((2,2)), fixed((2,1)), fixed((1,1)), above_tumor((5,5)), closed_gripper(psm1), max_height(psm1), in_hand(psm1,block,(5,4)), at(psm1,block,(5,4)), |move(psm1,block,(5,5),1), 
0.126292943954|reachable(psm1,block,(1,1)), reachable(psm1,block,(1,2)), reachable(psm1,block,(1,3)), reachable(psm1,block,(1,4)), reachable(psm1,block,(1,5)), reachable(psm1,block,(2,1)), reachable(psm1,block,(2,2)), reachable(psm1,block,(2,3)), reachable(psm1,block,(2,4)), reachable(psm1,block,(2,5)), reachable(psm1,block,(3,1)), reachable(psm1,block,(3,2)), reachable(psm1,block,(3,3)), reachable(psm2,block,(3,4)), reachable(psm2,block,(3,5)), reachable(psm2,block,(4,1)), reachable(psm2,block,(4,2)), reachable(psm2,block,(4,3)), reachable(psm2,block,(4,4)), reachable(psm2,block,(4,5)), reachable(psm2,block,(5,1)), reachable(psm2,block,(5,2)), reachable(psm2,block,(5,3)), reachable(psm2,block,(5,4)), reachable(psm2,block,(5,5)), fixed((1,5)), fixed((3,3)), fixed((1,1)), fixed((1,3)), fixed((3,2)), fixed((2,3)), fixed((2,2)), fixed((3,4)), above_tumor((5,2)), closed_gripper(psm1), max_height(psm1), in_hand(psm1,block,(4,5)), at(psm1,block,(4,5)), |move(psm1,block,(5,2),1), 
0.159078121185|reachable(psm1,block,(1,1)), reachable(psm1,block,(1,2)), reachable(psm1,block,(1,3)), reachable(psm1,block,(1,4)), reachable(psm1,block,(1,5)), reachable(psm1,block,(2,1)), reachable(psm1,block,(2,2)), reachable(psm1,block,(2,3)), reachable(psm1,block,(2,4)), reachable(psm1,block,(2,5)), reachable(psm1,block,(3,1)), reachable(psm1,block,(3,2)), reachable(psm1,block,(3,3)), reachable(psm2,block,(3,4)), reachable(psm2,block,(3,5)), reachable(psm2,block,(4,1)), reachable(psm2,block,(4,2)), reachable(psm2,block,(4,3)), reachable(psm2,block,(4,4)), reachable(psm2,block,(4,5)), reachable(psm2,block,(5,1)), reachable(psm2,block,(5,2)), reachable(psm2,block,(5,3)), reachable(psm2,block,(5,4)), reachable(psm2,block,(5,5)), fixed((1,2)), fixed((1,1)), fixed((2,1)), fixed((3,2)), fixed((1,4)), fixed((1,5)), fixed((2,2)), fixed((2,5)), above_tumor((5,2)), closed_gripper(psm2), max_height(psm2), in_hand(psm2,block,(5,1)), at(psm2,block,(5,1)), |move(psm2,block,(5,2),1), 
0.364620923996|reachable(psm1,block,(1,1)), reachable(psm1,block,(1,2)), reachable(psm1,block,(1,3)), reachable(psm1,block,(1,4)), reachable(psm1,block,(1,5)), reachable(psm1,block,(2,1)), reachable(psm1,block,(2,2)), reachable(psm1,block,(2,3)), reachable(psm1,block,(2,4)), reachable(psm1,block,(2,5)), reachable(psm1,block,(3,1)), reachable(psm1,block,(3,2)), reachable(psm1,block,(3,3)), reachable(psm2,block,(3,4)), reachable(psm2,block,(3,5)), reachable(psm2,block,(4,1)), reachable(psm2,block,(4,2)), reachable(psm2,block,(4,3)), reachable(psm2,block,(4,4)), reachable(psm2,block,(4,5)), reachable(psm2,block,(5,1)), reachable(psm2,block,(5,2)), reachable(psm2,block,(5,3)), reachable(psm2,block,(5,4)), reachable(psm2,block,(5,5)), fixed((4,1)), fixed((1,5)), fixed((1,1)), fixed((1,4)), fixed((2,1)), fixed((3,4)), fixed((2,5)), fixed((3,1)), above_tumor((4,3)), closed_gripper(psm2), max_height(psm2), in_hand(psm2,block,(5,1)), at(psm2,block,(5,1)), |release(psm2,none,none,1), reach(psm2,block,(5,5),2), grasp(psm2,block,(5,5),3), pull(psm2,block,(5,5),4), 
0.10241985321|reachable(psm1,block,(1,1)), reachable(psm1,block,(1,2)), reachable(psm1,block,(1,3)), reachable(psm1,block,(1,4)), reachable(psm1,block,(1,5)), reachable(psm1,block,(2,1)), reachable(psm1,block,(2,2)), reachable(psm1,block,(2,3)), reachable(psm1,block,(2,4)), reachable(psm1,block,(2,5)), reachable(psm1,block,(3,1)), reachable(psm1,block,(3,2)), reachable(psm1,block,(3,3)), reachable(psm2,block,(3,4)), reachable(psm2,block,(3,5)), reachable(psm2,block,(4,1)), reachable(psm2,block,(4,2)), reachable(psm2,block,(4,3)), reachable(psm2,block,(4,4)), reachable(psm2,block,(4,5)), reachable(psm2,block,(5,1)), reachable(psm2,block,(5,2)), reachable(psm2,block,(5,3)), reachable(psm2,block,(5,4)), reachable(psm2,block,(5,5)), fixed((1,1)), fixed((2,2)), fixed((1,5)), fixed((2,1)), fixed((3,3)), fixed((2,3)), fixed((3,4)), fixed((1,3)), above_tumor((5,4)), closed_gripper(psm2), max_height(psm2), in_hand(psm2,block,(4,3)), at(psm2,block,(4,3)), |move(psm2,block,(5,4),1), 
0.118690013885|reachable(psm1,block,(1,1)), reachable(psm1,block,(1,2)), reachable(psm1,block,(1,3)), reachable(psm1,block,(1,4)), reachable(psm1,block,(1,5)), reachable(psm1,block,(2,1)), reachable(psm1,block,(2,2)), reachable(psm1,block,(2,3)), reachable(psm1,block,(2,4)), reachable(psm1,block,(2,5)), reachable(psm1,block,(3,1)), reachable(psm1,block,(3,2)), reachable(psm1,block,(3,3)), reachable(psm2,block,(3,4)), reachable(psm2,block,(3,5)), reachable(psm2,block,(4,1)), reachable(psm2,block,(4,2)), reachable(psm2,block,(4,3)), reachable(psm2,block,(4,4)), reachable(psm2,block,(4,5)), reachable(psm2,block,(5,1)), reachable(psm2,block,(5,2)), reachable(psm2,block,(5,3)), reachable(psm2,block,(5,4)), reachable(psm2,block,(5,5)), fixed((1,2)), fixed((3,5)), fixed((3,3)), fixed((2,2)), fixed((1,3)), fixed((2,5)), fixed((4,1)), fixed((3,2)), above_tumor((5,4)), closed_gripper(psm2), max_height(psm2), in_hand(psm2,block,(5,5)), at(psm2,block,(5,5)), |move(psm2,block,(5,4),1), 
0.117220163345|reachable(psm1,block,(1,1)), reachable(psm1,block,(1,2)), reachable(psm1,block,(1,3)), reachable(psm1,block,(1,4)), reachable(psm1,block,(1,5)), reachable(psm1,block,(2,1)), reachable(psm1,block,(2,2)), reachable(psm1,block,(2,3)), reachable(psm1,block,(2,4)), reachable(psm1,block,(2,5)), reachable(psm1,block,(3,1)), reachable(psm1,block,(3,2)), reachable(psm1,block,(3,3)), reachable(psm2,block,(3,4)), reachable(psm2,block,(3,5)), reachable(psm2,block,(4,1)), reachable(psm2,block,(4,2)), reachable(psm2,block,(4,3)), reachable(psm2,block,(4,4)), reachable(psm2,block,(4,5)), reachable(psm2,block,(5,1)), reachable(psm2,block,(5,2)), reachable(psm2,block,(5,3)), reachable(psm2,block,(5,4)), reachable(psm2,block,(5,5)), fixed((1,2)), fixed((1,4)), fixed((3,5)), fixed((3,3)), fixed((2,3)), fixed((2,1)), fixed((1,1)), fixed((3,2)), above_tumor((5,4)), closed_gripper(psm1), max_height(psm1), in_hand(psm1,block,(5,3)), at(psm1,block,(5,3)), |move(psm1,block,(5,4),1), 
0.110442876816|reachable(psm1,block,(1,1)), reachable(psm1,block,(1,2)), reachable(psm1,block,(1,3)), reachable(psm1,block,(1,4)), reachable(psm1,block,(1,5)), reachable(psm1,block,(2,1)), reachable(psm1,block,(2,2)), reachable(psm1,block,(2,3)), reachable(psm1,block,(2,4)), reachable(psm1,block,(2,5)), reachable(psm1,block,(3,1)), reachable(psm1,block,(3,2)), reachable(psm1,block,(3,3)), reachable(psm2,block,(3,4)), reachable(psm2,block,(3,5)), reachable(psm2,block,(4,1)), reachable(psm2,block,(4,2)), reachable(psm2,block,(4,3)), reachable(psm2,block,(4,4)), reachable(psm2,block,(4,5)), reachable(psm2,block,(5,1)), reachable(psm2,block,(5,2)), reachable(psm2,block,(5,3)), reachable(psm2,block,(5,4)), reachable(psm2,block,(5,5)), fixed((2,3)), fixed((2,1)), fixed((1,3)), fixed((3,5)), fixed((2,5)), fixed((3,3)), fixed((3,2)), fixed((1,5)), above_tumor((4,2)), closed_gripper(psm1), max_height(psm1), in_hand(psm1,block,(4,5)), at(psm1,block,(4,5)), |move(psm1,block,(4,2),1), 
0.116516113281|reachable(psm1,block,(1,1)), reachable(psm1,block,(1,2)), reachable(psm1,block,(1,3)), reachable(psm1,block,(1,4)), reachable(psm1,block,(1,5)), reachable(psm1,block,(2,1)), reachable(psm1,block,(2,2)), reachable(psm1,block,(2,3)), reachable(psm1,block,(2,4)), reachable(psm1,block,(2,5)), reachable(psm1,block,(3,1)), reachable(psm1,block,(3,2)), reachable(psm1,block,(3,3)), reachable(psm2,block,(3,4)), reachable(psm2,block,(3,5)), reachable(psm2,block,(4,1)), reachable(psm2,block,(4,2)), reachable(psm2,block,(4,3)), reachable(psm2,block,(4,4)), reachable(psm2,block,(4,5)), reachable(psm2,block,(5,1)), reachable(psm2,block,(5,2)), reachable(psm2,block,(5,3)), reachable(psm2,block,(5,4)), reachable(psm2,block,(5,5)), fixed((2,1)), fixed((1,3)), fixed((3,3)), fixed((1,4)), fixed((3,4)), fixed((3,2)), fixed((1,5)), fixed((4,1)), above_tumor((5,1)), closed_gripper(psm2), max_height(psm2), in_hand(psm2,block,(5,4)), at(psm2,block,(5,4)), |move(psm2,block,(5,1),1), 
0.117290019989|reachable(psm1,block,(1,1)), reachable(psm1,block,(1,2)), reachable(psm1,block,(1,3)), reachable(psm1,block,(1,4)), reachable(psm1,block,(1,5)), reachable(psm1,block,(2,1)), reachable(psm1,block,(2,2)), reachable(psm1,block,(2,3)), reachable(psm1,block,(2,4)), reachable(psm1,block,(2,5)), reachable(psm1,block,(3,1)), reachable(psm1,block,(3,2)), reachable(psm1,block,(3,3)), reachable(psm2,block,(3,4)), reachable(psm2,block,(3,5)), reachable(psm2,block,(4,1)), reachable(psm2,block,(4,2)), reachable(psm2,block,(4,3)), reachable(psm2,block,(4,4)), reachable(psm2,block,(4,5)), reachable(psm2,block,(5,1)), reachable(psm2,block,(5,2)), reachable(psm2,block,(5,3)), reachable(psm2,block,(5,4)), reachable(psm2,block,(5,5)), fixed((2,1)), fixed((1,4)), fixed((3,1)), fixed((2,3)), fixed((3,5)), fixed((2,4)), fixed((4,1)), fixed((3,3)), above_tumor((5,2)), closed_gripper(psm2), max_height(psm2), in_hand(psm2,block,(5,5)), at(psm2,block,(5,5)), |move(psm2,block,(5,2),1), 
0.120005846024|reachable(psm1,block,(1,1)), reachable(psm1,block,(1,2)), reachable(psm1,block,(1,3)), reachable(psm1,block,(1,4)), reachable(psm1,block,(1,5)), reachable(psm1,block,(2,1)), reachable(psm1,block,(2,2)), reachable(psm1,block,(2,3)), reachable(psm1,block,(2,4)), reachable(psm1,block,(2,5)), reachable(psm1,block,(3,1)), reachable(psm1,block,(3,2)), reachable(psm1,block,(3,3)), reachable(psm2,block,(3,4)), reachable(psm2,block,(3,5)), reachable(psm2,block,(4,1)), reachable(psm2,block,(4,2)), reachable(psm2,block,(4,3)), reachable(psm2,block,(4,4)), reachable(psm2,block,(4,5)), reachable(psm2,block,(5,1)), reachable(psm2,block,(5,2)), reachable(psm2,block,(5,3)), reachable(psm2,block,(5,4)), reachable(psm2,block,(5,5)), fixed((4,1)), fixed((3,5)), fixed((3,1)), fixed((2,5)), fixed((2,4)), fixed((2,1)), fixed((2,3)), fixed((1,4)), above_tumor((5,4)), closed_gripper(psm2), max_height(psm2), in_hand(psm2,block,(5,1)), at(psm2,block,(5,1)), |move(psm2,block,(5,4),1), 
0.113411188126|reachable(psm1,block,(1,1)), reachable(psm1,block,(1,2)), reachable(psm1,block,(1,3)), reachable(psm1,block,(1,4)), reachable(psm1,block,(1,5)), reachable(psm1,block,(2,1)), reachable(psm1,block,(2,2)), reachable(psm1,block,(2,3)), reachable(psm1,block,(2,4)), reachable(psm1,block,(2,5)), reachable(psm1,block,(3,1)), reachable(psm1,block,(3,2)), reachable(psm1,block,(3,3)), reachable(psm2,block,(3,4)), reachable(psm2,block,(3,5)), reachable(psm2,block,(4,1)), reachable(psm2,block,(4,2)), reachable(psm2,block,(4,3)), reachable(psm2,block,(4,4)), reachable(psm2,block,(4,5)), reachable(psm2,block,(5,1)), reachable(psm2,block,(5,2)), reachable(psm2,block,(5,3)), reachable(psm2,block,(5,4)), reachable(psm2,block,(5,5)), fixed((4,1)), fixed((1,2)), fixed((2,4)), fixed((2,1)), fixed((3,4)), fixed((2,2)), fixed((3,3)), fixed((2,3)), above_tumor((5,5)), closed_gripper(psm1), max_height(psm1), in_hand(psm1,block,(4,2)), at(psm1,block,(4,2)), |move(psm1,block,(5,5),1), 
0.112514972687|reachable(psm1,block,(1,1)), reachable(psm1,block,(1,2)), reachable(psm1,block,(1,3)), reachable(psm1,block,(1,4)), reachable(psm1,block,(1,5)), reachable(psm1,block,(2,1)), reachable(psm1,block,(2,2)), reachable(psm1,block,(2,3)), reachable(psm1,block,(2,4)), reachable(psm1,block,(2,5)), reachable(psm1,block,(3,1)), reachable(psm1,block,(3,2)), reachable(psm1,block,(3,3)), reachable(psm2,block,(3,4)), reachable(psm2,block,(3,5)), reachable(psm2,block,(4,1)), reachable(psm2,block,(4,2)), reachable(psm2,block,(4,3)), reachable(psm2,block,(4,4)), reachable(psm2,block,(4,5)), reachable(psm2,block,(5,1)), reachable(psm2,block,(5,2)), reachable(psm2,block,(5,3)), reachable(psm2,block,(5,4)), reachable(psm2,block,(5,5)), fixed((4,1)), fixed((3,4)), fixed((2,2)), fixed((1,4)), fixed((2,5)), fixed((2,1)), fixed((1,1)), fixed((3,2)), above_tumor((4,4)), closed_gripper(psm1), max_height(psm1), in_hand(psm1,block,(5,3)), at(psm1,block,(5,3)), |move(psm1,block,(4,4),1), 
0.120226860046|reachable(psm1,block,(1,1)), reachable(psm1,block,(1,2)), reachable(psm1,block,(1,3)), reachable(psm1,block,(1,4)), reachable(psm1,block,(1,5)), reachable(psm1,block,(2,1)), reachable(psm1,block,(2,2)), reachable(psm1,block,(2,3)), reachable(psm1,block,(2,4)), reachable(psm1,block,(2,5)), reachable(psm1,block,(3,1)), reachable(psm1,block,(3,2)), reachable(psm1,block,(3,3)), reachable(psm2,block,(3,4)), reachable(psm2,block,(3,5)), reachable(psm2,block,(4,1)), reachable(psm2,block,(4,2)), reachable(psm2,block,(4,3)), reachable(psm2,block,(4,4)), reachable(psm2,block,(4,5)), reachable(psm2,block,(5,1)), reachable(psm2,block,(5,2)), reachable(psm2,block,(5,3)), reachable(psm2,block,(5,4)), reachable(psm2,block,(5,5)), fixed((1,2)), fixed((1,4)), fixed((3,2)), fixed((1,5)), fixed((3,5)), fixed((2,4)), fixed((3,4)), fixed((2,3)), above_tumor((4,5)), closed_gripper(psm2), max_height(psm2), in_hand(psm2,block,(5,1)), at(psm2,block,(5,1)), |move(psm2,block,(4,5),1), 
0.1219830513|reachable(psm1,block,(1,1)), reachable(psm1,block,(1,2)), reachable(psm1,block,(1,3)), reachable(psm1,block,(1,4)), reachable(psm1,block,(1,5)), reachable(psm1,block,(2,1)), reachable(psm1,block,(2,2)), reachable(psm1,block,(2,3)), reachable(psm1,block,(2,4)), reachable(psm1,block,(2,5)), reachable(psm1,block,(3,1)), reachable(psm1,block,(3,2)), reachable(psm1,block,(3,3)), reachable(psm2,block,(3,4)), reachable(psm2,block,(3,5)), reachable(psm2,block,(4,1)), reachable(psm2,block,(4,2)), reachable(psm2,block,(4,3)), reachable(psm2,block,(4,4)), reachable(psm2,block,(4,5)), reachable(psm2,block,(5,1)), reachable(psm2,block,(5,2)), reachable(psm2,block,(5,3)), reachable(psm2,block,(5,4)), reachable(psm2,block,(5,5)), fixed((1,2)), fixed((3,1)), fixed((2,4)), fixed((2,2)), fixed((3,2)), fixed((2,5)), fixed((2,1)), fixed((3,3)), above_tumor((4,5)), closed_gripper(psm2), max_height(psm2), in_hand(psm2,block,(5,2)), at(psm2,block,(5,2)), |move(psm2,block,(4,5),1), 
0.106719970703|reachable(psm1,block,(1,1)), reachable(psm1,block,(1,2)), reachable(psm1,block,(1,3)), reachable(psm1,block,(1,4)), reachable(psm1,block,(1,5)), reachable(psm1,block,(2,1)), reachable(psm1,block,(2,2)), reachable(psm1,block,(2,3)), reachable(psm1,block,(2,4)), reachable(psm1,block,(2,5)), reachable(psm1,block,(3,1)), reachable(psm1,block,(3,2)), reachable(psm1,block,(3,3)), reachable(psm2,block,(3,4)), reachable(psm2,block,(3,5)), reachable(psm2,block,(4,1)), reachable(psm2,block,(4,2)), reachable(psm2,block,(4,3)), reachable(psm2,block,(4,4)), reachable(psm2,block,(4,5)), reachable(psm2,block,(5,1)), reachable(psm2,block,(5,2)), reachable(psm2,block,(5,3)), reachable(psm2,block,(5,4)), reachable(psm2,block,(5,5)), fixed((3,4)), fixed((4,1)), fixed((3,2)), fixed((3,1)), fixed((3,5)), fixed((2,5)), fixed((1,1)), fixed((1,5)), above_tumor((5,2)), closed_gripper(psm2), max_height(psm2), in_hand(psm2,block,(5,1)), at(psm2,block,(5,1)), |move(psm2,block,(5,2),1), 
0.113916158676|reachable(psm1,block,(1,1)), reachable(psm1,block,(1,2)), reachable(psm1,block,(1,3)), reachable(psm1,block,(1,4)), reachable(psm1,block,(1,5)), reachable(psm1,block,(2,1)), reachable(psm1,block,(2,2)), reachable(psm1,block,(2,3)), reachable(psm1,block,(2,4)), reachable(psm1,block,(2,5)), reachable(psm1,block,(3,1)), reachable(psm1,block,(3,2)), reachable(psm1,block,(3,3)), reachable(psm2,block,(3,4)), reachable(psm2,block,(3,5)), reachable(psm2,block,(4,1)), reachable(psm2,block,(4,2)), reachable(psm2,block,(4,3)), reachable(psm2,block,(4,4)), reachable(psm2,block,(4,5)), reachable(psm2,block,(5,1)), reachable(psm2,block,(5,2)), reachable(psm2,block,(5,3)), reachable(psm2,block,(5,4)), reachable(psm2,block,(5,5)), fixed((4,1)), fixed((2,2)), fixed((2,3)), fixed((2,5)), fixed((3,5)), fixed((3,2)), fixed((1,2)), fixed((3,3)), above_tumor((5,2)), closed_gripper(psm2), max_height(psm2), in_hand(psm2,block,(5,5)), at(psm2,block,(5,5)), |move(psm2,block,(5,2),1), 
0.112046003342|reachable(psm1,block,(1,1)), reachable(psm1,block,(1,2)), reachable(psm1,block,(1,3)), reachable(psm1,block,(1,4)), reachable(psm1,block,(1,5)), reachable(psm1,block,(2,1)), reachable(psm1,block,(2,2)), reachable(psm1,block,(2,3)), reachable(psm1,block,(2,4)), reachable(psm1,block,(2,5)), reachable(psm1,block,(3,1)), reachable(psm1,block,(3,2)), reachable(psm1,block,(3,3)), reachable(psm2,block,(3,4)), reachable(psm2,block,(3,5)), reachable(psm2,block,(4,1)), reachable(psm2,block,(4,2)), reachable(psm2,block,(4,3)), reachable(psm2,block,(4,4)), reachable(psm2,block,(4,5)), reachable(psm2,block,(5,1)), reachable(psm2,block,(5,2)), reachable(psm2,block,(5,3)), reachable(psm2,block,(5,4)), reachable(psm2,block,(5,5)), fixed((3,1)), fixed((2,1)), fixed((2,3)), fixed((1,3)), fixed((1,4)), fixed((3,2)), fixed((3,3)), fixed((3,4)), above_tumor((5,1)), closed_gripper(psm1), max_height(psm1), in_hand(psm1,block,(5,4)), at(psm1,block,(5,4)), |move(psm1,block,(5,1),1), 
0.110805988312|reachable(psm1,block,(1,1)), reachable(psm1,block,(1,2)), reachable(psm1,block,(1,3)), reachable(psm1,block,(1,4)), reachable(psm1,block,(1,5)), reachable(psm1,block,(2,1)), reachable(psm1,block,(2,2)), reachable(psm1,block,(2,3)), reachable(psm1,block,(2,4)), reachable(psm1,block,(2,5)), reachable(psm1,block,(3,1)), reachable(psm1,block,(3,2)), reachable(psm1,block,(3,3)), reachable(psm2,block,(3,4)), reachable(psm2,block,(3,5)), reachable(psm2,block,(4,1)), reachable(psm2,block,(4,2)), reachable(psm2,block,(4,3)), reachable(psm2,block,(4,4)), reachable(psm2,block,(4,5)), reachable(psm2,block,(5,1)), reachable(psm2,block,(5,2)), reachable(psm2,block,(5,3)), reachable(psm2,block,(5,4)), reachable(psm2,block,(5,5)), fixed((3,4)), fixed((1,1)), fixed((2,3)), fixed((2,5)), fixed((1,4)), fixed((3,2)), fixed((2,1)), fixed((1,5)), above_tumor((4,3)), closed_gripper(psm2), max_height(psm2), in_hand(psm2,block,(5,3)), at(psm2,block,(5,3)), |move(psm2,block,(4,3),1), 
0.118300199509|reachable(psm1,block,(1,1)), reachable(psm1,block,(1,2)), reachable(psm1,block,(1,3)), reachable(psm1,block,(1,4)), reachable(psm1,block,(1,5)), reachable(psm1,block,(2,1)), reachable(psm1,block,(2,2)), reachable(psm1,block,(2,3)), reachable(psm1,block,(2,4)), reachable(psm1,block,(2,5)), reachable(psm1,block,(3,1)), reachable(psm1,block,(3,2)), reachable(psm1,block,(3,3)), reachable(psm2,block,(3,4)), reachable(psm2,block,(3,5)), reachable(psm2,block,(4,1)), reachable(psm2,block,(4,2)), reachable(psm2,block,(4,3)), reachable(psm2,block,(4,4)), reachable(psm2,block,(4,5)), reachable(psm2,block,(5,1)), reachable(psm2,block,(5,2)), reachable(psm2,block,(5,3)), reachable(psm2,block,(5,4)), reachable(psm2,block,(5,5)), fixed((1,4)), fixed((2,1)), fixed((1,1)), fixed((3,1)), fixed((3,5)), fixed((3,3)), fixed((1,5)), fixed((2,2)), above_tumor((4,2)), closed_gripper(psm2), max_height(psm2), in_hand(psm2,block,(5,1)), at(psm2,block,(5,1)), |move(psm2,block,(4,2),1), 
0.103749990463|reachable(psm1,block,(1,1)), reachable(psm1,block,(1,2)), reachable(psm1,block,(1,3)), reachable(psm1,block,(1,4)), reachable(psm1,block,(1,5)), reachable(psm1,block,(2,1)), reachable(psm1,block,(2,2)), reachable(psm1,block,(2,3)), reachable(psm1,block,(2,4)), reachable(psm1,block,(2,5)), reachable(psm1,block,(3,1)), reachable(psm1,block,(3,2)), reachable(psm1,block,(3,3)), reachable(psm2,block,(3,4)), reachable(psm2,block,(3,5)), reachable(psm2,block,(4,1)), reachable(psm2,block,(4,2)), reachable(psm2,block,(4,3)), reachable(psm2,block,(4,4)), reachable(psm2,block,(4,5)), reachable(psm2,block,(5,1)), reachable(psm2,block,(5,2)), reachable(psm2,block,(5,3)), reachable(psm2,block,(5,4)), reachable(psm2,block,(5,5)), fixed((2,4)), fixed((2,1)), fixed((2,5)), fixed((3,1)), fixed((4,1)), fixed((1,3)), fixed((3,5)), fixed((3,4)), above_tumor((4,5)), closed_gripper(psm1), max_height(psm1), in_hand(psm1,block,(4,2)), at(psm1,block,(4,2)), |move(psm1,block,(4,5),1), 
0.113384008408|reachable(psm1,block,(1,1)), reachable(psm1,block,(1,2)), reachable(psm1,block,(1,3)), reachable(psm1,block,(1,4)), reachable(psm1,block,(1,5)), reachable(psm1,block,(2,1)), reachable(psm1,block,(2,2)), reachable(psm1,block,(2,3)), reachable(psm1,block,(2,4)), reachable(psm1,block,(2,5)), reachable(psm1,block,(3,1)), reachable(psm1,block,(3,2)), reachable(psm1,block,(3,3)), reachable(psm2,block,(3,4)), reachable(psm2,block,(3,5)), reachable(psm2,block,(4,1)), reachable(psm2,block,(4,2)), reachable(psm2,block,(4,3)), reachable(psm2,block,(4,4)), reachable(psm2,block,(4,5)), reachable(psm2,block,(5,1)), reachable(psm2,block,(5,2)), reachable(psm2,block,(5,3)), reachable(psm2,block,(5,4)), reachable(psm2,block,(5,5)), fixed((1,1)), fixed((1,5)), fixed((1,2)), fixed((3,3)), fixed((2,4)), fixed((1,4)), fixed((3,2)), fixed((3,5)), above_tumor((4,5)), closed_gripper(psm1), max_height(psm1), in_hand(psm1,block,(5,5)), at(psm1,block,(5,5)), |move(psm1,block,(4,5),1), 
0.114217042923|reachable(psm1,block,(1,1)), reachable(psm1,block,(1,2)), reachable(psm1,block,(1,3)), reachable(psm1,block,(1,4)), reachable(psm1,block,(1,5)), reachable(psm1,block,(2,1)), reachable(psm1,block,(2,2)), reachable(psm1,block,(2,3)), reachable(psm1,block,(2,4)), reachable(psm1,block,(2,5)), reachable(psm1,block,(3,1)), reachable(psm1,block,(3,2)), reachable(psm1,block,(3,3)), reachable(psm2,block,(3,4)), reachable(psm2,block,(3,5)), reachable(psm2,block,(4,1)), reachable(psm2,block,(4,2)), reachable(psm2,block,(4,3)), reachable(psm2,block,(4,4)), reachable(psm2,block,(4,5)), reachable(psm2,block,(5,1)), reachable(psm2,block,(5,2)), reachable(psm2,block,(5,3)), reachable(psm2,block,(5,4)), reachable(psm2,block,(5,5)), fixed((3,1)), fixed((3,5)), fixed((2,5)), fixed((3,3)), fixed((1,1)), fixed((2,3)), fixed((1,2)), fixed((1,5)), above_tumor((4,5)), closed_gripper(psm1), max_height(psm1), in_hand(psm1,block,(5,4)), at(psm1,block,(5,4)), |move(psm1,block,(4,5),1), 
0.103666067123|reachable(psm1,block,(1,1)), reachable(psm1,block,(1,2)), reachable(psm1,block,(1,3)), reachable(psm1,block,(1,4)), reachable(psm1,block,(1,5)), reachable(psm1,block,(2,1)), reachable(psm1,block,(2,2)), reachable(psm1,block,(2,3)), reachable(psm1,block,(2,4)), reachable(psm1,block,(2,5)), reachable(psm1,block,(3,1)), reachable(psm1,block,(3,2)), reachable(psm1,block,(3,3)), reachable(psm2,block,(3,4)), reachable(psm2,block,(3,5)), reachable(psm2,block,(4,1)), reachable(psm2,block,(4,2)), reachable(psm2,block,(4,3)), reachable(psm2,block,(4,4)), reachable(psm2,block,(4,5)), reachable(psm2,block,(5,1)), reachable(psm2,block,(5,2)), reachable(psm2,block,(5,3)), reachable(psm2,block,(5,4)), reachable(psm2,block,(5,5)), fixed((1,5)), fixed((3,5)), fixed((1,1)), fixed((2,1)), fixed((3,4)), fixed((3,3)), fixed((2,5)), fixed((3,1)), above_tumor((4,2)), closed_gripper(psm1), max_height(psm1), in_hand(psm1,block,(5,3)), at(psm1,block,(5,3)), |move(psm1,block,(4,2),1), 
0.110617160797|reachable(psm1,block,(1,1)), reachable(psm1,block,(1,2)), reachable(psm1,block,(1,3)), reachable(psm1,block,(1,4)), reachable(psm1,block,(1,5)), reachable(psm1,block,(2,1)), reachable(psm1,block,(2,2)), reachable(psm1,block,(2,3)), reachable(psm1,block,(2,4)), reachable(psm1,block,(2,5)), reachable(psm1,block,(3,1)), reachable(psm1,block,(3,2)), reachable(psm1,block,(3,3)), reachable(psm2,block,(3,4)), reachable(psm2,block,(3,5)), reachable(psm2,block,(4,1)), reachable(psm2,block,(4,2)), reachable(psm2,block,(4,3)), reachable(psm2,block,(4,4)), reachable(psm2,block,(4,5)), reachable(psm2,block,(5,1)), reachable(psm2,block,(5,2)), reachable(psm2,block,(5,3)), reachable(psm2,block,(5,4)), reachable(psm2,block,(5,5)), fixed((1,4)), fixed((1,5)), fixed((2,3)), fixed((3,4)), fixed((1,3)), fixed((3,1)), fixed((3,2)), fixed((3,3)), above_tumor((5,5)), closed_gripper(psm2), max_height(psm2), in_hand(psm2,block,(4,2)), at(psm2,block,(4,2)), |move(psm2,block,(5,5),1), 
0.106821060181|reachable(psm1,block,(1,1)), reachable(psm1,block,(1,2)), reachable(psm1,block,(1,3)), reachable(psm1,block,(1,4)), reachable(psm1,block,(1,5)), reachable(psm1,block,(2,1)), reachable(psm1,block,(2,2)), reachable(psm1,block,(2,3)), reachable(psm1,block,(2,4)), reachable(psm1,block,(2,5)), reachable(psm1,block,(3,1)), reachable(psm1,block,(3,2)), reachable(psm1,block,(3,3)), reachable(psm2,block,(3,4)), reachable(psm2,block,(3,5)), reachable(psm2,block,(4,1)), reachable(psm2,block,(4,2)), reachable(psm2,block,(4,3)), reachable(psm2,block,(4,4)), reachable(psm2,block,(4,5)), reachable(psm2,block,(5,1)), reachable(psm2,block,(5,2)), reachable(psm2,block,(5,3)), reachable(psm2,block,(5,4)), reachable(psm2,block,(5,5)), fixed((2,1)), fixed((1,1)), fixed((1,5)), fixed((2,5)), fixed((4,1)), fixed((2,4)), fixed((3,2)), fixed((2,3)), above_tumor((4,3)), closed_gripper(psm2), max_height(psm2), in_hand(psm2,block,(4,2)), at(psm2,block,(4,2)), |move(psm2,block,(4,3),1), 
0.0993039608002|reachable(psm1,block,(1,1)), reachable(psm1,block,(1,2)), reachable(psm1,block,(1,3)), reachable(psm1,block,(1,4)), reachable(psm1,block,(1,5)), reachable(psm1,block,(2,1)), reachable(psm1,block,(2,2)), reachable(psm1,block,(2,3)), reachable(psm1,block,(2,4)), reachable(psm1,block,(2,5)), reachable(psm1,block,(3,1)), reachable(psm1,block,(3,2)), reachable(psm1,block,(3,3)), reachable(psm2,block,(3,4)), reachable(psm2,block,(3,5)), reachable(psm2,block,(4,1)), reachable(psm2,block,(4,2)), reachable(psm2,block,(4,3)), reachable(psm2,block,(4,4)), reachable(psm2,block,(4,5)), reachable(psm2,block,(5,1)), reachable(psm2,block,(5,2)), reachable(psm2,block,(5,3)), reachable(psm2,block,(5,4)), reachable(psm2,block,(5,5)), fixed((2,3)), fixed((3,3)), fixed((1,2)), fixed((1,3)), fixed((3,1)), fixed((2,1)), fixed((2,5)), fixed((1,1)), above_tumor((4,3)), closed_gripper(psm1), max_height(psm1), in_hand(psm1,block,(4,5)), at(psm1,block,(4,5)), |move(psm1,block,(4,3),1), 
0.10991692543|reachable(psm1,block,(1,1)), reachable(psm1,block,(1,2)), reachable(psm1,block,(1,3)), reachable(psm1,block,(1,4)), reachable(psm1,block,(1,5)), reachable(psm1,block,(2,1)), reachable(psm1,block,(2,2)), reachable(psm1,block,(2,3)), reachable(psm1,block,(2,4)), reachable(psm1,block,(2,5)), reachable(psm1,block,(3,1)), reachable(psm1,block,(3,2)), reachable(psm1,block,(3,3)), reachable(psm2,block,(3,4)), reachable(psm2,block,(3,5)), reachable(psm2,block,(4,1)), reachable(psm2,block,(4,2)), reachable(psm2,block,(4,3)), reachable(psm2,block,(4,4)), reachable(psm2,block,(4,5)), reachable(psm2,block,(5,1)), reachable(psm2,block,(5,2)), reachable(psm2,block,(5,3)), reachable(psm2,block,(5,4)), reachable(psm2,block,(5,5)), fixed((3,2)), fixed((3,1)), fixed((1,4)), fixed((3,3)), fixed((1,5)), fixed((3,4)), fixed((1,1)), fixed((3,5)), above_tumor((4,2)), closed_gripper(psm1), max_height(psm1), in_hand(psm1,block,(4,3)), at(psm1,block,(4,3)), |move(psm1,block,(4,2),1), 
0.111923933029|reachable(psm1,block,(1,1)), reachable(psm1,block,(1,2)), reachable(psm1,block,(1,3)), reachable(psm1,block,(1,4)), reachable(psm1,block,(1,5)), reachable(psm1,block,(2,1)), reachable(psm1,block,(2,2)), reachable(psm1,block,(2,3)), reachable(psm1,block,(2,4)), reachable(psm1,block,(2,5)), reachable(psm1,block,(3,1)), reachable(psm1,block,(3,2)), reachable(psm1,block,(3,3)), reachable(psm2,block,(3,4)), reachable(psm2,block,(3,5)), reachable(psm2,block,(4,1)), reachable(psm2,block,(4,2)), reachable(psm2,block,(4,3)), reachable(psm2,block,(4,4)), reachable(psm2,block,(4,5)), reachable(psm2,block,(5,1)), reachable(psm2,block,(5,2)), reachable(psm2,block,(5,3)), reachable(psm2,block,(5,4)), reachable(psm2,block,(5,5)), fixed((3,1)), fixed((1,1)), fixed((3,3)), fixed((4,1)), fixed((3,2)), fixed((1,3)), fixed((3,4)), fixed((1,5)), above_tumor((5,1)), closed_gripper(psm1), max_height(psm1), in_hand(psm1,block,(5,5)), at(psm1,block,(5,5)), |move(psm1,block,(5,1),1), 
0.109370946884|reachable(psm1,block,(1,1)), reachable(psm1,block,(1,2)), reachable(psm1,block,(1,3)), reachable(psm1,block,(1,4)), reachable(psm1,block,(1,5)), reachable(psm1,block,(2,1)), reachable(psm1,block,(2,2)), reachable(psm1,block,(2,3)), reachable(psm1,block,(2,4)), reachable(psm1,block,(2,5)), reachable(psm1,block,(3,1)), reachable(psm1,block,(3,2)), reachable(psm1,block,(3,3)), reachable(psm2,block,(3,4)), reachable(psm2,block,(3,5)), reachable(psm2,block,(4,1)), reachable(psm2,block,(4,2)), reachable(psm2,block,(4,3)), reachable(psm2,block,(4,4)), reachable(psm2,block,(4,5)), reachable(psm2,block,(5,1)), reachable(psm2,block,(5,2)), reachable(psm2,block,(5,3)), reachable(psm2,block,(5,4)), reachable(psm2,block,(5,5)), fixed((1,2)), fixed((3,4)), fixed((2,4)), fixed((2,2)), fixed((1,1)), fixed((3,5)), fixed((3,3)), fixed((1,5)), above_tumor((5,5)), closed_gripper(psm1), max_height(psm1), in_hand(psm1,block,(4,2)), at(psm1,block,(4,2)), |move(psm1,block,(5,5),1), 
0.114145994186|reachable(psm1,block,(1,1)), reachable(psm1,block,(1,2)), reachable(psm1,block,(1,3)), reachable(psm1,block,(1,4)), reachable(psm1,block,(1,5)), reachable(psm1,block,(2,1)), reachable(psm1,block,(2,2)), reachable(psm1,block,(2,3)), reachable(psm1,block,(2,4)), reachable(psm1,block,(2,5)), reachable(psm1,block,(3,1)), reachable(psm1,block,(3,2)), reachable(psm1,block,(3,3)), reachable(psm2,block,(3,4)), reachable(psm2,block,(3,5)), reachable(psm2,block,(4,1)), reachable(psm2,block,(4,2)), reachable(psm2,block,(4,3)), reachable(psm2,block,(4,4)), reachable(psm2,block,(4,5)), reachable(psm2,block,(5,1)), reachable(psm2,block,(5,2)), reachable(psm2,block,(5,3)), reachable(psm2,block,(5,4)), reachable(psm2,block,(5,5)), fixed((3,4)), fixed((1,3)), fixed((2,2)), fixed((4,1)), fixed((2,4)), fixed((2,5)), fixed((1,1)), fixed((1,5)), above_tumor((5,2)), closed_gripper(psm2), max_height(psm2), in_hand(psm2,block,(5,3)), at(psm2,block,(5,3)), |move(psm2,block,(5,2),1), 
0.0899260044098|reachable(psm1,block,(1,1)), reachable(psm1,block,(1,2)), reachable(psm1,block,(1,3)), reachable(psm1,block,(1,4)), reachable(psm1,block,(1,5)), reachable(psm1,block,(2,1)), reachable(psm1,block,(2,2)), reachable(psm1,block,(2,3)), reachable(psm1,block,(2,4)), reachable(psm1,block,(2,5)), reachable(psm1,block,(3,1)), reachable(psm1,block,(3,2)), reachable(psm1,block,(3,3)), reachable(psm2,block,(3,4)), reachable(psm2,block,(3,5)), reachable(psm2,block,(4,1)), reachable(psm2,block,(4,2)), reachable(psm2,block,(4,3)), reachable(psm2,block,(4,4)), reachable(psm2,block,(4,5)), reachable(psm2,block,(5,1)), reachable(psm2,block,(5,2)), reachable(psm2,block,(5,3)), reachable(psm2,block,(5,4)), reachable(psm2,block,(5,5)), fixed((2,1)), fixed((2,4)), fixed((2,5)), fixed((1,4)), fixed((3,1)), fixed((2,3)), fixed((3,3)), fixed((3,2)), above_tumor((4,5)), closed_gripper(psm1), max_height(psm1), in_hand(psm1,block,(5,5)), at(psm1,block,(5,5)), |move(psm1,block,(4,5),1), 
0.108643054962|reachable(psm1,block,(1,1)), reachable(psm1,block,(1,2)), reachable(psm1,block,(1,3)), reachable(psm1,block,(1,4)), reachable(psm1,block,(1,5)), reachable(psm1,block,(2,1)), reachable(psm1,block,(2,2)), reachable(psm1,block,(2,3)), reachable(psm1,block,(2,4)), reachable(psm1,block,(2,5)), reachable(psm1,block,(3,1)), reachable(psm1,block,(3,2)), reachable(psm1,block,(3,3)), reachable(psm2,block,(3,4)), reachable(psm2,block,(3,5)), reachable(psm2,block,(4,1)), reachable(psm2,block,(4,2)), reachable(psm2,block,(4,3)), reachable(psm2,block,(4,4)), reachable(psm2,block,(4,5)), reachable(psm2,block,(5,1)), reachable(psm2,block,(5,2)), reachable(psm2,block,(5,3)), reachable(psm2,block,(5,4)), reachable(psm2,block,(5,5)), fixed((3,2)), fixed((3,1)), fixed((2,1)), fixed((3,5)), fixed((1,1)), fixed((2,5)), fixed((4,1)), fixed((3,3)), above_tumor((5,5)), closed_gripper(psm1), max_height(psm1), in_hand(psm1,block,(5,3)), at(psm1,block,(5,3)), |move(psm1,block,(5,5),1), 
0.109250068665|reachable(psm1,block,(1,1)), reachable(psm1,block,(1,2)), reachable(psm1,block,(1,3)), reachable(psm1,block,(1,4)), reachable(psm1,block,(1,5)), reachable(psm1,block,(2,1)), reachable(psm1,block,(2,2)), reachable(psm1,block,(2,3)), reachable(psm1,block,(2,4)), reachable(psm1,block,(2,5)), reachable(psm1,block,(3,1)), reachable(psm1,block,(3,2)), reachable(psm1,block,(3,3)), reachable(psm2,block,(3,4)), reachable(psm2,block,(3,5)), reachable(psm2,block,(4,1)), reachable(psm2,block,(4,2)), reachable(psm2,block,(4,3)), reachable(psm2,block,(4,4)), reachable(psm2,block,(4,5)), reachable(psm2,block,(5,1)), reachable(psm2,block,(5,2)), reachable(psm2,block,(5,3)), reachable(psm2,block,(5,4)), reachable(psm2,block,(5,5)), fixed((3,1)), fixed((2,2)), fixed((1,2)), fixed((3,5)), fixed((1,3)), fixed((3,4)), fixed((2,1)), fixed((2,3)), above_tumor((4,3)), closed_gripper(psm2), max_height(psm2), in_hand(psm2,block,(5,5)), at(psm2,block,(5,5)), |move(psm2,block,(4,3),1), 
0.106745004654|reachable(psm1,block,(1,1)), reachable(psm1,block,(1,2)), reachable(psm1,block,(1,3)), reachable(psm1,block,(1,4)), reachable(psm1,block,(1,5)), reachable(psm1,block,(2,1)), reachable(psm1,block,(2,2)), reachable(psm1,block,(2,3)), reachable(psm1,block,(2,4)), reachable(psm1,block,(2,5)), reachable(psm1,block,(3,1)), reachable(psm1,block,(3,2)), reachable(psm1,block,(3,3)), reachable(psm2,block,(3,4)), reachable(psm2,block,(3,5)), reachable(psm2,block,(4,1)), reachable(psm2,block,(4,2)), reachable(psm2,block,(4,3)), reachable(psm2,block,(4,4)), reachable(psm2,block,(4,5)), reachable(psm2,block,(5,1)), reachable(psm2,block,(5,2)), reachable(psm2,block,(5,3)), reachable(psm2,block,(5,4)), reachable(psm2,block,(5,5)), fixed((2,2)), fixed((1,3)), fixed((2,1)), fixed((1,5)), fixed((3,2)), fixed((4,1)), fixed((3,4)), fixed((2,3)), above_tumor((5,4)), closed_gripper(psm1), max_height(psm1), in_hand(psm1,block,(4,3)), at(psm1,block,(4,3)), |move(psm1,block,(5,4),1), 
0.111186981201|reachable(psm1,block,(1,1)), reachable(psm1,block,(1,2)), reachable(psm1,block,(1,3)), reachable(psm1,block,(1,4)), reachable(psm1,block,(1,5)), reachable(psm1,block,(2,1)), reachable(psm1,block,(2,2)), reachable(psm1,block,(2,3)), reachable(psm1,block,(2,4)), reachable(psm1,block,(2,5)), reachable(psm1,block,(3,1)), reachable(psm1,block,(3,2)), reachable(psm1,block,(3,3)), reachable(psm2,block,(3,4)), reachable(psm2,block,(3,5)), reachable(psm2,block,(4,1)), reachable(psm2,block,(4,2)), reachable(psm2,block,(4,3)), reachable(psm2,block,(4,4)), reachable(psm2,block,(4,5)), reachable(psm2,block,(5,1)), reachable(psm2,block,(5,2)), reachable(psm2,block,(5,3)), reachable(psm2,block,(5,4)), reachable(psm2,block,(5,5)), fixed((1,4)), fixed((1,2)), fixed((2,4)), fixed((2,1)), fixed((4,1)), fixed((3,2)), fixed((1,3)), fixed((1,5)), above_tumor((4,5)), closed_gripper(psm2), max_height(psm2), in_hand(psm2,block,(4,2)), at(psm2,block,(4,2)), |move(psm2,block,(4,5),1), 
0.109925031662|reachable(psm1,block,(1,1)), reachable(psm1,block,(1,2)), reachable(psm1,block,(1,3)), reachable(psm1,block,(1,4)), reachable(psm1,block,(1,5)), reachable(psm1,block,(2,1)), reachable(psm1,block,(2,2)), reachable(psm1,block,(2,3)), reachable(psm1,block,(2,4)), reachable(psm1,block,(2,5)), reachable(psm1,block,(3,1)), reachable(psm1,block,(3,2)), reachable(psm1,block,(3,3)), reachable(psm2,block,(3,4)), reachable(psm2,block,(3,5)), reachable(psm2,block,(4,1)), reachable(psm2,block,(4,2)), reachable(psm2,block,(4,3)), reachable(psm2,block,(4,4)), reachable(psm2,block,(4,5)), reachable(psm2,block,(5,1)), reachable(psm2,block,(5,2)), reachable(psm2,block,(5,3)), reachable(psm2,block,(5,4)), reachable(psm2,block,(5,5)), fixed((3,3)), fixed((2,1)), fixed((3,4)), fixed((1,1)), fixed((3,1)), fixed((1,5)), fixed((4,1)), fixed((3,5)), above_tumor((4,4)), closed_gripper(psm2), max_height(psm2), in_hand(psm2,block,(4,5)), at(psm2,block,(4,5)), |move(psm2,block,(4,4),1), 
0.0887348651886|reachable(psm1,block,(1,1)), reachable(psm1,block,(1,2)), reachable(psm1,block,(1,3)), reachable(psm1,block,(1,4)), reachable(psm1,block,(1,5)), reachable(psm1,block,(2,1)), reachable(psm1,block,(2,2)), reachable(psm1,block,(2,3)), reachable(psm1,block,(2,4)), reachable(psm1,block,(2,5)), reachable(psm1,block,(3,1)), reachable(psm1,block,(3,2)), reachable(psm1,block,(3,3)), reachable(psm2,block,(3,4)), reachable(psm2,block,(3,5)), reachable(psm2,block,(4,1)), reachable(psm2,block,(4,2)), reachable(psm2,block,(4,3)), reachable(psm2,block,(4,4)), reachable(psm2,block,(4,5)), reachable(psm2,block,(5,1)), reachable(psm2,block,(5,2)), reachable(psm2,block,(5,3)), reachable(psm2,block,(5,4)), reachable(psm2,block,(5,5)), fixed((4,1)), fixed((2,1)), fixed((3,2)), fixed((2,2)), fixed((1,4)), fixed((3,4)), fixed((3,1)), fixed((1,5)), above_tumor((4,5)), closed_gripper(psm2), max_height(psm2), in_hand(psm2,block,(4,2)), at(psm2,block,(4,2)), |move(psm2,block,(4,5),1), 
0.115206956863|reachable(psm1,block,(1,1)), reachable(psm1,block,(1,2)), reachable(psm1,block,(1,3)), reachable(psm1,block,(1,4)), reachable(psm1,block,(1,5)), reachable(psm1,block,(2,1)), reachable(psm1,block,(2,2)), reachable(psm1,block,(2,3)), reachable(psm1,block,(2,4)), reachable(psm1,block,(2,5)), reachable(psm1,block,(3,1)), reachable(psm1,block,(3,2)), reachable(psm1,block,(3,3)), reachable(psm2,block,(3,4)), reachable(psm2,block,(3,5)), reachable(psm2,block,(4,1)), reachable(psm2,block,(4,2)), reachable(psm2,block,(4,3)), reachable(psm2,block,(4,4)), reachable(psm2,block,(4,5)), reachable(psm2,block,(5,1)), reachable(psm2,block,(5,2)), reachable(psm2,block,(5,3)), reachable(psm2,block,(5,4)), reachable(psm2,block,(5,5)), fixed((3,3)), fixed((4,1)), fixed((1,3)), fixed((3,5)), fixed((2,2)), fixed((3,2)), fixed((1,1)), fixed((2,1)), above_tumor((4,4)), closed_gripper(psm2), max_height(psm2), in_hand(psm2,block,(5,2)), at(psm2,block,(5,2)), |move(psm2,block,(4,4),1), 
0.115262031555|reachable(psm1,block,(1,1)), reachable(psm1,block,(1,2)), reachable(psm1,block,(1,3)), reachable(psm1,block,(1,4)), reachable(psm1,block,(1,5)), reachable(psm1,block,(2,1)), reachable(psm1,block,(2,2)), reachable(psm1,block,(2,3)), reachable(psm1,block,(2,4)), reachable(psm1,block,(2,5)), reachable(psm1,block,(3,1)), reachable(psm1,block,(3,2)), reachable(psm1,block,(3,3)), reachable(psm2,block,(3,4)), reachable(psm2,block,(3,5)), reachable(psm2,block,(4,1)), reachable(psm2,block,(4,2)), reachable(psm2,block,(4,3)), reachable(psm2,block,(4,4)), reachable(psm2,block,(4,5)), reachable(psm2,block,(5,1)), reachable(psm2,block,(5,2)), reachable(psm2,block,(5,3)), reachable(psm2,block,(5,4)), reachable(psm2,block,(5,5)), fixed((1,4)), fixed((2,1)), fixed((3,1)), fixed((4,1)), fixed((1,3)), fixed((1,2)), fixed((2,2)), fixed((3,5)), above_tumor((5,4)), closed_gripper(psm1), max_height(psm1), in_hand(psm1,block,(5,5)), at(psm1,block,(5,5)), |move(psm1,block,(5,4),1), 
0.312144041061|reachable(psm1,block,(1,1)), reachable(psm1,block,(1,2)), reachable(psm1,block,(1,3)), reachable(psm1,block,(1,4)), reachable(psm1,block,(1,5)), reachable(psm1,block,(2,1)), reachable(psm1,block,(2,2)), reachable(psm1,block,(2,3)), reachable(psm1,block,(2,4)), reachable(psm1,block,(2,5)), reachable(psm1,block,(3,1)), reachable(psm1,block,(3,2)), reachable(psm1,block,(3,3)), reachable(psm2,block,(3,4)), reachable(psm2,block,(3,5)), reachable(psm2,block,(4,1)), reachable(psm2,block,(4,2)), reachable(psm2,block,(4,3)), reachable(psm2,block,(4,4)), reachable(psm2,block,(4,5)), reachable(psm2,block,(5,1)), reachable(psm2,block,(5,2)), reachable(psm2,block,(5,3)), reachable(psm2,block,(5,4)), reachable(psm2,block,(5,5)), fixed((2,5)), fixed((1,2)), fixed((1,3)), fixed((4,1)), fixed((2,2)), fixed((2,1)), fixed((3,1)), fixed((1,4)), above_tumor((4,3)), closed_gripper(psm2), max_height(psm2), in_hand(psm2,block,(5,1)), at(psm2,block,(5,1)), |release(psm2,none,none,1), reach(psm2,block,(5,1),2), grasp(psm2,block,(5,1),3), pull(psm2,block,(5,1),4), 
0.0908071994781|reachable(psm1,block,(1,1)), reachable(psm1,block,(1,2)), reachable(psm1,block,(1,3)), reachable(psm1,block,(1,4)), reachable(psm1,block,(1,5)), reachable(psm1,block,(2,1)), reachable(psm1,block,(2,2)), reachable(psm1,block,(2,3)), reachable(psm1,block,(2,4)), reachable(psm1,block,(2,5)), reachable(psm1,block,(3,1)), reachable(psm1,block,(3,2)), reachable(psm1,block,(3,3)), reachable(psm2,block,(3,4)), reachable(psm2,block,(3,5)), reachable(psm2,block,(4,1)), reachable(psm2,block,(4,2)), reachable(psm2,block,(4,3)), reachable(psm2,block,(4,4)), reachable(psm2,block,(4,5)), reachable(psm2,block,(5,1)), reachable(psm2,block,(5,2)), reachable(psm2,block,(5,3)), reachable(psm2,block,(5,4)), reachable(psm2,block,(5,5)), fixed((3,1)), fixed((3,4)), fixed((1,1)), fixed((1,4)), fixed((3,2)), fixed((2,4)), fixed((2,2)), fixed((1,3)), above_tumor((5,4)), closed_gripper(psm1), max_height(psm1), in_hand(psm1,block,(5,2)), at(psm1,block,(5,2)), |move(psm1,block,(5,4),1), 
0.113097190857|reachable(psm1,block,(1,1)), reachable(psm1,block,(1,2)), reachable(psm1,block,(1,3)), reachable(psm1,block,(1,4)), reachable(psm1,block,(1,5)), reachable(psm1,block,(2,1)), reachable(psm1,block,(2,2)), reachable(psm1,block,(2,3)), reachable(psm1,block,(2,4)), reachable(psm1,block,(2,5)), reachable(psm1,block,(3,1)), reachable(psm1,block,(3,2)), reachable(psm1,block,(3,3)), reachable(psm2,block,(3,4)), reachable(psm2,block,(3,5)), reachable(psm2,block,(4,1)), reachable(psm2,block,(4,2)), reachable(psm2,block,(4,3)), reachable(psm2,block,(4,4)), reachable(psm2,block,(4,5)), reachable(psm2,block,(5,1)), reachable(psm2,block,(5,2)), reachable(psm2,block,(5,3)), reachable(psm2,block,(5,4)), reachable(psm2,block,(5,5)), fixed((2,3)), fixed((3,2)), fixed((3,4)), fixed((3,5)), fixed((1,1)), fixed((1,2)), fixed((3,1)), fixed((2,4)), above_tumor((5,2)), closed_gripper(psm2), max_height(psm2), in_hand(psm2,block,(4,4)), at(psm2,block,(4,4)), |move(psm2,block,(5,2),1), 
0.115889072418|reachable(psm1,block,(1,1)), reachable(psm1,block,(1,2)), reachable(psm1,block,(1,3)), reachable(psm1,block,(1,4)), reachable(psm1,block,(1,5)), reachable(psm1,block,(2,1)), reachable(psm1,block,(2,2)), reachable(psm1,block,(2,3)), reachable(psm1,block,(2,4)), reachable(psm1,block,(2,5)), reachable(psm1,block,(3,1)), reachable(psm1,block,(3,2)), reachable(psm1,block,(3,3)), reachable(psm2,block,(3,4)), reachable(psm2,block,(3,5)), reachable(psm2,block,(4,1)), reachable(psm2,block,(4,2)), reachable(psm2,block,(4,3)), reachable(psm2,block,(4,4)), reachable(psm2,block,(4,5)), reachable(psm2,block,(5,1)), reachable(psm2,block,(5,2)), reachable(psm2,block,(5,3)), reachable(psm2,block,(5,4)), reachable(psm2,block,(5,5)), fixed((2,5)), fixed((1,2)), fixed((3,3)), fixed((1,5)), fixed((3,1)), fixed((1,1)), fixed((3,2)), fixed((1,3)), above_tumor((5,3)), closed_gripper(psm1), max_height(psm1), in_hand(psm1,block,(5,5)), at(psm1,block,(5,5)), |move(psm1,block,(5,3),1), 
0.108188867569|reachable(psm1,block,(1,1)), reachable(psm1,block,(1,2)), reachable(psm1,block,(1,3)), reachable(psm1,block,(1,4)), reachable(psm1,block,(1,5)), reachable(psm1,block,(2,1)), reachable(psm1,block,(2,2)), reachable(psm1,block,(2,3)), reachable(psm1,block,(2,4)), reachable(psm1,block,(2,5)), reachable(psm1,block,(3,1)), reachable(psm1,block,(3,2)), reachable(psm1,block,(3,3)), reachable(psm2,block,(3,4)), reachable(psm2,block,(3,5)), reachable(psm2,block,(4,1)), reachable(psm2,block,(4,2)), reachable(psm2,block,(4,3)), reachable(psm2,block,(4,4)), reachable(psm2,block,(4,5)), reachable(psm2,block,(5,1)), reachable(psm2,block,(5,2)), reachable(psm2,block,(5,3)), reachable(psm2,block,(5,4)), reachable(psm2,block,(5,5)), fixed((3,4)), fixed((1,5)), fixed((1,2)), fixed((3,1)), fixed((3,2)), fixed((3,5)), fixed((2,3)), fixed((1,4)), above_tumor((4,5)), closed_gripper(psm2), max_height(psm2), in_hand(psm2,block,(4,4)), at(psm2,block,(4,4)), |move(psm2,block,(4,5),1), 
0.114807128906|reachable(psm1,block,(1,1)), reachable(psm1,block,(1,2)), reachable(psm1,block,(1,3)), reachable(psm1,block,(1,4)), reachable(psm1,block,(1,5)), reachable(psm1,block,(2,1)), reachable(psm1,block,(2,2)), reachable(psm1,block,(2,3)), reachable(psm1,block,(2,4)), reachable(psm1,block,(2,5)), reachable(psm1,block,(3,1)), reachable(psm1,block,(3,2)), reachable(psm1,block,(3,3)), reachable(psm2,block,(3,4)), reachable(psm2,block,(3,5)), reachable(psm2,block,(4,1)), reachable(psm2,block,(4,2)), reachable(psm2,block,(4,3)), reachable(psm2,block,(4,4)), reachable(psm2,block,(4,5)), reachable(psm2,block,(5,1)), reachable(psm2,block,(5,2)), reachable(psm2,block,(5,3)), reachable(psm2,block,(5,4)), reachable(psm2,block,(5,5)), fixed((3,5)), fixed((4,1)), fixed((1,2)), fixed((1,3)), fixed((3,1)), fixed((2,4)), fixed((1,1)), fixed((2,3)), above_tumor((4,4)), closed_gripper(psm2), max_height(psm2), in_hand(psm2,block,(5,4)), at(psm2,block,(5,4)), |move(psm2,block,(4,4),1), 
0.0953159332275|reachable(psm1,block,(1,1)), reachable(psm1,block,(1,2)), reachable(psm1,block,(1,3)), reachable(psm1,block,(1,4)), reachable(psm1,block,(1,5)), reachable(psm1,block,(2,1)), reachable(psm1,block,(2,2)), reachable(psm1,block,(2,3)), reachable(psm1,block,(2,4)), reachable(psm1,block,(2,5)), reachable(psm1,block,(3,1)), reachable(psm1,block,(3,2)), reachable(psm1,block,(3,3)), reachable(psm2,block,(3,4)), reachable(psm2,block,(3,5)), reachable(psm2,block,(4,1)), reachable(psm2,block,(4,2)), reachable(psm2,block,(4,3)), reachable(psm2,block,(4,4)), reachable(psm2,block,(4,5)), reachable(psm2,block,(5,1)), reachable(psm2,block,(5,2)), reachable(psm2,block,(5,3)), reachable(psm2,block,(5,4)), reachable(psm2,block,(5,5)), fixed((2,1)), fixed((4,1)), fixed((1,1)), fixed((3,5)), fixed((2,4)), fixed((1,2)), fixed((2,2)), fixed((1,5)), above_tumor((5,5)), closed_gripper(psm2), max_height(psm2), in_hand(psm2,block,(4,4)), at(psm2,block,(4,4)), |move(psm2,block,(5,5),1), 
