VISIBILITY:
[100.0, 100.0, 100.0, 100.0, 100.0, 100.0, 100.0, 100.0, 100.0, 100.0, 100.0, 100.0, 100.0, 100.0, 100.0, 100.0, 100.0, 100.0, 100.0, 100.0, 100.0, 100.0, 100.0, 100.0, 100.0, 100.0, 100.0, 100.0, 100.0, 100.0, 100.0, 100.0, 100.0, 100.0, 100.0, 100.0, 100.0, 100.0, 100.0, 100.0, 100.0, 100.0, 100.0, 100.0, 100.0, 100.0, 100.0, 100.0, 100.0, 100.0]
REPLAN:
[0, 0, 0, 0, 0, 0, 0, 0, 0, 0, 0, 0, 0, 0, 0, 0, 0, 0, 0, 0, 0, 0, 0, 0, 0, 0, 0, 0, 0, 0, 0, 0, 0, 0, 0, 0, 0, 0, 0, 0, 0, 0, 0, 0, 0, 0, 0, 0, 0, 0]
FIXED:
[4, 15, 2, 4, 12, 2, 8, 11, 15, 18, 8, 2, 15, 10, 12, 18, 2, 10, 10, 6, 11, 4, 2, 10, 15, 1, 8, 19, 8, 9, 4, 19, 18, 2, 11, 19, 1, 8, 22, 1, 9, 2, 12, 8, 14, 15, 2, 2, 2, 6]
EXEC TIME:
[66.33742380142212, 37.045788049697876, 31.597882986068726, 31.143140077590942, 31.239866018295288, 30.74382996559143, 31.744812965393066, 31.598247051239014, 31.277040004730225, 31.23411202430725, 32.1152069568634, 31.843706130981445, 31.385146856307983, 31.30776286125183, 31.422333002090454, 30.873462915420532, 31.908036947250366, 31.31039786338806, 31.529994010925293, 31.789026975631714, 31.551321029663086, 31.641657829284668, 31.999435901641846, 31.77475905418396, 31.078945875167847, 31.262521028518677, 32.0062780380249, 31.191028118133545, 31.737548112869263, 31.91443705558777, 31.622511863708496, 31.069149017333984, 36.616031885147095, 37.04600381851196, 31.853729963302612, 31.301465034484863, 31.82905602455139, 32.25351691246033, 31.33917999267578, 31.20255994796753, 31.265262842178345, 31.06855607032776, 31.035282850265503, 32.018595933914185, 31.8905827999115, 31.85206699371338, 31.072283029556274, 31.012404203414917, 31.748913049697876, 31.344495058059692]
MAX FORCE:
[0.7256231904029846, 2.065774440765381, 1.1582728624343872, 1.0110112428665161, 0.7440354824066162, 1.1025370359420776, 2923.39453125, 0.99004727602005, 4.381265640258789, 2.5211880207061768, 0.7983826398849487, 1.1165046691894531, 1.1665195226669312, 1.5147473812103271, 1.7833331823349, 1.014782428741455, 0.9640889763832092, 1.0143914222717285, 3.9214112758636475, 1.0606569051742554, 1.0425875186920166, 1.1470950841903687, 1.1804251670837402, 1.2739689350128174, 1.1503181457519531, 1.0709494352340698, 0.8396255970001221, 0.6259580850601196, 1.2303189039230347, 1.1500996351242065, 1.2328643798828125, 0.6364666819572449, 8.504682540893555, 26.88191795349121, 1.4473402500152588, 2.872105598449707, 1.2305272817611694, 0.7464190125465393, 1.2420202493667603, 2.899341344833374, 0.9858179688453674, 1.048866629600525, 3.1959543228149414, 0.7654299736022949, 0.8680084943771362, 0.7391725182533264, 1.146705985069275, 1.2174012660980225, 1.1606941223144531, 1.0954877138137817]
STD FORCE:
[0.7256231904029846, 2.065774440765381, 1.1582728624343872, 1.0110112428665161, 0.7440354824066162, 1.1025370359420776, 2923.39453125, 0.99004727602005, 4.381265640258789, 2.5211880207061768, 0.7983826398849487, 1.1165046691894531, 1.1665195226669312, 1.5147473812103271, 1.7833331823349, 1.014782428741455, 0.9640889763832092, 1.0143914222717285, 3.9214112758636475, 1.0606569051742554, 1.0425875186920166, 1.1470950841903687, 1.1804251670837402, 1.2739689350128174, 1.1503181457519531, 1.0709494352340698, 0.8396255970001221, 0.6259580850601196, 1.2303189039230347, 1.1500996351242065, 1.2328643798828125, 0.6364666819572449, 8.504682540893555, 26.88191795349121, 1.4473402500152588, 2.872105598449707, 1.2305272817611694, 0.7464190125465393, 1.2420202493667603, 2.899341344833374, 0.9858179688453674, 1.048866629600525, 3.1959543228149414, 0.7654299736022949, 0.8680084943771362, 0.7391725182533264, 1.146705985069275, 1.2174012660980225, 1.1606941223144531, 1.0954877138137817]
MEAN FORCE:
[0.45269905838224994, 0.9126111443732636, 0.6888754978260433, 0.6810914640203792, 0.48448882679249483, 0.7014095961478152, 926.117408085829, 0.5451301504474767, 1.0412198644546768, 1.1324966911303427, 0.5568228183480618, 0.7113696281077564, 0.6685864349788202, 0.7019757933473285, 0.5945077826451857, 0.6431470905543958, 0.5892783681971064, 0.7063912250421972, 2.230870068886072, 0.6887730556776819, 0.6431114150505304, 0.5699668667542356, 0.7745463682047984, 0.7709192413177205, 0.6964823848227156, 0.5752280446425116, 0.5135662036701506, 0.4509916322008982, 0.6359443225387041, 0.7175917484569795, 0.5948076992350667, 0.4669287473885264, 3.0327279345180234, 2.154597349993362, 0.7155188662829227, 1.50695831285034, 0.5642140533748363, 0.5159024417045239, 0.5823920015934229, 0.7089487397610563, 0.5996866303702074, 0.6435314853133853, 0.9393415055532331, 0.41236440199744956, 0.40678325113095354, 0.41698413453926886, 0.6390793838995942, 0.6611952285970006, 0.6919556424097718, 0.6885315750405138]NUM ACTIONS:
[5, 5, 5, 5, 5, 5, 5, 5, 5, 5, 5, 5, 5, 5, 5, 5, 5, 5, 5, 5, 5, 5, 5, 5, 5, 5, 5, 5, 5, 5, 5, 5, 5, 5, 5, 5, 5, 5, 5, 5, 5, 5, 5, 5, 5, 5, 5, 5, 5, 5]
