VISIBILITY:
[100.0, 100.0, 100.0, 100.0, 100.0, 100.0, 87.5, 100.0, 87.5, 100.0, 100.0, 100.0, 100.0, 100.0, 83.33333587646484, 100.0, 100.0, 88.88888549804688, 100.0, 100.0, 100.0, 100.0, 100.0, 77.77777862548828, 100.0, 100.0, 100.0, 100.0, 87.5, 100.0, 100.0, 100.0, 100.0, 100.0, 100.0, 87.5, 90.0, 92.85713958740234, 91.66666412353516, 88.88888549804688, 100.0, 100.0, 100.0, 100.0, 100.0, 100.0, 100.0, 88.88888549804688, 87.5, 100.0, 100.0, 100.0, 77.77777862548828, 100.0, 100.0, 100.0, 77.77777862548828, 100.0, 100.0, 100.0, 100.0, 100.0, 100.0, 100.0, 87.5, 100.0, 100.0, 100.0, 100.0, 91.66666412353516, 100.0, 100.0, 100.0, 100.0, 100.0, 100.0, 100.0, 100.0, 100.0, 100.0, 100.0, 100.0, 100.0, 100.0, 100.0, 100.0, 80.0, 100.0, 100.0, 100.0, 100.0, 100.0, 100.0, 100.0, 100.0, 100.0, 100.0, 100.0, 100.0, 100.0]
REPLAN:
[0, 0, 0, 0, 0, 0, 0, 0, 0, 0, 0, 0, 0, 0, 0, 0, 0, 0, 0, 0, 0, 0, 0, 0, 0, 0, 0, 0, 0, 0, 0, 0, 0, 0, 0, 0, 0, 0, 0, 0, 0, 0, 0, 0, 0, 0, 0, 0, 0, 0, 0, 0, 0, 0, 0, 0, 0, 0, 0, 0, 0, 0, 0, 0, 0, 0, 0, 0, 0, 0, 0, 0, 0, 0, 0, 0, 0, 0, 0, 0, 0, 0, 0, 0, 0, 0, 0, 0, 0, 0, 0, 0, 0, 0, 0, 0, 0, 0, 0, 0]
FIXED:
[11, 6, 11, 6, 8, 16, 8, 15, 8, 11, 14, 7, 14, 9, 12, 11, 7, 9, 8, 12, 7, 1, 14, 8, 16, 11, 11, 13, 7, 7, 10, 1, 15, 11, 3, 16, 15, 10, 2, 16, 14, 15, 6, 10, 14, 7, 12, 2, 13, 15, 8, 8, 12, 1, 2, 7, 9, 6, 2, 6, 2, 8, 8, 19, 12, 6, 2, 11, 7, 6, 10, 4, 11, 2, 11, 18, 11, 10, 10, 8, 8, 8, 1, 11, 10, 9, 4, 11, 11, 12, 24, 23, 2, 13, 4, 9, 8, 2, 12, 6]
EXEC TIME:
[32.18985080718994, 31.788331031799316, 31.435235023498535, 31.510515928268433, 31.728505849838257, 32.23705196380615, 31.44840693473816, 31.38846707344055, 32.23819923400879, 31.6699481010437, 32.11051297187805, 31.259102821350098, 31.73268699645996, 31.186872959136963, 31.446274995803833, 31.341542959213257, 31.616899967193604, 43.5691499710083, 32.23935890197754, 31.5097918510437, 31.307343006134033, 32.06159806251526, 31.21385908126831, 32.30199098587036, 31.362110137939453, 32.16621112823486, 31.622416973114014, 31.299465894699097, 31.417999982833862, 32.16483688354492, 31.3299081325531, 32.28320097923279, 32.27577805519104, 31.2894549369812, 31.307838916778564, 32.301228046417236, 31.284845113754272, 31.455081939697266, 43.86641812324524, 43.868473052978516, 32.205414056777954, 32.23709297180176, 32.32735300064087, 37.39890098571777, 31.49481201171875, 32.2857129573822, 31.41472601890564, 36.22356295585632, 32.45272707939148, 32.31868004798889, 32.181121826171875, 32.176084995269775, 43.91030812263489, 31.784194231033325, 31.42122793197632, 32.05542206764221, 32.27131104469299, 31.499032974243164, 32.179741859436035, 32.093682050704956, 32.25810217857361, 32.0946900844574, 32.38119292259216, 31.421977996826172, 80.67923903465271, 32.17387795448303, 31.64212703704834, 32.242186069488525, 31.433300971984863, 43.67277693748474, 31.696533918380737, 31.35875105857849, 32.30140209197998, 31.58787202835083, 31.627426862716675, 31.252785205841064, 31.27277898788452, 32.374358892440796, 31.884553909301758, 32.283135175704956, 31.405161142349243, 81.15217900276184, 31.819538831710815, 31.438619136810303, 32.188413858413696, 42.91934418678284, 32.41730999946594, 32.19234895706177, 31.472414016723633, 31.467339992523193, 31.008837938308716, 31.947021961212158, 31.52843403816223, 31.470729112625122, 31.702556848526, 31.26925492286682, 32.246968030929565, 31.756994009017944, 31.518535137176514, 31.29318881034851]
MAX FORCE:
[0.9636721611022949, 0.9958046674728394, 0.9311520457267761, 1.125127911567688, 1.1027661561965942, 0.7493366599082947, 1.0099507570266724, 0.845790684223175, 0.8568024039268494, 0.9839460849761963, 0.7700762748718262, 1.0449284315109253, 1.018385410308838, 0.8510769009590149, 0.7853434681892395, 1.0385936498641968, 1.013846516609192, 1.058767557144165, 0.6601700186729431, 0.8626032471656799, 0.9462066292762756, 1.1722936630249023, 0.8322322964668274, 1.0522565841674805, 1.0083622932434082, 0.9138365387916565, 0.7928641438484192, 0.8482770323753357, 0.8464998006820679, 0.8433420658111572, 0.8307973146438599, 1.0048878192901611, 0.710327684879303, 0.9781238436698914, 1.1337124109268188, 0.7638106942176819, 0.7613067030906677, 1.0383597612380981, 1.1974433660507202, 0.6744258403778076, 1.050781488418579, 0.8710180521011353, 0.9878352284431458, 0.7791389226913452, 0.811693549156189, 0.7613547444343567, 1.003584384918213, 1.1941759586334229, 0.9515753984451294, 0.9556226134300232, 0.9474861025810242, 0.9213781952857971, 0.8551848530769348, 1.1407750844955444, 1.2361130714416504, 0.7099326848983765, 0.908995509147644, 0.9476543664932251, 1.195834755897522, 1.0523251295089722, 0.983942985534668, 0.9504587054252625, 0.9309034943580627, 0.7778493762016296, 1.5034196376800537, 1.0840083360671997, 1.0907278060913086, 0.6973579525947571, 0.8803640604019165, 1.0203279256820679, 0.8086981773376465, 1.1033977270126343, 0.8500732779502869, 1.2313319444656372, 0.8640463352203369, 0.6714975237846375, 0.9761155843734741, 0.8771433234214783, 0.8660311102867126, 0.8548180460929871, 0.754798173904419, 145246.65625, 1.1327059268951416, 0.8349975347518921, 0.9234663844108582, 0.9833937287330627, 1.062778115272522, 0.8881659507751465, 0.899707019329071, 0.8150568008422852, 1.193089246749878, 1.7373640537261963, 1.0367130041122437, 0.9608239531517029, 1.2100001573562622, 0.9976494312286377, 0.9218483567237854, 1.055643081665039, 0.9782710671424866, 1.0249760150909424]
STD FORCE:
[0.9636721611022949, 0.9958046674728394, 0.9311520457267761, 1.125127911567688, 1.1027661561965942, 0.7493366599082947, 1.0099507570266724, 0.845790684223175, 0.8568024039268494, 0.9839460849761963, 0.7700762748718262, 1.0449284315109253, 1.018385410308838, 0.8510769009590149, 0.7853434681892395, 1.0385936498641968, 1.013846516609192, 1.058767557144165, 0.6601700186729431, 0.8626032471656799, 0.9462066292762756, 1.1722936630249023, 0.8322322964668274, 1.0522565841674805, 1.0083622932434082, 0.9138365387916565, 0.7928641438484192, 0.8482770323753357, 0.8464998006820679, 0.8433420658111572, 0.8307973146438599, 1.0048878192901611, 0.710327684879303, 0.9781238436698914, 1.1337124109268188, 0.7638106942176819, 0.7613067030906677, 1.0383597612380981, 1.1974433660507202, 0.6744258403778076, 1.050781488418579, 0.8710180521011353, 0.9878352284431458, 0.7791389226913452, 0.811693549156189, 0.7613547444343567, 1.003584384918213, 1.1941759586334229, 0.9515753984451294, 0.9556226134300232, 0.9474861025810242, 0.9213781952857971, 0.8551848530769348, 1.1407750844955444, 1.2361130714416504, 0.7099326848983765, 0.908995509147644, 0.9476543664932251, 1.195834755897522, 1.0523251295089722, 0.983942985534668, 0.9504587054252625, 0.9309034943580627, 0.7778493762016296, 1.5034196376800537, 1.0840083360671997, 1.0907278060913086, 0.6973579525947571, 0.8803640604019165, 1.0203279256820679, 0.8086981773376465, 1.1033977270126343, 0.8500732779502869, 1.2313319444656372, 0.8640463352203369, 0.6714975237846375, 0.9761155843734741, 0.8771433234214783, 0.8660311102867126, 0.8548180460929871, 0.754798173904419, 145246.65625, 1.1327059268951416, 0.8349975347518921, 0.9234663844108582, 0.9833937287330627, 1.062778115272522, 0.8881659507751465, 0.899707019329071, 0.8150568008422852, 1.193089246749878, 1.7373640537261963, 1.0367130041122437, 0.9608239531517029, 1.2100001573562622, 0.9976494312286377, 0.9218483567237854, 1.055643081665039, 0.9782710671424866, 1.0249760150909424]
MEAN FORCE:
[0.48242688152573004, 0.6900491475346398, 0.5942683528343413, 0.6371443151503289, 0.6397439711147784, 0.4927366545175226, 0.5804147505911632, 0.5223124563126884, 0.49413919475249546, 0.5288116464201609, 0.4588776737792848, 0.5690566057202258, 0.6464850519326452, 0.4317683393055821, 0.441068242871316, 0.49228768248312255, 0.5438269496300423, 0.7557854706134686, 0.41259411481705355, 0.5692369416484923, 0.508161052671363, 0.6122508049298612, 0.4868932322331635, 0.6161760793749363, 0.6200830945544907, 0.5790699985469405, 0.45892469702170047, 0.5685025485816798, 0.5668536542450695, 0.4375133733395284, 0.4475823429258496, 0.5895172388167249, 0.45563342331094875, 0.5955169989233802, 0.6599281514339694, 0.4275421536414104, 0.4474508450415542, 0.6650328646696314, 0.7147170415533869, 0.4486014298962095, 0.5150947805716571, 0.6099121903645439, 0.6361794766740158, 0.48353486734070616, 0.4547962193432278, 0.47779966482199404, 0.5834456741606661, 0.6025545296938447, 0.4870724658605214, 0.5251331132496976, 0.500078018974587, 0.45236944509105753, 0.5376274408514392, 0.6659955310640031, 0.6726462508485505, 0.37368119795056015, 0.4401031068089934, 0.542829648070747, 0.7858113810713958, 0.5801073016288546, 0.6144325829115846, 0.5471491426947062, 0.4486913308012768, 0.4597169046580258, 0.7626928960213011, 0.6407944373416036, 0.6441795674391806, 0.4387037126012184, 0.5062800627681698, 0.5808124994530214, 0.4715276188682963, 0.5750498361992171, 0.5076132588968929, 0.7003738156451266, 0.5099691120441837, 0.4473052597537115, 0.6207218930192326, 0.5890154620476333, 0.5337829193575219, 0.4872185653843417, 0.48710191462178365, 28448.087095596824, 0.6075942694985033, 0.4922376358040204, 0.6367912843332909, 0.5145642026765559, 0.6553790262673705, 0.610371612429983, 0.5420951541543101, 0.5511014132676486, 0.6999099687675322, 0.7192987823276746, 0.68304624988911, 0.654163671529055, 0.7104092754387785, 0.48981519322003786, 0.4672474135241713, 0.6183094174638393, 0.6018563293958363, 0.5183544049284098]NUM ACTIONS:
[5, 5, 5, 5, 5, 5, 5, 5, 5, 5, 5, 5, 5, 5, 5, 5, 5, 6, 5, 5, 5, 5, 5, 5, 5, 5, 5, 5, 5, 5, 5, 5, 5, 5, 5, 5, 5, 5, 6, 6, 5, 5, 5, 5, 5, 5, 5, 5, 5, 5, 5, 5, 6, 5, 5, 5, 5, 5, 5, 5, 5, 5, 5, 5, 11, 5, 5, 5, 5, 6, 5, 5, 5, 5, 5, 5, 5, 5, 5, 5, 5, 11, 5, 5, 5, 6, 5, 5, 5, 5, 5, 5, 5, 5, 5, 5, 5, 5, 5, 5]
